placement/INUTIL/1hop_resultados/placement_1hop.vcd
$date
	Mon Mar 23 23:13:29 2020
$end
$version
	Icarus Verilog
$end
$timescale
	1s
$end
$scope module test $end
$var wire 1 ! out $end
$var reg 1 " clk $end
$var reg 1 # reset $end
$scope module p1 $end
$var wire 32 $ a [31:0] $end
$var wire 32 % b [31:0] $end
$var wire 1 " clk $end
$var wire 32 & outGrid [31:0] $end
$var wire 32 ' outOX [31:0] $end
$var wire 32 ( outOY [31:0] $end
$var wire 32 ) outPX [31:0] $end
$var wire 32 * outPY [31:0] $end
$var wire 1 # reset $end
$var wire 32 + doutPY [31:0] $end
$var wire 32 , doutPX [31:0] $end
$var wire 32 - doutOY [31:0] $end
$var wire 32 . doutOX [31:0] $end
$var wire 32 / doutGrid [31:0] $end
$var wire 32 0 doutEB [31:0] $end
$var wire 32 1 doutEA [31:0] $end
$var reg 32 2 addrEA [31:0] $end
$var reg 32 3 addrEB [31:0] $end
$var reg 32 4 addrGrid [31:0] $end
$var reg 32 5 addrOX [31:0] $end
$var reg 32 6 addrOY [31:0] $end
$var reg 32 7 addrPX [31:0] $end
$var reg 32 8 addrPY [31:0] $end
$var reg 32 9 aux1 [31:0] $end
$var reg 32 : aux2 [31:0] $end
$var reg 32 ; aux3 [31:0] $end
$var reg 32 < aux4 [31:0] $end
$var reg 32 = cont [31:0] $end
$var reg 32 > diff_pos_x [31:0] $end
$var reg 32 ? diff_pos_y [31:0] $end
$var reg 32 @ dinGrid [31:0] $end
$var reg 32 A dinPX [31:0] $end
$var reg 32 B dinPY [31:0] $end
$var reg 32 C i [31:0] $end
$var reg 32 D j [31:0] $end
$var reg 32 E next_state [31:0] $end
$var reg 1 ! out $end
$var reg 32 F pos_a_X [31:0] $end
$var reg 32 G pos_a_Y [31:0] $end
$var reg 32 H pos_b_X [31:0] $end
$var reg 32 I pos_b_Y [31:0] $end
$var reg 1 J reEA $end
$var reg 1 K reEB $end
$var reg 1 L reGrid $end
$var reg 1 M reOX $end
$var reg 1 N reOY $end
$var reg 1 O rePX $end
$var reg 1 P rePY $end
$var reg 32 Q state [31:0] $end
$var reg 32 R sum [31:0] $end
$var reg 32 S sum_1hop [31:0] $end
$var reg 1 T weGrid $end
$var reg 1 U wePX $end
$var reg 1 V wePY $end
$var reg 32 W xi [31:0] $end
$var reg 32 X xj [31:0] $end
$scope module ea $end
$var wire 32 Y addr [31:0] $end
$var wire 1 " clk $end
$var wire 1 J read $end
$var wire 1 # reset $end
$var reg 32 Z data [31:0] $end
$upscope $end
$scope module eb $end
$var wire 32 [ addr [31:0] $end
$var wire 1 " clk $end
$var wire 1 K read $end
$var wire 1 # reset $end
$var reg 32 \ data [31:0] $end
$upscope $end
$scope module grid $end
$var wire 32 ] addr [31:0] $end
$var wire 1 " clk $end
$var wire 32 ^ dataWrite [31:0] $end
$var wire 1 L read $end
$var wire 1 # reset $end
$var wire 1 T write $end
$var reg 32 _ dataRead [31:0] $end
$upscope $end
$scope module offset_x $end
$var wire 32 ` addr [31:0] $end
$var wire 1 " clk $end
$var wire 1 M read $end
$var wire 1 # reset $end
$var reg 32 a data [31:0] $end
$upscope $end
$scope module offset_y $end
$var wire 32 b addr [31:0] $end
$var wire 1 " clk $end
$var wire 1 N read $end
$var wire 1 # reset $end
$var reg 32 c data [31:0] $end
$upscope $end
$scope module pos_X $end
$var wire 32 d addr [31:0] $end
$var wire 1 " clk $end
$var wire 32 e dataWrite [31:0] $end
$var wire 1 O read $end
$var wire 1 # reset $end
$var wire 1 U write $end
$var reg 32 f dataRead [31:0] $end
$upscope $end
$scope module pos_Y $end
$var wire 32 g addr [31:0] $end
$var wire 1 " clk $end
$var wire 32 h dataWrite [31:0] $end
$var wire 1 P read $end
$var wire 1 # reset $end
$var wire 1 V write $end
$var reg 32 i dataRead [31:0] $end
$upscope $end
$upscope $end
$upscope $end
$enddefinitions $end
#0
$dumpvars
bx i
bx h
bx g
bx f
bx e
bx d
bx c
bx b
bx a
bx `
bx _
bx ^
bx ]
bx \
bx [
bx Z
bx Y
bx X
bx W
xV
xU
xT
bx S
bx R
bx Q
xP
xO
xN
xM
xL
xK
xJ
bx I
bx H
bx G
bx F
bx E
bx D
bx C
bx B
bx A
bx @
bx ?
bx >
bx =
bx <
bx ;
bx :
bx 9
bx 8
bx 7
bx 6
bx 5
bx 4
bx 3
bx 2
bx 1
bx 0
bx /
bx .
bx -
bx ,
bx +
bx *
bx )
bx (
bx '
bx &
bx %
bx $
0#
0"
x!
$end
#1
b0 S
b0 =
b0 R
b0 E
b0 Q
b0 @
b0 ^
b0 4
b0 ]
0T
0L
b0 B
b0 h
b0 8
b0 g
0V
0P
b0 A
b0 e
b0 7
b0 d
0U
0O
b0 6
b0 b
0N
b0 5
b0 `
0M
b0 3
b0 [
0K
b0 2
b0 Y
0J
b0 $
b0 1
b0 Z
b0 %
b0 0
b0 \
b0 '
b0 .
b0 a
b0 (
b0 -
b0 c
b0 )
b0 ,
b0 f
b0 *
b0 +
b0 i
b0 &
b0 /
b0 _
1"
1#
#2
0"
#3
b1 E
b100000 Q
b111110 6
b111110 b
1N
b111110 5
b111110 `
1M
1J
b1 =
1"
0#
#4
0"
#5
b1 Q
0N
0M
0J
b10 =
1"
#6
0"
#7
b10 Q
1U
1V
b11 =
1"
#8
0"
#9
b11 E
b100000 Q
b0 D
b0 C
1P
1O
0V
0U
b100 =
1"
#10
0"
#11
b11 Q
0P
0O
b101 =
1"
#12
0"
#13
b100 Q
1T
b110 =
1"
#14
0"
#15
b101 E
b100000 Q
1K
1J
0T
b111 =
1"
#16
0"
#17
b100 %
b100 0
b100 \
b101 Q
0K
0J
b1000 =
1"
#18
0"
#19
b110 E
b100000 Q
1P
1O
b1001 =
1"
#20
0"
#21
b110 Q
0P
0O
b1010 =
1"
#22
0"
#23
b1000 E
b111 Q
b0 G
b0 F
b1011 =
1"
#24
0"
#25
b100000 Q
b100 8
b100 g
1P
b100 7
b100 d
1O
b1100 =
1"
#26
0"
#27
b1000 Q
0P
0O
b1101 =
b11111111111111111111111111111111 *
b11111111111111111111111111111111 +
b11111111111111111111111111111111 i
b11111111111111111111111111111111 )
b11111111111111111111111111111111 ,
b11111111111111111111111111111111 f
1"
#28
0"
#29
b0 )
b0 ,
b0 f
b0 *
b0 +
b0 i
b10001 Q
b11111111111111111111111111111111 I
b11111111111111111111111111111111 H
b1110 =
1"
#30
0"
#31
b10010 E
b100000 Q
b0 6
b0 b
1N
b0 5
b0 `
1M
b1111 =
1"
#32
0"
#33
b10010 Q
0N
0M
b10000 =
1"
#34
0"
#35
b10011 Q
b0 X
b0 W
b10001 =
1"
#36
0"
#37
b10100 Q
b0 9
b10010 =
1"
#38
0"
#39
b10101 E
b100000 Q
1L
b10011 =
b1 D
1"
#40
0"
#41
b10101 Q
0L
b10100 =
1"
#42
0"
#43
b10110 Q
b0 :
b10101 =
1"
#44
0"
#45
b10001 Q
b10110 =
1"
#46
0"
#47
b10010 E
b100000 Q
b1 6
b1 b
1N
b1 5
b1 `
1M
b10111 =
1"
#48
0"
#49
b11111111111111111111111111111111 '
b11111111111111111111111111111111 .
b11111111111111111111111111111111 a
b10010 Q
0N
0M
b11000 =
1"
#50
0"
#51
b10011 Q
b11111111111111111111111111111111 W
b11001 =
1"
#52
0"
#53
b10100 Q
b11111111111111111111111111111100 9
b11010 =
1"
#54
0"
#55
b10101 E
b100000 Q
b11111111111111111111111111111100 4
b11111111111111111111111111111100 ]
1L
b11011 =
b10 D
1"
#56
0"
#57
bx &
bx /
bx _
b10101 Q
0L
b11100 =
1"
#58
0"
#59
b10110 Q
bx :
b11101 =
b0 &
b0 /
b0 _
1"
#60
0"
#61
b10001 Q
b11110 =
1"
#62
0"
#63
b10010 E
b100000 Q
b10 6
b10 b
1N
b10 5
b10 `
1M
b11111 =
1"
#64
0"
#65
b1 '
b1 .
b1 a
b10010 Q
0N
0M
b100000 =
1"
#66
0"
#67
b10011 Q
b1 W
b100001 =
1"
#68
0"
#69
b10100 Q
b100 9
b100010 =
1"
#70
0"
#71
b10101 E
b100000 Q
b100 4
b100 ]
1L
b100011 =
b11 D
1"
#72
0"
#73
b11111111111111111111111111111111 &
b11111111111111111111111111111111 /
b11111111111111111111111111111111 _
b10101 Q
0L
b100100 =
1"
#74
0"
#75
b10110 Q
b11111111111111111111111111111111 :
b100101 =
b0 &
b0 /
b0 _
1"
#76
0"
#77
b100 Q
b0 D
1V
b1 A
b1 e
1U
b0 I
b1 H
b100 @
b100 ^
1T
b100110 =
b1 C
1"
#78
0"
#79
b101 E
b100000 Q
b1 3
b1 [
1K
b1 2
b1 Y
1J
0T
0V
0U
b100111 =
1"
#80
0"
#81
b1 $
b1 1
b1 Z
b101 %
b101 0
b101 \
b101 Q
0K
0J
b101000 =
1"
#82
0"
#83
b110 E
b100000 Q
b1 8
b1 g
1P
b1 7
b1 d
1O
b101001 =
1"
#84
0"
#85
b11111111111111111111111111111111 )
b11111111111111111111111111111111 ,
b11111111111111111111111111111111 f
b11111111111111111111111111111111 *
b11111111111111111111111111111111 +
b11111111111111111111111111111111 i
b110 Q
0P
0O
b101010 =
1"
#86
0"
#87
b1000 E
b111 Q
b11111111111111111111111111111111 G
b11111111111111111111111111111111 F
b101011 =
b0 *
b0 +
b0 i
b0 )
b0 ,
b0 f
1"
#88
0"
#89
b100000 Q
b101 8
b101 g
1P
b101 7
b101 d
1O
b101100 =
1"
#90
0"
#91
b1000 Q
0P
0O
b101101 =
b11111111111111111111111111111111 *
b11111111111111111111111111111111 +
b11111111111111111111111111111111 i
b11111111111111111111111111111111 )
b11111111111111111111111111111111 ,
b11111111111111111111111111111111 f
1"
#92
0"
#93
b0 )
b0 ,
b0 f
b0 *
b0 +
b0 i
b1001 Q
b11111111111111111111111111111111 I
b11111111111111111111111111111111 H
b101110 =
1"
#94
0"
#95
b1010 E
b100000 Q
b0 6
b0 b
1N
b0 8
b0 g
1P
b0 5
b0 `
1M
b0 7
b0 d
1O
b101111 =
1"
#96
0"
#97
b0 '
b0 .
b0 a
b1010 Q
0P
0O
0N
0M
b110000 =
1"
#98
0"
#99
b1011 Q
b0 ;
b0 9
b110001 =
1"
#100
0"
#101
b1100 Q
b1 8
b1 g
1V
b0 A
b0 e
b1 7
b1 d
1U
b110010 =
1"
#102
0"
#103
b1101 E
b100000 Q
1P
1O
0V
0U
b110011 =
b1 D
1"
#104
0"
#105
b1101 Q
0P
0O
b110100 =
1"
#106
0"
#107
b1110 Q
b0 W
b110101 =
1"
#108
0"
#109
b1111 E
b100000 Q
b0 4
b0 ]
1L
b110110 =
1"
#110
0"
#111
b1111 Q
0L
b110111 =
1"
#112
0"
#113
b10000 Q
b0 :
b111000 =
1"
#114
0"
#115
b1001 Q
b111001 =
1"
#116
0"
#117
b1010 E
b100000 Q
b1 6
b1 b
1N
b0 8
b0 g
1P
b1 5
b1 `
1M
b0 7
b0 d
1O
b111010 =
1"
#118
0"
#119
b1010 Q
0P
0O
0N
0M
b111011 =
b11111111111111111111111111111111 '
b11111111111111111111111111111111 .
b11111111111111111111111111111111 a
1"
#120
0"
#121
b1011 Q
b11111111111111111111111111111111 9
b111100 =
1"
#122
0"
#123
b1100 Q
b1 8
b1 g
1V
b11111111111111111111111111111111 A
b11111111111111111111111111111111 e
b1 7
b1 d
1U
b111101 =
1"
#124
0"
#125
b1101 E
b100000 Q
1P
1O
0V
0U
b111110 =
b10 D
1"
#126
0"
#127
b1101 Q
0P
0O
b111111 =
b11111111111111111111111111111111 )
b11111111111111111111111111111111 ,
b11111111111111111111111111111111 f
1"
#128
0"
#129
b0 )
b0 ,
b0 f
b1110 Q
b11111111111111111111111111111100 9
b11111111111111111111111111111111 W
b1000000 =
1"
#130
0"
#131
b1111 E
b100000 Q
b11111111111111111111111111111100 4
b11111111111111111111111111111100 ]
1L
b1000001 =
1"
#132
0"
#133
bx &
bx /
bx _
b1111 Q
0L
b1000010 =
1"
#134
0"
#135
b10000 Q
bx :
b1000011 =
b0 &
b0 /
b0 _
1"
#136
0"
#137
b1001 Q
b1000100 =
1"
#138
0"
#139
b1010 E
b100000 Q
b10 6
b10 b
1N
b0 8
b0 g
1P
b10 5
b10 `
1M
b0 7
b0 d
1O
b1000101 =
1"
#140
0"
#141
b1 '
b1 .
b1 a
b1010 Q
0P
0O
0N
0M
b1000110 =
1"
#142
0"
#143
b1011 Q
b1 9
b1000111 =
1"
#144
0"
#145
b1100 Q
b1 8
b1 g
1V
b1 A
b1 e
b1 7
b1 d
1U
b1001000 =
1"
#146
0"
#147
b1101 E
b100000 Q
1P
1O
0V
0U
b1001001 =
b11 D
1"
#148
0"
#149
b1 )
b1 ,
b1 f
b1101 Q
0P
0O
b1001010 =
1"
#150
0"
#151
b1110 Q
b100 9
b1 W
b1001011 =
b0 )
b0 ,
b0 f
1"
#152
0"
#153
b1111 E
b100000 Q
b100 4
b100 ]
1L
b1001100 =
1"
#154
0"
#155
b1111 Q
0L
b1001101 =
b100 &
b100 /
b100 _
1"
#156
0"
#157
b0 &
b0 /
b0 _
b10000 Q
b100 :
b1001110 =
1"
#158
0"
#159
b1001 Q
b1001111 =
1"
#160
0"
#161
b1010 E
b100000 Q
b11 6
b11 b
1N
b0 8
b0 g
1P
b11 5
b11 `
1M
b0 7
b0 d
1O
b1010000 =
1"
#162
0"
#163
b1010 Q
0P
0O
0N
0M
b1010001 =
b11111111111111111111111111111111 (
b11111111111111111111111111111111 -
b11111111111111111111111111111111 c
b0 '
b0 .
b0 a
1"
#164
0"
#165
b1011 Q
b11111111111111111111111111111111 ;
b0 9
b1010010 =
1"
#166
0"
#167
b1100 Q
b11111111111111111111111111111111 B
b11111111111111111111111111111111 h
b1 8
b1 g
1V
b0 A
b0 e
b1 7
b1 d
1U
b1010011 =
1"
#168
0"
#169
b1101 E
b100000 Q
1P
1O
0V
0U
b1010100 =
b100 D
1"
#170
0"
#171
b1101 Q
0P
0O
b1010101 =
b11111111111111111111111111111111 *
b11111111111111111111111111111111 +
b11111111111111111111111111111111 i
1"
#172
0"
#173
b0 *
b0 +
b0 i
b1110 Q
b11111111111111111111111111111111 9
b11111111111111111111111111111111 X
b0 W
b1010110 =
1"
#174
0"
#175
b1111 E
b100000 Q
b11111111111111111111111111111111 4
b11111111111111111111111111111111 ]
1L
b1010111 =
1"
#176
0"
#177
bx &
bx /
bx _
b1111 Q
0L
b1011000 =
1"
#178
0"
#179
b10000 Q
bx :
b1011001 =
b0 &
b0 /
b0 _
1"
#180
0"
#181
b1001 Q
b1011010 =
1"
#182
0"
#183
b1010 E
b100000 Q
b100 6
b100 b
1N
b0 8
b0 g
1P
b100 5
b100 `
1M
b0 7
b0 d
1O
b1011011 =
1"
#184
0"
#185
b1010 Q
0P
0O
0N
0M
b1011100 =
1"
#186
0"
#187
b1011 Q
b0 9
b1011101 =
1"
#188
0"
#189
b1100 Q
b1 8
b1 g
1V
b1 7
b1 d
1U
b1011110 =
1"
#190
0"
#191
b1101 E
b100000 Q
1P
1O
0V
0U
b1011111 =
b101 D
1"
#192
0"
#193
b11111111111111111111111111111111 *
b11111111111111111111111111111111 +
b11111111111111111111111111111111 i
b1101 Q
0P
0O
b1100000 =
1"
#194
0"
#195
b1110 Q
b11111111111111111111111111111111 9
b1100001 =
b0 *
b0 +
b0 i
1"
#196
0"
#197
b1111 E
b100000 Q
1L
b1100010 =
1"
#198
0"
#199
b1111 Q
0L
b1100011 =
bx &
bx /
bx _
1"
#200
0"
#201
b0 &
b0 /
b0 _
b10000 Q
b1100100 =
1"
#202
0"
#203
b1001 Q
b1100101 =
1"
#204
0"
#205
b1010 E
b100000 Q
b101 6
b101 b
1N
b0 8
b0 g
1P
b101 5
b101 `
1M
b0 7
b0 d
1O
b1100110 =
1"
#206
0"
#207
b1010 Q
0P
0O
0N
0M
b1100111 =
b1 (
b1 -
b1 c
b11111111111111111111111111111111 '
b11111111111111111111111111111111 .
b11111111111111111111111111111111 a
1"
#208
0"
#209
b1011 Q
b1 ;
b1101000 =
1"
#210
0"
#211
b1100 Q
b1 B
b1 h
b1 8
b1 g
1V
b11111111111111111111111111111111 A
b11111111111111111111111111111111 e
b1 7
b1 d
1U
b1101001 =
1"
#212
0"
#213
b1101 E
b100000 Q
1P
1O
0V
0U
b1101010 =
b110 D
1"
#214
0"
#215
b1101 Q
0P
0O
b1101011 =
b1 *
b1 +
b1 i
b11111111111111111111111111111111 )
b11111111111111111111111111111111 ,
b11111111111111111111111111111111 f
1"
#216
0"
#217
b0 )
b0 ,
b0 f
b0 *
b0 +
b0 i
b1110 Q
b11111111111111111111111111111101 9
b1 X
b11111111111111111111111111111111 W
b1101100 =
1"
#218
0"
#219
b1111 E
b100000 Q
b11111111111111111111111111111101 4
b11111111111111111111111111111101 ]
1L
b1101101 =
1"
#220
0"
#221
bx &
bx /
bx _
b1111 Q
0L
b1101110 =
1"
#222
0"
#223
b10000 Q
b1101111 =
b0 &
b0 /
b0 _
1"
#224
0"
#225
b1001 Q
b1110000 =
1"
#226
0"
#227
b1010 E
b100000 Q
b110 6
b110 b
1N
b0 8
b0 g
1P
b110 5
b110 `
1M
b0 7
b0 d
1O
b1110001 =
1"
#228
0"
#229
b1 '
b1 .
b1 a
b1010 Q
0P
0O
0N
0M
b1110010 =
1"
#230
0"
#231
b1011 Q
b1 9
b1110011 =
1"
#232
0"
#233
b1100 Q
b1 8
b1 g
1V
b1 A
b1 e
b1 7
b1 d
1U
b1110100 =
1"
#234
0"
#235
b1101 E
b100000 Q
1P
1O
0V
0U
b1110101 =
b111 D
1"
#236
0"
#237
b1 )
b1 ,
b1 f
b1 *
b1 +
b1 i
b1101 Q
0P
0O
b1110110 =
1"
#238
0"
#239
b1110 Q
b101 9
b1 W
b1110111 =
b0 *
b0 +
b0 i
b0 )
b0 ,
b0 f
1"
#240
0"
#241
b1111 E
b100000 Q
b101 4
b101 ]
1L
b1111000 =
1"
#242
0"
#243
b1111 Q
0L
b1111001 =
b11111111111111111111111111111111 &
b11111111111111111111111111111111 /
b11111111111111111111111111111111 _
1"
#244
0"
#245
b0 &
b0 /
b0 _
b10000 Q
b11111111111111111111111111111111 :
b1111010 =
1"
#246
0"
#247
b0 D
b10001 Q
b1 G
b1 F
b1 @
b1 ^
1T
b1111011 =
1"
#248
0"
#249
b10010 E
b100000 Q
b0 6
b0 b
1N
b0 5
b0 `
1M
0T
b1111100 =
1"
#250
0"
#251
b10010 Q
0N
0M
b1111101 =
b0 (
b0 -
b0 c
b0 '
b0 .
b0 a
1"
#252
0"
#253
b10011 Q
b1111110 =
1"
#254
0"
#255
b10100 Q
b1111111 =
1"
#256
0"
#257
b10101 E
b100000 Q
1L
b10000000 =
b1 D
1"
#258
0"
#259
b10101 Q
0L
b10000001 =
b1 &
b1 /
b1 _
1"
#260
0"
#261
b0 &
b0 /
b0 _
b10110 Q
b1 :
b10000010 =
1"
#262
0"
#263
b10001 Q
b10000011 =
1"
#264
0"
#265
b10010 E
b100000 Q
b1 6
b1 b
1N
b1 5
b1 `
1M
b10000100 =
1"
#266
0"
#267
b10010 Q
0N
0M
b10000101 =
b11111111111111111111111111111111 '
b11111111111111111111111111111111 .
b11111111111111111111111111111111 a
1"
#268
0"
#269
b10011 Q
b0 W
b10000110 =
1"
#270
0"
#271
b10100 Q
b1 9
b10000111 =
1"
#272
0"
#273
b10101 E
b100000 Q
b1 4
b1 ]
1L
b10001000 =
b10 D
1"
#274
0"
#275
b10101 Q
0L
b10001001 =
b11111111111111111111111111111111 &
b11111111111111111111111111111111 /
b11111111111111111111111111111111 _
1"
#276
0"
#277
b0 &
b0 /
b0 _
b10110 Q
b11111111111111111111111111111111 :
b10001010 =
1"
#278
0"
#279
b100 Q
b0 D
b101 8
b101 g
1V
b0 A
b0 e
b101 7
b101 d
1U
b1 I
b0 H
b101 @
b101 ^
1T
b10001011 =
b10 C
1"
#280
0"
#281
b101 E
b100000 Q
b10 3
b10 [
1K
b10 2
b10 Y
1J
0T
0V
0U
b10001100 =
1"
#282
0"
#283
b101 Q
0K
0J
b10001101 =
b110 %
b110 0
b110 \
b10 $
b10 1
b10 Z
1"
#284
0"
#285
b110 E
b100000 Q
b10 8
b10 g
1P
b10 7
b10 d
1O
b10001110 =
1"
#286
0"
#287
b110 Q
0P
0O
b10001111 =
b11111111111111111111111111111111 *
b11111111111111111111111111111111 +
b11111111111111111111111111111111 i
b11111111111111111111111111111111 )
b11111111111111111111111111111111 ,
b11111111111111111111111111111111 f
1"
#288
0"
#289
b0 )
b0 ,
b0 f
b0 *
b0 +
b0 i
b1000 E
b111 Q
b11111111111111111111111111111111 G
b11111111111111111111111111111111 F
b10010000 =
1"
#290
0"
#291
b100000 Q
b110 8
b110 g
1P
b110 7
b110 d
1O
b10010001 =
1"
#292
0"
#293
b11111111111111111111111111111111 )
b11111111111111111111111111111111 ,
b11111111111111111111111111111111 f
b11111111111111111111111111111111 *
b11111111111111111111111111111111 +
b11111111111111111111111111111111 i
b1000 Q
0P
0O
b10010010 =
1"
#294
0"
#295
b1001 Q
b11111111111111111111111111111111 I
b11111111111111111111111111111111 H
b10010011 =
b0 *
b0 +
b0 i
b0 )
b0 ,
b0 f
1"
#296
0"
#297
b1010 E
b100000 Q
b0 6
b0 b
1N
b1 8
b1 g
1P
b0 5
b0 `
1M
b1 7
b1 d
1O
b10010100 =
1"
#298
0"
#299
b1010 Q
0P
0O
0N
0M
b10010101 =
b1 *
b1 +
b1 i
b1 )
b1 ,
b1 f
b0 '
b0 .
b0 a
1"
#300
0"
#301
b0 )
b0 ,
b0 f
b0 *
b0 +
b0 i
b1011 Q
b10010110 =
1"
#302
0"
#303
b1100 Q
b10 8
b10 g
1V
b1 A
b1 e
b10 7
b10 d
1U
b10010111 =
1"
#304
0"
#305
b1101 E
b100000 Q
1P
1O
0V
0U
b10011000 =
b1 D
1"
#306
0"
#307
b1101 Q
0P
0O
b10011001 =
b1 *
b1 +
b1 i
b1 )
b1 ,
b1 f
1"
#308
0"
#309
b0 )
b0 ,
b0 f
b0 *
b0 +
b0 i
b1110 Q
b101 9
b1 W
b10011010 =
1"
#310
0"
#311
b1111 E
b100000 Q
b101 4
b101 ]
1L
b10011011 =
1"
#312
0"
#313
b1 &
b1 /
b1 _
b1111 Q
0L
b10011100 =
1"
#314
0"
#315
b10000 Q
b1 :
b10011101 =
b0 &
b0 /
b0 _
1"
#316
0"
#317
b1001 Q
b10011110 =
1"
#318
0"
#319
b1010 E
b100000 Q
b1 6
b1 b
1N
b1 8
b1 g
1P
b1 5
b1 `
1M
b1 7
b1 d
1O
b10011111 =
1"
#320
0"
#321
b11111111111111111111111111111111 '
b11111111111111111111111111111111 .
b11111111111111111111111111111111 a
b1 )
b1 ,
b1 f
b1 *
b1 +
b1 i
b1010 Q
0P
0O
0N
0M
b10100000 =
1"
#322
0"
#323
b1011 Q
b0 9
b10100001 =
b0 *
b0 +
b0 i
b0 )
b0 ,
b0 f
1"
#324
0"
#325
b1100 Q
b10 8
b10 g
1V
b0 A
b0 e
b10 7
b10 d
1U
b10100010 =
1"
#326
0"
#327
b1101 E
b100000 Q
1P
1O
0V
0U
b10100011 =
b10 D
1"
#328
0"
#329
b1 *
b1 +
b1 i
b1101 Q
0P
0O
b10100100 =
1"
#330
0"
#331
b1110 Q
b1 9
b0 W
b10100101 =
b0 *
b0 +
b0 i
1"
#332
0"
#333
b1111 E
b100000 Q
b1 4
b1 ]
1L
b10100110 =
1"
#334
0"
#335
b1111 Q
0L
b10100111 =
b101 &
b101 /
b101 _
1"
#336
0"
#337
b0 &
b0 /
b0 _
b10000 Q
b101 :
b10101000 =
1"
#338
0"
#339
b1001 Q
b10101001 =
1"
#340
0"
#341
b1010 E
b100000 Q
b10 6
b10 b
1N
b1 8
b1 g
1P
b10 5
b10 `
1M
b1 7
b1 d
1O
b10101010 =
1"
#342
0"
#343
b1010 Q
0P
0O
0N
0M
b10101011 =
b1 *
b1 +
b1 i
b1 )
b1 ,
b1 f
b1 '
b1 .
b1 a
1"
#344
0"
#345
b0 )
b0 ,
b0 f
b0 *
b0 +
b0 i
b1011 Q
b10 9
b10101100 =
1"
#346
0"
#347
b1100 Q
b10 8
b10 g
1V
b10 A
b10 e
b10 7
b10 d
1U
b10101101 =
1"
#348
0"
#349
b1101 E
b100000 Q
1P
1O
0V
0U
b10101110 =
b11 D
1"
#350
0"
#351
b1101 Q
0P
0O
b10101111 =
b1 *
b1 +
b1 i
b10 )
b10 ,
b10 f
1"
#352
0"
#353
b0 )
b0 ,
b0 f
b0 *
b0 +
b0 i
b1110 Q
b1001 9
b10 W
b10110000 =
1"
#354
0"
#355
b1111 E
b100000 Q
b1001 4
b1001 ]
1L
b10110001 =
1"
#356
0"
#357
b11111111111111111111111111111111 &
b11111111111111111111111111111111 /
b11111111111111111111111111111111 _
b1111 Q
0L
b10110010 =
1"
#358
0"
#359
b10000 Q
b11111111111111111111111111111111 :
b10110011 =
b0 &
b0 /
b0 _
1"
#360
0"
#361
b0 D
b10001 Q
b1 G
b10 F
b10 @
b10 ^
1T
b10110100 =
1"
#362
0"
#363
b10010 E
b100000 Q
b0 6
b0 b
1N
b0 5
b0 `
1M
0T
b10110101 =
1"
#364
0"
#365
b0 '
b0 .
b0 a
b10010 Q
0N
0M
b10110110 =
1"
#366
0"
#367
b10011 Q
b10110111 =
1"
#368
0"
#369
b10100 Q
b10111000 =
1"
#370
0"
#371
b10101 E
b100000 Q
1L
b10111001 =
b1 D
1"
#372
0"
#373
b10 &
b10 /
b10 _
b10101 Q
0L
b10111010 =
1"
#374
0"
#375
b10110 Q
b10 :
b10111011 =
b0 &
b0 /
b0 _
1"
#376
0"
#377
b10001 Q
b10111100 =
1"
#378
0"
#379
b10010 E
b100000 Q
b1 6
b1 b
1N
b1 5
b1 `
1M
b10111101 =
1"
#380
0"
#381
b11111111111111111111111111111111 '
b11111111111111111111111111111111 .
b11111111111111111111111111111111 a
b10010 Q
0N
0M
b10111110 =
1"
#382
0"
#383
b10011 Q
b1 W
b10111111 =
1"
#384
0"
#385
b10100 Q
b101 9
b11000000 =
1"
#386
0"
#387
b10101 E
b100000 Q
b101 4
b101 ]
1L
b11000001 =
b10 D
1"
#388
0"
#389
b1 &
b1 /
b1 _
b10101 Q
0L
b11000010 =
1"
#390
0"
#391
b10110 Q
b1 :
b11000011 =
b0 &
b0 /
b0 _
1"
#392
0"
#393
b10001 Q
b11000100 =
1"
#394
0"
#395
b10010 E
b100000 Q
b10 6
b10 b
1N
b10 5
b10 `
1M
b11000101 =
1"
#396
0"
#397
b1 '
b1 .
b1 a
b10010 Q
0N
0M
b11000110 =
1"
#398
0"
#399
b10011 Q
b11 W
b11000111 =
1"
#400
0"
#401
b10100 Q
b1101 9
b11001000 =
1"
#402
0"
#403
b10101 E
b100000 Q
b1101 4
b1101 ]
1L
b11001001 =
b11 D
1"
#404
0"
#405
b11111111111111111111111111111111 &
b11111111111111111111111111111111 /
b11111111111111111111111111111111 _
b10101 Q
0L
b11001010 =
1"
#406
0"
#407
b10110 Q
b11111111111111111111111111111111 :
b11001011 =
b0 &
b0 /
b0 _
1"
#408
0"
#409
b100 Q
b0 D
b110 8
b110 g
1V
b11 A
b11 e
b110 7
b110 d
1U
b1 I
b11 H
b110 @
b110 ^
1T
b11001100 =
b11 C
1"
#410
0"
#411
b101 E
b100000 Q
b11 3
b11 [
1K
b11 2
b11 Y
1J
0T
0V
0U
b11001101 =
1"
#412
0"
#413
b11 $
b11 1
b11 Z
b111 %
b111 0
b111 \
b101 Q
0K
0J
b11001110 =
1"
#414
0"
#415
b110 E
b100000 Q
b11 8
b11 g
1P
b11 7
b11 d
1O
b11001111 =
1"
#416
0"
#417
b11111111111111111111111111111111 )
b11111111111111111111111111111111 ,
b11111111111111111111111111111111 f
b11111111111111111111111111111111 *
b11111111111111111111111111111111 +
b11111111111111111111111111111111 i
b110 Q
0P
0O
b11010000 =
1"
#418
0"
#419
b1000 E
b111 Q
b11111111111111111111111111111111 G
b11111111111111111111111111111111 F
b11010001 =
b0 *
b0 +
b0 i
b0 )
b0 ,
b0 f
1"
#420
0"
#421
b100000 Q
b111 8
b111 g
1P
b111 7
b111 d
1O
b11010010 =
1"
#422
0"
#423
b1000 Q
0P
0O
b11010011 =
b11111111111111111111111111111111 *
b11111111111111111111111111111111 +
b11111111111111111111111111111111 i
b11111111111111111111111111111111 )
b11111111111111111111111111111111 ,
b11111111111111111111111111111111 f
1"
#424
0"
#425
b0 )
b0 ,
b0 f
b0 *
b0 +
b0 i
b1001 Q
b11111111111111111111111111111111 I
b11111111111111111111111111111111 H
b11010100 =
1"
#426
0"
#427
b1010 E
b100000 Q
b0 6
b0 b
1N
b10 8
b10 g
1P
b0 5
b0 `
1M
b10 7
b10 d
1O
b11010101 =
1"
#428
0"
#429
b0 '
b0 .
b0 a
b10 )
b10 ,
b10 f
b1 *
b1 +
b1 i
b1010 Q
0P
0O
0N
0M
b11010110 =
1"
#430
0"
#431
b1011 Q
b10 9
b11010111 =
b0 *
b0 +
b0 i
b0 )
b0 ,
b0 f
1"
#432
0"
#433
b1100 Q
b11 8
b11 g
1V
b10 A
b10 e
b11 7
b11 d
1U
b11011000 =
1"
#434
0"
#435
b1101 E
b100000 Q
1P
1O
0V
0U
b11011001 =
b1 D
1"
#436
0"
#437
b10 )
b10 ,
b10 f
b1 *
b1 +
b1 i
b1101 Q
0P
0O
b11011010 =
1"
#438
0"
#439
b1110 Q
b1001 9
b10 W
b11011011 =
b0 *
b0 +
b0 i
b0 )
b0 ,
b0 f
1"
#440
0"
#441
b1111 E
b100000 Q
b1001 4
b1001 ]
1L
b11011100 =
1"
#442
0"
