placement/NEW/random_placement_poly8.vcd
$date
	Thu May  7 17:30:14 2020
$end
$version
	Icarus Verilog
$end
$timescale
	1s
$end
$scope module test $end
$var wire 1 ! out $end
$var reg 1 " clk $end
$var reg 1 # reset $end
$scope module p1 $end
$var wire 32 $ a [31:0] $end
$var wire 32 % b [31:0] $end
$var wire 1 " clk $end
$var wire 32 & outGrid [31:0] $end
$var wire 32 ' outOX1 [31:0] $end
$var wire 32 ( outOX2 [31:0] $end
$var wire 32 ) outOX3 [31:0] $end
$var wire 32 * outOX4 [31:0] $end
$var wire 32 + outOY1 [31:0] $end
$var wire 32 , outOY2 [31:0] $end
$var wire 32 - outOY3 [31:0] $end
$var wire 32 . outOY4 [31:0] $end
$var wire 32 / outPX [31:0] $end
$var wire 32 0 outPY [31:0] $end
$var wire 1 # reset $end
$var wire 32 1 doutPY [31:0] $end
$var wire 32 2 doutPX [31:0] $end
$var wire 32 3 doutOY4 [31:0] $end
$var wire 32 4 doutOY3 [31:0] $end
$var wire 32 5 doutOY2 [31:0] $end
$var wire 32 6 doutOY1 [31:0] $end
$var wire 32 7 doutOX4 [31:0] $end
$var wire 32 8 doutOX3 [31:0] $end
$var wire 32 9 doutOX2 [31:0] $end
$var wire 32 : doutOX1 [31:0] $end
$var wire 32 ; doutGrid [31:0] $end
$var wire 32 < doutEB [31:0] $end
$var wire 32 = doutEA [31:0] $end
$var reg 32 > CASR_reg [31:0] $end
$var reg 32 ? LFSR_reg [31:0] $end
$var reg 32 @ addrEA [31:0] $end
$var reg 32 A addrEB [31:0] $end
$var reg 32 B addrGrid [31:0] $end
$var reg 32 C addrOX1 [31:0] $end
$var reg 32 D addrOX2 [31:0] $end
$var reg 32 E addrOX3 [31:0] $end
$var reg 32 F addrOX4 [31:0] $end
$var reg 32 G addrOY1 [31:0] $end
$var reg 32 H addrOY2 [31:0] $end
$var reg 32 I addrOY3 [31:0] $end
$var reg 32 J addrOY4 [31:0] $end
$var reg 32 K addrPX [31:0] $end
$var reg 32 L addrPY [31:0] $end
$var reg 32 M aux1 [31:0] $end
$var reg 32 N aux2 [31:0] $end
$var reg 32 O aux3 [31:0] $end
$var reg 32 P aux4 [31:0] $end
$var reg 32 Q cont [31:0] $end
$var reg 32 R diff_pos_x [31:0] $end
$var reg 32 S diff_pos_y [31:0] $end
$var reg 32 T dinGrid [31:0] $end
$var reg 32 U dinPX [31:0] $end
$var reg 32 V dinPY [31:0] $end
$var reg 32 W i [31:0] $end
$var reg 32 X j [31:0] $end
$var reg 32 Y k [31:0] $end
$var reg 32 Z next_state [31:0] $end
$var reg 1 ! out $end
$var reg 1 [ outbitLFSR $end
$var reg 32 \ pos_a_X [31:0] $end
$var reg 32 ] pos_a_Y [31:0] $end
$var reg 32 ^ pos_b_X [31:0] $end
$var reg 32 _ pos_b_Y [31:0] $end
$var reg 1 ` reEA $end
$var reg 1 a reEB $end
$var reg 1 b reGrid $end
$var reg 1 c reOX1 $end
$var reg 1 d reOX2 $end
$var reg 1 e reOX3 $end
$var reg 1 f reOX4 $end
$var reg 1 g reOY1 $end
$var reg 1 h reOY2 $end
$var reg 1 i reOY3 $end
$var reg 1 j reOY4 $end
$var reg 1 k rePX $end
$var reg 1 l rePY $end
$var reg 32 m rnd_number [31:0] $end
$var reg 32 n seed [31:0] $end
$var reg 32 o state [31:0] $end
$var reg 32 p sum [31:0] $end
$var reg 32 q sum_1hop [31:0] $end
$var reg 1 r weGrid $end
$var reg 1 s wePX $end
$var reg 1 t wePY $end
$var reg 32 u xi [31:0] $end
$var reg 32 v xj [31:0] $end
$scope module ea $end
$var wire 32 w addr [31:0] $end
$var wire 1 " clk $end
$var wire 1 ` read $end
$var reg 32 x data [31:0] $end
$upscope $end
$scope module eb $end
$var wire 32 y addr [31:0] $end
$var wire 1 " clk $end
$var wire 1 a read $end
$var reg 32 z data [31:0] $end
$upscope $end
$scope module grid $end
$var wire 32 { addr [31:0] $end
$var wire 1 " clk $end
$var wire 32 | dataWrite [31:0] $end
$var wire 1 b read $end
$var wire 1 # reset $end
$var wire 1 r write $end
$var reg 32 } dataRead [31:0] $end
$var reg 32 ~ i [31:0] $end
$var reg 32 !" j [31:0] $end
$upscope $end
$scope module offset_x1 $end
$var wire 32 "" addr [31:0] $end
$var wire 1 " clk $end
$var wire 1 c read $end
$var reg 32 #" data [31:0] $end
$upscope $end
$scope module offset_x2 $end
$var wire 32 $" addr [31:0] $end
$var wire 1 " clk $end
$var wire 1 d read $end
$var reg 32 %" data [31:0] $end
$upscope $end
$scope module offset_x3 $end
$var wire 32 &" addr [31:0] $end
$var wire 1 " clk $end
$var wire 1 e read $end
$var reg 32 '" data [31:0] $end
$upscope $end
$scope module offset_x4 $end
$var wire 32 (" addr [31:0] $end
$var wire 1 " clk $end
$var wire 1 f read $end
$var reg 32 )" data [31:0] $end
$upscope $end
$scope module offset_y1 $end
$var wire 32 *" addr [31:0] $end
$var wire 1 " clk $end
$var wire 1 g read $end
$var reg 32 +" data [31:0] $end
$upscope $end
$scope module offset_y2 $end
$var wire 32 ," addr [31:0] $end
$var wire 1 " clk $end
$var wire 1 h read $end
$var reg 32 -" data [31:0] $end
$upscope $end
$scope module offset_y3 $end
$var wire 32 ." addr [31:0] $end
$var wire 1 " clk $end
$var wire 1 i read $end
$var reg 32 /" data [31:0] $end
$upscope $end
$scope module offset_y4 $end
$var wire 32 0" addr [31:0] $end
$var wire 1 " clk $end
$var wire 1 j read $end
$var reg 32 1" data [31:0] $end
$upscope $end
$scope module pos_X $end
$var wire 32 2" addr [31:0] $end
$var wire 1 " clk $end
$var wire 32 3" dataWrite [31:0] $end
$var wire 1 k read $end
$var wire 1 # reset $end
$var wire 1 s write $end
$var reg 32 4" dataRead [31:0] $end
$var reg 32 5" i [31:0] $end
$var reg 32 6" j [31:0] $end
$upscope $end
$scope module pos_Y $end
$var wire 32 7" addr [31:0] $end
$var wire 1 " clk $end
$var wire 32 8" dataWrite [31:0] $end
$var wire 1 l read $end
$var wire 1 # reset $end
$var wire 1 t write $end
$var reg 32 9" dataRead [31:0] $end
$var reg 32 :" i [31:0] $end
$var reg 32 ;" j [31:0] $end
$upscope $end
$upscope $end
$upscope $end
$enddefinitions $end
#0
$dumpvars
bx ;"
bx :"
bx 9"
bx 8"
bx 7"
bx 6"
bx 5"
bx 4"
bx 3"
bx 2"
b0 1"
bx 0"
b0 /"
bx ."
b0 -"
bx ,"
b0 +"
bx *"
b0 )"
bx ("
b0 '"
bx &"
b0 %"
bx $"
b0 #"
bx ""
bx !"
bx ~
bx }
bx |
bx {
b0 z
bx y
b0 x
bx w
bx v
bx u
xt
xs
xr
bx q
bx p
bx o
bx n
bx m
xl
xk
xj
xi
xh
xg
xf
xe
xd
xc
xb
xa
x`
bx _
bx ^
bx ]
bx \
x[
bx Z
bx Y
bx X
bx W
bx V
bx U
bx T
bx S
bx R
bx Q
bx P
bx O
bx N
bx M
bx L
bx K
bx J
bx I
bx H
bx G
bx F
bx E
bx D
bx C
bx B
bx A
bx @
bx ?
bx >
b0 =
b0 <
bx ;
b0 :
b0 9
b0 8
b0 7
b0 6
b0 5
b0 4
b0 3
bx 2
bx 1
bx 0
bx /
b0 .
b0 -
b0 ,
b0 +
b0 *
b0 )
b0 (
b0 '
bx &
b0 %
b0 $
0#
0"
x!
$end
#1
b1111010110011010001111000011 n
b0 q
b0 Q
b0 p
b0 Z
b100001 o
b0 T
b0 |
b0 B
b0 {
0r
0b
b0 V
b0 8"
b0 L
b0 7"
0t
0l
b0 U
b0 3"
b0 K
b0 2"
0s
0k
b0 J
b0 0"
0j
b0 F
b0 ("
0f
b0 I
b0 ."
0i
b0 E
b0 &"
0e
b0 H
b0 ,"
0h
b0 D
b0 $"
0d
b0 G
b0 *"
0g
b0 C
b0 ""
0c
b0 A
b0 y
0a
b0 @
b0 w
0`
b0 /
b0 2
b0 4"
b0 0
b0 1
b0 9"
b0 &
b0 ;
b0 }
1"
1#
#2
0"
#3
b100011 o
1[
b1111010110011010001111000011 ?
b1111010110011010001111000011 >
b1 Q
b1100 !"
b1100 ~
b111 ;"
b111 :"
b111 6"
b111 5"
1"
0#
#4
0"
#5
b100100 o
b1111010110011010001111000010 ?
b1 >
b10 Q
b111 6"
b111 5"
b111 ;"
b111 :"
b1100 !"
b1100 ~
1"
#6
0"
#7
b0 o
b1111010110011010001111000011 m
b11 Q
b1100 !"
b1100 ~
b111 ;"
b111 :"
b111 6"
b111 5"
1"
#8
0"
#9
b1 Z
b100000 o
1`
b100 Q
b111 6"
b111 5"
b111 ;"
b111 :"
b1100 !"
b1100 ~
1"
#10
0"
#11
b1 o
0`
b101 Q
b1001101 $
b1001101 =
b1001101 x
b1100 !"
b1100 ~
b111 ;"
b111 :"
b111 6"
b111 5"
1"
#12
0"
#13
b100010 Z
b100001 o
b1111010110011010001111000100 n
b111 U
b111 3"
b1001101 K
b1001101 2"
1s
b110 Q
b111 6"
b111 5"
b111 ;"
b111 :"
b1100 !"
b1100 ~
1"
#14
0"
#15
b100011 o
b1111010110011010001111000100 ?
b1111010110011010001111000100 >
0s
b111 Q
b1100 !"
b1100 ~
b111 ;"
b111 :"
b111 6"
b111 5"
1"
#16
0"
#17
b100100 o
b1111010110011010001111000101 ?
b111 >
b1000 Q
b111 6"
b111 5"
b111 ;"
b111 :"
b1100 !"
b1100 ~
1"
#18
0"
#19
b100010 o
b1111010110011010001111000010 m
b1001 Q
b1100 !"
b1100 ~
b111 ;"
b111 :"
b111 6"
b111 5"
1"
#20
0"
#21
b10 Z
b100001 o
b1111010110011010001111000101 n
b110 V
b110 8"
b1001101 L
b1001101 7"
1t
b1010 Q
b111 6"
b111 5"
b111 ;"
b111 :"
b1100 !"
b1100 ~
1"
#22
0"
#23
b100011 o
b1111010110011010001111000101 >
0t
b1011 Q
b1100 !"
b1100 ~
b111 ;"
b111 :"
b111 6"
b111 5"
1"
#24
0"
#25
b100100 o
b1111010110011010001111000100 ?
b1 >
b1100 Q
b111 6"
b111 5"
b111 ;"
b111 :"
b1100 !"
b1100 ~
1"
#26
0"
#27
b10 o
b1111010110011010001111000101 m
b1101 Q
b1100 !"
b1100 ~
b111 ;"
b111 :"
b111 6"
b111 5"
1"
#28
0"
#29
b11 Z
b100000 o
b0 X
b0 W
1l
1k
b1110 Q
b111 6"
b111 5"
b111 ;"
b111 :"
b1100 !"
b1100 ~
1"
#30
0"
#31
b11 o
0l
0k
b1111 Q
b110 0
b110 1
b110 9"
b111 /
b111 2
b111 4"
b1100 !"
b1100 ~
b111 ;"
b111 :"
b111 6"
b111 5"
1"
#32
0"
#33
b0 /
b0 2
b0 4"
b0 0
b0 1
b0 9"
b100 o
b1001101 T
b1001101 |
b1001100 B
b1001100 {
1r
b10000 Q
b111 6"
b111 5"
b111 ;"
b111 :"
b1100 !"
b1100 ~
1"
#34
0"
#35
b101 Z
b100000 o
1a
1`
0r
b10001 Q
b1100 !"
b1100 ~
b111 ;"
b111 :"
b111 6"
b111 5"
1"
#36
0"
#37
b1010000 %
b1010000 <
b1010000 z
b101 o
0a
0`
b10010 Q
b111 6"
b111 5"
b111 ;"
b111 :"
b1100 !"
b1100 ~
1"
#38
0"
#39
b110 Z
b100000 o
1l
1k
b10011 Q
b1100 !"
b1100 ~
b111 ;"
b111 :"
b111 6"
b111 5"
1"
#40
0"
#41
b111 /
b111 2
b111 4"
b110 0
b110 1
b110 9"
b110 o
0l
0k
b10100 Q
b111 6"
b111 5"
b111 ;"
b111 :"
b1100 !"
b1100 ~
1"
#42
0"
#43
b1000 Z
b111 o
b110 ]
b111 \
b10101 Q
b0 0
b0 1
b0 9"
b0 /
b0 2
b0 4"
b1100 !"
b1100 ~
b111 ;"
b111 :"
b111 6"
b111 5"
1"
#44
0"
#45
b100000 o
b1010000 L
b1010000 7"
1l
b1010000 K
b1010000 2"
1k
b10110 Q
b111 6"
b111 5"
b111 ;"
b111 :"
b1100 !"
b1100 ~
1"
#46
0"
#47
b1000 o
0l
0k
b10111 Q
b11111111111111111111111111111111 0
b11111111111111111111111111111111 1
b11111111111111111111111111111111 9"
b11111111111111111111111111111111 /
b11111111111111111111111111111111 2
b11111111111111111111111111111111 4"
b1100 !"
b1100 ~
b111 ;"
b111 :"
b111 6"
b111 5"
1"
#48
0"
#49
b0 /
b0 2
b0 4"
b0 0
b0 1
b0 9"
b10001 o
b11111111111111111111111111111111 _
b11111111111111111111111111111111 ^
b11000 Q
b111 6"
b111 5"
b111 ;"
b111 :"
b1100 !"
b1100 ~
1"
#50
0"
#51
b10010 Z
b100001 o
1j
1i
1h
1g
1f
1e
1d
1c
b1111010110011010001111000110 n
b1 Y
b11001 Q
b1100 !"
b1100 ~
b111 ;"
b111 :"
b111 6"
b111 5"
1"
#52
0"
#53
b100011 o
b1111010110011010001111000110 ?
b1111010110011010001111000110 >
0j
0f
0i
0e
0h
0d
0g
0c
b11010 Q
b111 6"
b111 5"
b111 ;"
b111 :"
b1100 !"
b1100 ~
1"
#54
0"
#55
b100100 o
b1111010110011010001111000111 ?
b11 >
b11011 Q
b1100 !"
b1100 ~
b111 ;"
b111 :"
b111 6"
b111 5"
1"
#56
0"
#57
b10010 o
b1111010110011010001111000100 m
b11100 Q
b111 6"
b111 5"
b111 ;"
b111 :"
b1100 !"
b1100 ~
1"
#58
0"
#59
b10011 o
b110 v
b111 u
b11101 Q
b1100 !"
b1100 ~
b111 ;"
b111 :"
b111 6"
b111 5"
1"
#60
0"
#61
b10100 o
b1001100 M
b11110 Q
b111 6"
b111 5"
b111 ;"
b111 :"
b1100 !"
b1100 ~
1"
#62
0"
#63
b10101 Z
b100000 o
1b
b11111 Q
b1 X
b1100 !"
b1100 ~
b111 ;"
b111 :"
b111 6"
b111 5"
1"
#64
0"
#65
b1001101 &
b1001101 ;
b1001101 }
b10101 o
0b
b100000 Q
b111 6"
b111 5"
b111 ;"
b111 :"
b1100 !"
b1100 ~
1"
#66
0"
#67
b10110 o
b1001101 N
b100001 Q
b0 &
b0 ;
b0 }
b1100 !"
b1100 ~
b111 ;"
b111 :"
b111 6"
b111 5"
1"
#68
0"
#69
b10001 o
b100010 Q
b111 6"
b111 5"
b111 ;"
b111 :"
b1100 !"
b1100 ~
1"
#70
0"
#71
b10010 Z
b100001 o
b1 J
b1 0"
1j
b1 I
b1 ."
1i
b1 H
b1 ,"
1h
b1 G
b1 *"
1g
b1 F
b1 ("
1f
b1 E
b1 &"
1e
b1 D
b1 $"
1d
b1 C
b1 ""
1c
b1111010110011010001111000111 n
b0 Y
b100011 Q
b1100 !"
b1100 ~
b111 ;"
b111 :"
b111 6"
b111 5"
1"
#72
0"
#73
b11111111111111111111111111111111 (
b11111111111111111111111111111111 9
b11111111111111111111111111111111 %"
b11111111111111111111111111111111 *
b11111111111111111111111111111111 7
b11111111111111111111111111111111 )"
b1 +
b1 6
b1 +"
b11111111111111111111111111111111 -
b11111111111111111111111111111111 4
b11111111111111111111111111111111 /"
b100011 o
b1111010110011010001111000111 >
0j
0f
0i
0e
0h
0d
0g
0c
b100100 Q
b111 6"
b111 5"
b111 ;"
b111 :"
b1100 !"
b1100 ~
1"
#74
0"
#75
b100100 o
b1111010110011010001111000110 ?
b1 >
b100101 Q
b1100 !"
b1100 ~
b111 ;"
b111 :"
b111 6"
b111 5"
1"
#76
0"
#77
b10010 o
b1111010110011010001111000111 m
b100110 Q
b111 6"
b111 5"
b111 ;"
b111 :"
b1100 !"
b1100 ~
1"
#78
0"
#79
b10011 o
b111 v
b100111 Q
b1100 !"
b1100 ~
b111 ;"
b111 :"
b111 6"
b111 5"
1"
#80
0"
#81
b10100 o
b1001101 M
b101000 Q
b111 6"
b111 5"
b111 ;"
b111 :"
b1100 !"
b1100 ~
1"
#82
0"
#83
b10101 Z
b100000 o
b1001101 B
b1001101 {
1b
b101001 Q
b10 X
b1100 !"
b1100 ~
b111 ;"
b111 :"
b111 6"
b111 5"
1"
#84
0"
#85
b11111111111111111111111111111111 &
b11111111111111111111111111111111 ;
b11111111111111111111111111111111 }
b10101 o
0b
b101010 Q
b111 6"
b111 5"
b111 ;"
b111 :"
b1100 !"
b1100 ~
1"
#86
0"
#87
b10110 o
b11111111111111111111111111111111 N
b101011 Q
b0 &
b0 ;
b0 }
b1100 !"
b1100 ~
b111 ;"
b111 :"
b111 6"
b111 5"
1"
#88
0"
#89
b100 o
b0 X
b111 V
b111 8"
1t
1s
b111 _
b111 ^
b1010000 T
b1010000 |
1r
b101100 Q
b111 6"
b111 5"
b111 ;"
b111 :"
b1100 !"
b1100 ~
b1 W
1"
#90
0"
#91
b101 Z
b100000 o
b1 A
b1 y
1a
b1 @
b1 w
1`
0r
0t
0s
b101101 Q
b1100 !"
b1100 ~
b111 ;"
b111 :"
b111 6"
b111 5"
1"
#92
0"
#93
b1001001 $
b1001001 =
b1001001 x
b1001101 %
b1001101 <
b1001101 z
b101 o
0a
0`
b101110 Q
b111 6"
b111 5"
b111 ;"
b111 :"
b1100 !"
b1100 ~
1"
#94
0"
#95
b110 Z
b100000 o
b1001001 L
b1001001 7"
1l
b1001001 K
b1001001 2"
1k
b101111 Q
b1100 !"
b1100 ~
b111 ;"
b111 :"
b111 6"
b111 5"
1"
#96
0"
#97
b11111111111111111111111111111111 /
b11111111111111111111111111111111 2
b11111111111111111111111111111111 4"
b11111111111111111111111111111111 0
b11111111111111111111111111111111 1
b11111111111111111111111111111111 9"
b110 o
0l
0k
b110000 Q
b111 6"
b111 5"
b111 ;"
b111 :"
b1100 !"
b1100 ~
1"
#98
0"
#99
b1000 Z
b111 o
b11111111111111111111111111111111 ]
b11111111111111111111111111111111 \
b110001 Q
b0 0
b0 1
b0 9"
b0 /
b0 2
b0 4"
b1100 !"
b1100 ~
b111 ;"
b111 :"
b111 6"
b111 5"
1"
#100
0"
#101
b100000 o
b1001101 L
b1001101 7"
1l
b1001101 K
b1001101 2"
1k
b110010 Q
b111 6"
b111 5"
b111 ;"
b111 :"
b1100 !"
b1100 ~
1"
#102
0"
#103
b1000 o
0l
0k
b110011 Q
b110 0
b110 1
b110 9"
b111 /
b111 2
b111 4"
b1100 !"
b1100 ~
b111 ;"
b111 :"
b111 6"
b111 5"
1"
#104
0"
#105
b0 /
b0 2
b0 4"
b0 0
b0 1
b0 9"
b1001 o
b110 _
b110100 Q
b111 6"
b111 5"
b111 ;"
b111 :"
b1100 !"
b1100 ~
1"
#106
0"
#107
b1010 Z
b100001 o
b0 J
b0 0"
1j
b0 I
b0 ."
1i
b0 H
b0 ,"
1h
b0 G
b0 *"
1g
b0 F
b0 ("
1f
b0 E
b0 &"
1e
b0 D
b0 $"
1d
b0 C
b0 ""
1c
b1111010110011010001111001000 n
b11 Y
b110101 Q
b1100 !"
b1100 ~
b111 ;"
b111 :"
b111 6"
b111 5"
1"
#108
0"
#109
b0 (
b0 9
b0 %"
b0 *
b0 7
b0 )"
b0 +
b0 6
b0 +"
b0 -
b0 4
b0 /"
b100011 o
b1111010110011010001111001000 ?
b1111010110011010001111001000 >
0j
0f
0i
0e
0h
0d
0g
0c
b110110 Q
b111 6"
b111 5"
b111 ;"
b111 :"
b1100 !"
b1100 ~
1"
#110
0"
#111
b100100 o
b1111010110011010001111001001 ?
b1111 >
b110111 Q
b1100 !"
b1100 ~
b111 ;"
b111 :"
b111 6"
b111 5"
1"
#112
0"
#113
b1010 o
b1111010110011010001111000110 m
b111000 Q
b111 6"
b111 5"
b111 ;"
b111 :"
b1100 !"
b1100 ~
1"
#114
0"
#115
b1101 o
b110 v
b111001 Q
b1100 !"
b1100 ~
b111 ;"
b111 :"
b111 6"
b111 5"
1"
#116
0"
#117
b1110 o
b1001100 M
b111010 Q
b111 6"
b111 5"
b111 ;"
b111 :"
b1100 !"
b1100 ~
b1 X
1"
#118
0"
#119
b1111 Z
b100000 o
b1001100 B
b1001100 {
1b
b111011 Q
b1100 !"
b1100 ~
b111 ;"
b111 :"
b111 6"
b111 5"
1"
#120
0"
#121
b1001101 &
b1001101 ;
b1001101 }
b1111 o
0b
b111100 Q
b111 6"
b111 5"
b111 ;"
b111 :"
b1100 !"
b1100 ~
1"
#122
0"
#123
b10000 o
b1001101 N
b111101 Q
b0 &
b0 ;
b0 }
b1100 !"
b1100 ~
b111 ;"
b111 :"
b111 6"
b111 5"
1"
#124
0"
#125
b1001 o
b111110 Q
b111 6"
b111 5"
b111 ;"
b111 :"
b1100 !"
b1100 ~
1"
#126
0"
#127
b1010 Z
b100001 o
b1 J
b1 0"
1j
b1 I
b1 ."
1i
b1 H
b1 ,"
1h
b1 G
b1 *"
1g
b1 F
b1 ("
1f
b1 E
b1 &"
1e
b1 D
b1 $"
1d
b1 C
b1 ""
1c
b1111010110011010001111001001 n
b10 Y
b111111 Q
b1100 !"
b1100 ~
b111 ;"
b111 :"
b111 6"
b111 5"
1"
#128
0"
#129
b11111111111111111111111111111111 (
b11111111111111111111111111111111 9
b11111111111111111111111111111111 %"
b11111111111111111111111111111111 *
b11111111111111111111111111111111 7
b11111111111111111111111111111111 )"
b1 +
b1 6
b1 +"
b11111111111111111111111111111111 -
b11111111111111111111111111111111 4
b11111111111111111111111111111111 /"
b100011 o
b1111010110011010001111001001 >
0j
0f
0i
0e
0h
0d
0g
0c
b1000000 Q
b111 6"
b111 5"
b111 ;"
b111 :"
b1100 !"
b1100 ~
1"
#130
0"
#131
b100100 o
b1111010110011010001111001000 ?
b1 >
b1000001 Q
b1100 !"
b1100 ~
b111 ;"
b111 :"
b111 6"
b111 5"
1"
#132
0"
#133
b1010 o
b1111010110011010001111001001 m
b1000010 Q
b111 6"
b111 5"
b111 ;"
b111 :"
b1100 !"
b1100 ~
1"
#134
0"
#135
b1101 o
b101 v
b1000011 Q
b1100 !"
b1100 ~
b111 ;"
b111 :"
b111 6"
b111 5"
1"
#136
0"
#137
b1110 o
b1001011 M
b1000100 Q
b111 6"
b111 5"
b111 ;"
b111 :"
b1100 !"
b1100 ~
b10 X
1"
#138
0"
#139
b1111 Z
b100000 o
b1001011 B
b1001011 {
1b
b1000101 Q
b1100 !"
b1100 ~
b111 ;"
b111 :"
b111 6"
b111 5"
1"
#140
0"
#141
b11111111111111111111111111111111 &
b11111111111111111111111111111111 ;
b11111111111111111111111111111111 }
b1111 o
0b
b1000110 Q
b111 6"
b111 5"
b111 ;"
b111 :"
b1100 !"
b1100 ~
1"
#142
0"
#143
b10000 o
b11111111111111111111111111111111 N
b1000111 Q
b0 &
b0 ;
b0 }
b1100 !"
b1100 ~
b111 ;"
b111 :"
b111 6"
b111 5"
1"
#144
0"
#145
b0 X
b10001 o
b101 V
b101 8"
b1001001 L
b1001001 7"
1t
b1001001 K
b1001001 2"
1s
b101 ]
b111 \
b1001001 T
b1001001 |
1r
b1001000 Q
b111 6"
b111 5"
b111 ;"
b111 :"
b1100 !"
b1100 ~
1"
#146
0"
#147
b100 o
0r
0t
0s
b1001001 Q
b10 W
b1100 !"
b1100 ~
b111 ;"
b111 :"
b111 6"
b111 5"
1"
#148
0"
#149
b101 Z
b100000 o
b10 A
b10 y
1a
b10 @
b10 w
1`
b1001010 Q
b111 6"
b111 5"
b111 ;"
b111 :"
b1100 !"
b1100 ~
1"
#150
0"
#151
b101 o
0a
0`
b1001011 Q
b1010001 $
b1010001 =
b1010001 x
b1100 !"
b1100 ~
b111 ;"
b111 :"
b111 6"
b111 5"
1"
#152
0"
#153
b110 Z
b100000 o
b1010001 L
b1010001 7"
1l
b1010001 K
b1010001 2"
1k
b1001100 Q
b111 6"
b111 5"
b111 ;"
b111 :"
b1100 !"
b1100 ~
1"
#154
0"
#155
b110 o
0l
0k
b1001101 Q
b11111111111111111111111111111111 0
b11111111111111111111111111111111 1
b11111111111111111111111111111111 9"
b11111111111111111111111111111111 /
b11111111111111111111111111111111 2
b11111111111111111111111111111111 4"
b1100 !"
b1100 ~
b111 ;"
b111 :"
b111 6"
b111 5"
1"
#156
0"
#157
b0 /
b0 2
b0 4"
b0 0
b0 1
b0 9"
b1000 Z
b111 o
b11111111111111111111111111111111 ]
b11111111111111111111111111111111 \
b1001110 Q
b111 6"
b111 5"
b111 ;"
b111 :"
b1100 !"
b1100 ~
1"
#158
0"
#159
b100000 o
b1001101 L
b1001101 7"
1l
b1001101 K
b1001101 2"
1k
b1001111 Q
b1100 !"
b1100 ~
b111 ;"
b111 :"
b111 6"
b111 5"
1"
#160
0"
#161
b111 /
b111 2
b111 4"
b110 0
b110 1
b110 9"
b1000 o
0l
0k
b1010000 Q
b111 6"
b111 5"
b111 ;"
b111 :"
b1100 !"
b1100 ~
1"
#162
0"
#163
b1001 o
b1010001 Q
b0 0
b0 1
b0 9"
b0 /
b0 2
b0 4"
b1100 !"
b1100 ~
b111 ;"
b111 :"
b111 6"
b111 5"
1"
#164
0"
#165
b1010 Z
b100001 o
b0 J
b0 0"
1j
b0 I
b0 ."
1i
b0 H
b0 ,"
1h
b0 G
b0 *"
1g
b0 F
b0 ("
1f
b0 E
b0 &"
1e
b0 D
b0 $"
1d
b0 C
b0 ""
1c
b1111010110011010001111001010 n
b1 Y
b1010010 Q
b111 6"
b111 5"
b111 ;"
b111 :"
b1100 !"
b1100 ~
1"
#166
0"
#167
b100011 o
b1111010110011010001111001010 ?
b1111010110011010001111001010 >
0j
0f
0i
0e
0h
0d
0g
0c
b1010011 Q
b0 -
b0 4
b0 /"
b0 +
b0 6
b0 +"
b0 *
b0 7
b0 )"
b0 (
b0 9
b0 %"
b1100 !"
b1100 ~
b111 ;"
b111 :"
b111 6"
b111 5"
1"
#168
0"
#169
b100100 o
b1111010110011010001111001011 ?
b11 >
b1010100 Q
b111 6"
b111 5"
b111 ;"
b111 :"
b1100 !"
b1100 ~
1"
#170
0"
#171
b1010 o
b1111010110011010001111001000 m
b1010101 Q
b1100 !"
b1100 ~
b111 ;"
b111 :"
b111 6"
b111 5"
1"
#172
0"
#173
b1101 o
b110 v
b1010110 Q
b111 6"
b111 5"
b111 ;"
b111 :"
b1100 !"
b1100 ~
1"
#174
0"
#175
b1110 o
b1001100 M
b1010111 Q
b1 X
b1100 !"
b1100 ~
b111 ;"
b111 :"
b111 6"
b111 5"
1"
#176
0"
#177
b1111 Z
b100000 o
b1001100 B
b1001100 {
1b
b1011000 Q
b111 6"
b111 5"
b111 ;"
b111 :"
b1100 !"
b1100 ~
1"
#178
0"
#179
b1111 o
0b
b1011001 Q
b1001101 &
b1001101 ;
b1001101 }
b1100 !"
b1100 ~
b111 ;"
b111 :"
b111 6"
b111 5"
1"
#180
0"
#181
b0 &
b0 ;
b0 }
b10000 o
b1001101 N
b1011010 Q
b111 6"
b111 5"
b111 ;"
b111 :"
b1100 !"
b1100 ~
1"
#182
0"
#183
b1001 o
b1011011 Q
b1100 !"
b1100 ~
b111 ;"
b111 :"
b111 6"
b111 5"
1"
#184
0"
#185
b1010 Z
b100001 o
b1 J
b1 0"
1j
b1 I
b1 ."
1i
b1 H
b1 ,"
1h
b1 G
b1 *"
1g
b1 F
b1 ("
1f
b1 E
b1 &"
1e
b1 D
b1 $"
1d
b1 C
b1 ""
1c
b1111010110011010001111001011 n
b0 Y
b1011100 Q
b111 6"
b111 5"
b111 ;"
b111 :"
b1100 !"
b1100 ~
1"
#186
0"
#187
b100011 o
b1111010110011010001111001011 >
0j
0f
0i
0e
0h
0d
0g
0c
b1011101 Q
b11111111111111111111111111111111 -
b11111111111111111111111111111111 4
b11111111111111111111111111111111 /"
b1 +
b1 6
b1 +"
b11111111111111111111111111111111 *
b11111111111111111111111111111111 7
b11111111111111111111111111111111 )"
b11111111111111111111111111111111 (
b11111111111111111111111111111111 9
b11111111111111111111111111111111 %"
b1100 !"
b1100 ~
b111 ;"
b111 :"
b111 6"
b111 5"
1"
#188
0"
#189
b100100 o
b1111010110011010001111001010 ?
b1 >
b1011110 Q
b111 6"
b111 5"
b111 ;"
b111 :"
b1100 !"
b1100 ~
1"
#190
0"
#191
b1010 o
b1111010110011010001111001011 m
b1011111 Q
b1100 !"
b1100 ~
b111 ;"
b111 :"
b111 6"
b111 5"
1"
#192
0"
#193
b1101 o
b111 v
b1100000 Q
b111 6"
b111 5"
b111 ;"
b111 :"
b1100 !"
b1100 ~
1"
#194
0"
#195
b1110 o
b1001101 M
b1100001 Q
b10 X
b1100 !"
b1100 ~
b111 ;"
b111 :"
b111 6"
b111 5"
1"
#196
0"
#197
b1111 Z
b100000 o
b1001101 B
b1001101 {
1b
b1100010 Q
b111 6"
b111 5"
b111 ;"
b111 :"
b1100 !"
b1100 ~
1"
#198
0"
#199
b1111 o
0b
b1100011 Q
b1010000 &
b1010000 ;
b1010000 }
b1100 !"
b1100 ~
b111 ;"
b111 :"
b111 6"
b111 5"
1"
#200
0"
#201
b0 &
b0 ;
b0 }
b10000 o
b1010000 N
b1100100 Q
b111 6"
b111 5"
b111 ;"
b111 :"
b1100 !"
b1100 ~
1"
#202
0"
#203
b1001 o
b1100101 Q
b1100 !"
b1100 ~
b111 ;"
b111 :"
b111 6"
b111 5"
1"
#204
0"
#205
b1010 Z
b100001 o
b10 J
b10 0"
1j
b10 I
b10 ."
1i
b10 H
b10 ,"
1h
b10 G
b10 *"
1g
b10 F
b10 ("
1f
b10 E
b10 &"
1e
b10 D
b10 $"
1d
b10 C
b10 ""
1c
b1111010110011010001111001100 n
b11 Y
b1100110 Q
b111 6"
b111 5"
b111 ;"
b111 :"
b1100 !"
b1100 ~
1"
#206
0"
