placement/NEW/random_placement_poly6.vcd
$date
	Thu May  7 19:08:47 2020
$end
$version
	Icarus Verilog
$end
$timescale
	1s
$end
$scope module test $end
$var wire 1 ! out $end
$var reg 1 " clk $end
$var reg 1 # reset $end
$scope module p1 $end
$var wire 32 $ a [31:0] $end
$var wire 32 % b [31:0] $end
$var wire 1 " clk $end
$var wire 32 & outGrid [31:0] $end
$var wire 32 ' outOX1 [31:0] $end
$var wire 32 ( outOX2 [31:0] $end
$var wire 32 ) outOX3 [31:0] $end
$var wire 32 * outOX4 [31:0] $end
$var wire 32 + outOY1 [31:0] $end
$var wire 32 , outOY2 [31:0] $end
$var wire 32 - outOY3 [31:0] $end
$var wire 32 . outOY4 [31:0] $end
$var wire 32 / outPX [31:0] $end
$var wire 32 0 outPY [31:0] $end
$var wire 1 # reset $end
$var wire 32 1 doutPY [31:0] $end
$var wire 32 2 doutPX [31:0] $end
$var wire 32 3 doutOY4 [31:0] $end
$var wire 32 4 doutOY3 [31:0] $end
$var wire 32 5 doutOY2 [31:0] $end
$var wire 32 6 doutOY1 [31:0] $end
$var wire 32 7 doutOX4 [31:0] $end
$var wire 32 8 doutOX3 [31:0] $end
$var wire 32 9 doutOX2 [31:0] $end
$var wire 32 : doutOX1 [31:0] $end
$var wire 32 ; doutGrid [31:0] $end
$var wire 32 < doutEB [31:0] $end
$var wire 32 = doutEA [31:0] $end
$var reg 32 > CASR_reg [31:0] $end
$var reg 32 ? LFSR_reg [31:0] $end
$var reg 32 @ addrEA [31:0] $end
$var reg 32 A addrEB [31:0] $end
$var reg 32 B addrGrid [31:0] $end
$var reg 32 C addrOX1 [31:0] $end
$var reg 32 D addrOX2 [31:0] $end
$var reg 32 E addrOX3 [31:0] $end
$var reg 32 F addrOX4 [31:0] $end
$var reg 32 G addrOY1 [31:0] $end
$var reg 32 H addrOY2 [31:0] $end
$var reg 32 I addrOY3 [31:0] $end
$var reg 32 J addrOY4 [31:0] $end
$var reg 32 K addrPX [31:0] $end
$var reg 32 L addrPY [31:0] $end
$var reg 32 M aux1 [31:0] $end
$var reg 32 N aux2 [31:0] $end
$var reg 32 O aux3 [31:0] $end
$var reg 32 P aux4 [31:0] $end
$var reg 32 Q cont [31:0] $end
$var reg 32 R diff_pos_x [31:0] $end
$var reg 32 S diff_pos_y [31:0] $end
$var reg 32 T dinGrid [31:0] $end
$var reg 32 U dinPX [31:0] $end
$var reg 32 V dinPY [31:0] $end
$var reg 32 W i [31:0] $end
$var reg 32 X j [31:0] $end
$var reg 32 Y k [31:0] $end
$var reg 32 Z next_state [31:0] $end
$var reg 1 ! out $end
$var reg 1 [ outbitLFSR $end
$var reg 32 \ pos_a_X [31:0] $end
$var reg 32 ] pos_a_Y [31:0] $end
$var reg 32 ^ pos_b_X [31:0] $end
$var reg 32 _ pos_b_Y [31:0] $end
$var reg 1 ` reEA $end
$var reg 1 a reEB $end
$var reg 1 b reGrid $end
$var reg 1 c reOX1 $end
$var reg 1 d reOX2 $end
$var reg 1 e reOX3 $end
$var reg 1 f reOX4 $end
$var reg 1 g reOY1 $end
$var reg 1 h reOY2 $end
$var reg 1 i reOY3 $end
$var reg 1 j reOY4 $end
$var reg 1 k rePX $end
$var reg 1 l rePY $end
$var reg 32 m rnd_number [31:0] $end
$var reg 32 n seed [31:0] $end
$var reg 32 o state [31:0] $end
$var reg 32 p sum [31:0] $end
$var reg 32 q sum_1hop [31:0] $end
$var reg 1 r weGrid $end
$var reg 1 s wePX $end
$var reg 1 t wePY $end
$var reg 32 u xi [31:0] $end
$var reg 32 v xj [31:0] $end
$scope module ea $end
$var wire 32 w addr [31:0] $end
$var wire 1 " clk $end
$var wire 1 ` read $end
$var reg 32 x data [31:0] $end
$upscope $end
$scope module eb $end
$var wire 32 y addr [31:0] $end
$var wire 1 " clk $end
$var wire 1 a read $end
$var reg 32 z data [31:0] $end
$upscope $end
$scope module grid $end
$var wire 32 { addr [31:0] $end
$var wire 1 " clk $end
$var wire 32 | dataWrite [31:0] $end
$var wire 1 b read $end
$var wire 1 # reset $end
$var wire 1 r write $end
$var reg 32 } dataRead [31:0] $end
$upscope $end
$scope module offset_x1 $end
$var wire 32 ~ addr [31:0] $end
$var wire 1 " clk $end
$var wire 1 c read $end
$var reg 32 !" data [31:0] $end
$upscope $end
$scope module offset_x2 $end
$var wire 32 "" addr [31:0] $end
$var wire 1 " clk $end
$var wire 1 d read $end
$var reg 32 #" data [31:0] $end
$upscope $end
$scope module offset_x3 $end
$var wire 32 $" addr [31:0] $end
$var wire 1 " clk $end
$var wire 1 e read $end
$var reg 32 %" data [31:0] $end
$upscope $end
$scope module offset_x4 $end
$var wire 32 &" addr [31:0] $end
$var wire 1 " clk $end
$var wire 1 f read $end
$var reg 32 '" data [31:0] $end
$upscope $end
$scope module offset_y1 $end
$var wire 32 (" addr [31:0] $end
$var wire 1 " clk $end
$var wire 1 g read $end
$var reg 32 )" data [31:0] $end
$upscope $end
$scope module offset_y2 $end
$var wire 32 *" addr [31:0] $end
$var wire 1 " clk $end
$var wire 1 h read $end
$var reg 32 +" data [31:0] $end
$upscope $end
$scope module offset_y3 $end
$var wire 32 ," addr [31:0] $end
$var wire 1 " clk $end
$var wire 1 i read $end
$var reg 32 -" data [31:0] $end
$upscope $end
$scope module offset_y4 $end
$var wire 32 ." addr [31:0] $end
$var wire 1 " clk $end
$var wire 1 j read $end
$var reg 32 /" data [31:0] $end
$upscope $end
$scope module pos_X $end
$var wire 32 0" addr [31:0] $end
$var wire 1 " clk $end
$var wire 32 1" dataWrite [31:0] $end
$var wire 1 k read $end
$var wire 1 # reset $end
$var wire 1 s write $end
$var reg 32 2" dataRead [31:0] $end
$upscope $end
$scope module pos_Y $end
$var wire 32 3" addr [31:0] $end
$var wire 1 " clk $end
$var wire 32 4" dataWrite [31:0] $end
$var wire 1 l read $end
$var wire 1 # reset $end
$var wire 1 t write $end
$var reg 32 5" dataRead [31:0] $end
$upscope $end
$upscope $end
$upscope $end
$enddefinitions $end
#0
$dumpvars
bx 5"
bx 4"
bx 3"
bx 2"
bx 1"
bx 0"
b0 /"
bx ."
b0 -"
bx ,"
b0 +"
bx *"
b0 )"
bx ("
b0 '"
bx &"
b0 %"
bx $"
b0 #"
bx ""
b0 !"
bx ~
bx }
bx |
bx {
b0 z
bx y
b0 x
bx w
bx v
bx u
xt
xs
xr
bx q
bx p
bx o
bx n
bx m
xl
xk
xj
xi
xh
xg
xf
xe
xd
xc
xb
xa
x`
bx _
bx ^
bx ]
bx \
x[
bx Z
bx Y
bx X
bx W
bx V
bx U
bx T
bx S
bx R
bx Q
bx P
bx O
bx N
bx M
bx L
bx K
bx J
bx I
bx H
bx G
bx F
bx E
bx D
bx C
bx B
bx A
bx @
bx ?
bx >
b0 =
b0 <
bx ;
b0 :
b0 9
b0 8
b0 7
b0 6
b0 5
b0 4
b0 3
bx 2
bx 1
bx 0
bx /
b0 .
b0 -
b0 ,
b0 +
b0 *
b0 )
b0 (
b0 '
bx &
b0 %
b0 $
0#
0"
x!
$end
#1
b100001001100010001001010101000 n
b0 q
b0 Q
b0 p
b0 Z
b100001 o
b0 T
b0 |
b0 B
b0 {
0r
0b
b0 V
b0 4"
b0 L
b0 3"
0t
0l
b0 U
b0 1"
b0 K
b0 0"
0s
0k
b0 J
b0 ."
0j
b0 F
b0 &"
0f
b0 I
b0 ,"
0i
b0 E
b0 $"
0e
b0 H
b0 *"
0h
b0 D
b0 ""
0d
b0 G
b0 ("
0g
b0 C
b0 ~
0c
b0 A
b0 y
0a
b0 @
b0 w
0`
b0 /
b0 2
b0 2"
b0 0
b0 1
b0 5"
b0 &
b0 ;
b0 }
1"
1#
#2
0"
#3
b100011 o
1[
b100001001100010001001010101000 ?
b100001001100010001001010101000 >
b1 Q
1"
0#
#4
0"
#5
b100100 o
b100001001100010001001010101001 ?
b1111 >
b10 Q
1"
#6
0"
#7
b0 o
b100001001100010001001010100110 m
b11 Q
1"
#8
0"
#9
b1 o
1`
b100 Q
1"
#10
0"
#11
b100010 Z
b100001 o
b100001001100010001001010101001 n
b10 U
b10 1"
1s
0`
b101 Q
b1110100 $
b1110100 =
b1110100 x
1"
#12
0"
#13
b100011 o
b100001001100010001001010101001 >
0s
b110 Q
1"
#14
0"
#15
b100100 o
b100001001100010001001010101000 ?
b1 >
b111 Q
1"
#16
0"
#17
b100010 o
b100001001100010001001010101001 m
b1000 Q
1"
#18
0"
#19
b10 Z
b100001 o
b100001001100010001001010101010 n
b101 V
b101 4"
b1110100 L
b1110100 3"
1t
b1001 Q
1"
#20
0"
#21
b100011 o
b100001001100010001001010101010 ?
b100001001100010001001010101010 >
0t
b1010 Q
1"
#22
0"
#23
b100100 o
b100001001100010001001010101011 ?
b11 >
b1011 Q
1"
#24
0"
#25
b10 o
b100001001100010001001010101000 m
b1100 Q
1"
#26
0"
#27
b11 Z
b100000 o
b0 X
b0 W
1l
b1110100 K
b1110100 0"
1k
b1101 Q
1"
#28
0"
#29
b11111111111111111111111111111111 /
b11111111111111111111111111111111 2
b11111111111111111111111111111111 2"
b101 0
b101 1
b101 5"
b11 o
0l
0k
b1110 Q
1"
#30
0"
#31
b100 o
b1110100 T
b1110100 |
b11111111111111111111111111111001 B
b11111111111111111111111111111001 {
1r
b1111 Q
b0 0
b0 1
b0 5"
b0 /
b0 2
b0 2"
1"
#32
0"
#33
b101 Z
b100000 o
1a
1`
0r
b10000 Q
1"
#34
0"
#35
b101 o
0a
0`
b10001 Q
b1110101 %
b1110101 <
b1110101 z
1"
#36
0"
#37
b110 Z
b100000 o
1l
1k
b10010 Q
1"
#38
0"
#39
b110 o
0l
0k
b10011 Q
b101 0
b101 1
b101 5"
b11111111111111111111111111111111 /
b11111111111111111111111111111111 2
b11111111111111111111111111111111 2"
1"
#40
0"
#41
b0 /
b0 2
b0 2"
b0 0
b0 1
b0 5"
b1000 Z
b111 o
b101 ]
b11111111111111111111111111111111 \
b10100 Q
1"
#42
0"
#43
b100000 o
b1110101 L
b1110101 3"
1l
b1110101 K
b1110101 0"
1k
b10101 Q
1"
#44
0"
#45
b11111111111111111111111111111111 /
b11111111111111111111111111111111 2
b11111111111111111111111111111111 2"
b11111111111111111111111111111111 0
b11111111111111111111111111111111 1
b11111111111111111111111111111111 5"
b1000 o
0l
0k
b10110 Q
1"
#46
0"
#47
b10001 o
b11111111111111111111111111111111 _
b11111111111111111111111111111111 ^
b10111 Q
b0 0
b0 1
b0 5"
b0 /
b0 2
b0 2"
1"
#48
0"
#49
b10010 Z
b100001 o
1j
1i
1h
1g
1f
1e
1d
1c
b100001001100010001001010101011 n
b0 Y
b11000 Q
1"
#50
0"
#51
b100011 o
b100001001100010001001010101011 >
0j
0f
0i
0e
0h
0d
0g
0c
b11001 Q
1"
#52
0"
#53
b100100 o
b100001001100010001001010101010 ?
b1 >
b11010 Q
1"
#54
0"
#55
b10010 o
b100001001100010001001010101011 m
b11011 Q
1"
#56
0"
#57
b10011 o
b101 v
b11111111111111111111111111111111 u
b11100 Q
1"
#58
0"
#59
b10100 o
b11111111111111111111111111111001 M
b11101 Q
1"
#60
0"
#61
b10101 Z
b100000 o
1b
b11110 Q
b1 X
1"
#62
0"
#63
b10101 o
0b
b11111 Q
bx &
bx ;
bx }
1"
#64
0"
#65
b0 &
b0 ;
b0 }
b10110 o
b100000 Q
1"
#66
0"
#67
b10001 o
b100001 Q
1"
#68
0"
#69
b10010 Z
b100001 o
b1 J
b1 ."
1j
b1 I
b1 ,"
1i
b1 H
b1 *"
1h
b1 G
b1 ("
1g
b1 F
b1 &"
1f
b1 E
b1 $"
1e
b1 D
b1 ""
1d
b1 C
b1 ~
1c
b100001001100010001001010101100 n
b11 Y
b100010 Q
1"
#70
0"
#71
b100011 o
b100001001100010001001010101100 ?
b100001001100010001001010101100 >
0j
0f
0i
0e
0h
0d
0g
0c
b100011 Q
b11111111111111111111111111111111 -
b11111111111111111111111111111111 4
b11111111111111111111111111111111 -"
b1 +
b1 6
b1 )"
b11111111111111111111111111111111 *
b11111111111111111111111111111111 7
b11111111111111111111111111111111 '"
b11111111111111111111111111111111 (
b11111111111111111111111111111111 9
b11111111111111111111111111111111 #"
1"
#72
0"
#73
b100100 o
b100001001100010001001010101101 ?
b111 >
b100100 Q
1"
#74
0"
#75
b10010 o
b100001001100010001001010101010 m
b100101 Q
1"
#76
0"
#77
b10011 o
b11111111111111111111111111111110 u
b100110 Q
1"
#78
0"
#79
b10100 o
b11111111111111111111111111101101 M
b100111 Q
1"
#80
0"
#81
b10101 Z
b100000 o
b11111111111111111111111111101101 B
b11111111111111111111111111101101 {
1b
b101000 Q
b10 X
1"
#82
0"
#83
b10101 o
0b
b101001 Q
bx &
bx ;
bx }
1"
#84
0"
#85
b0 &
b0 ;
b0 }
b10110 o
b101010 Q
1"
#86
0"
#87
b10001 o
b101011 Q
1"
#88
0"
#89
b10010 Z
b100001 o
b10 J
b10 ."
1j
b10 I
b10 ,"
1i
b10 H
b10 *"
1h
b10 G
b10 ("
1g
b10 F
b10 &"
1f
b10 E
b10 $"
1e
b10 D
b10 ""
1d
b10 C
b10 ~
1c
b100001001100010001001010101101 n
b10 Y
b101100 Q
1"
#90
0"
#91
b100011 o
b100001001100010001001010101101 >
0j
0f
0i
0e
0h
0d
0g
0c
b101101 Q
b0 -
b0 4
b0 -"
b1 ,
b1 5
b1 +"
b0 +
b0 6
b0 )"
b1 *
b1 7
b1 '"
b1 )
b1 8
b1 %"
b0 (
b0 9
b0 #"
b1 '
b1 :
b1 !"
1"
#92
0"
#93
b100100 o
b100001001100010001001010101100 ?
b1 >
b101110 Q
1"
#94
0"
#95
b10010 o
b100001001100010001001010101101 m
b101111 Q
1"
#96
0"
#97
b10011 o
b0 u
b110000 Q
1"
#98
0"
#99
b10100 o
b101 M
b110001 Q
1"
#100
0"
#101
b10101 Z
b100000 o
b101 B
b101 {
1b
b110010 Q
b11 X
1"
#102
0"
#103
b10101 o
0b
b110011 Q
b11111111111111111111111111111111 &
b11111111111111111111111111111111 ;
b11111111111111111111111111111111 }
1"
#104
0"
#105
b0 &
b0 ;
b0 }
b10110 o
b11111111111111111111111111111111 N
b110100 Q
1"
#106
0"
#107
b100 o
b0 X
1t
b0 U
b0 1"
1s
b101 _
b0 ^
b1110101 T
b1110101 |
1r
b110101 Q
b1 W
1"
#108
0"
#109
b101 Z
b100000 o
b1 A
b1 y
1a
b1 @
b1 w
1`
0r
0t
0s
b110110 Q
1"
#110
0"
#111
b101 o
0a
0`
b110111 Q
b1110100 %
b1110100 <
b1110100 z
b1110001 $
b1110001 =
b1110001 x
1"
#112
0"
#113
b110 Z
b100000 o
b1110001 L
b1110001 3"
1l
b1110001 K
b1110001 0"
1k
b111000 Q
1"
#114
0"
#115
b110 o
0l
0k
b111001 Q
b11111111111111111111111111111111 0
b11111111111111111111111111111111 1
b11111111111111111111111111111111 5"
b11111111111111111111111111111111 /
b11111111111111111111111111111111 2
b11111111111111111111111111111111 2"
1"
#116
0"
#117
b0 /
b0 2
b0 2"
b0 0
b0 1
b0 5"
b1000 Z
b111 o
b11111111111111111111111111111111 ]
b111010 Q
1"
#118
0"
#119
b100000 o
b1110100 L
b1110100 3"
1l
b1110100 K
b1110100 0"
1k
b111011 Q
1"
#120
0"
#121
b11111111111111111111111111111111 /
b11111111111111111111111111111111 2
b11111111111111111111111111111111 2"
b101 0
b101 1
b101 5"
b1000 o
0l
0k
b111100 Q
1"
#122
0"
#123
b1001 o
b11111111111111111111111111111111 ^
b111101 Q
b0 0
b0 1
b0 5"
b0 /
b0 2
b0 2"
1"
#124
0"
#125
b1010 Z
b100001 o
b0 J
b0 ."
1j
b0 I
b0 ,"
1i
b0 H
b0 *"
1h
b0 G
b0 ("
1g
b0 F
b0 &"
1f
b0 E
b0 $"
1e
b0 D
b0 ""
1d
b0 C
b0 ~
1c
b100001001100010001001010101110 n
b1 Y
b111110 Q
1"
#126
0"
#127
b100011 o
b100001001100010001001010101110 ?
b100001001100010001001010101110 >
0j
0f
0i
0e
0h
0d
0g
0c
b111111 Q
b0 ,
b0 5
b0 +"
b0 *
b0 7
b0 '"
b0 )
b0 8
b0 %"
b0 '
b0 :
b0 !"
1"
#128
0"
#129
b100100 o
b100001001100010001001010101111 ?
b11 >
b1000000 Q
1"
#130
0"
#131
b1010 o
b100001001100010001001010101100 m
b1000001 Q
1"
#132
0"
#133
b1011 o
b1000010 Q
1"
#134
0"
#135
b1100 Z
b100001 o
b100001001100010001001010101111 n
b1000 u
b1000011 Q
1"
#136
0"
#137
b100011 o
b100001001100010001001010101111 >
b1000100 Q
1"
#138
0"
#139
b100100 o
b100001001100010001001010101110 ?
b1 >
b1000101 Q
1"
#140
0"
#141
b1100 o
b100001001100010001001010101111 m
b1000110 Q
1"
#142
0"
#143
b1101 Z
b100001 o
b100001001100010001001010110000 n
b1011 v
b1000111 Q
1"
#144
0"
#145
b100011 o
b100001001100010001001010110000 ?
b100001001100010001001010110000 >
b1001000 Q
1"
#146
0"
#147
b100100 o
b100001001100010001001010110001 ?
b11111 >
b1001001 Q
1"
#148
0"
#149
b1101 o
b100001001100010001001010101110 m
b1001010 Q
1"
#150
0"
#151
b1110 o
b1101011 M
b1001011 Q
b1 X
1"
#152
0"
#153
b1111 Z
b100000 o
b1101011 B
b1101011 {
1b
b1001100 Q
1"
#154
0"
#155
b1111 o
0b
b1001101 Q
b11111111111111111111111111111111 &
b11111111111111111111111111111111 ;
b11111111111111111111111111111111 }
1"
#156
0"
#157
b0 &
b0 ;
b0 }
b10000 o
b1001110 Q
1"
#158
0"
#159
b0 X
b10001 o
b1011 V
b1011 4"
b1110001 L
b1110001 3"
1t
b1000 U
b1000 1"
b1110001 K
b1110001 0"
1s
b1011 ]
b1000 \
b1110001 T
b1110001 |
1r
b1001111 Q
1"
#160
0"
#161
b10010 Z
b100001 o
1j
1i
1h
1g
1f
1e
1d
1c
b100001001100010001001010110001 n
b10 Y
0r
0t
0s
b1010000 Q
1"
#162
0"
#163
b100011 o
b100001001100010001001010110001 >
0j
0f
0i
0e
0h
0d
0g
0c
b1010001 Q
1"
#164
0"
#165
b100100 o
b100001001100010001001010110000 ?
b1 >
b1010010 Q
1"
#166
0"
#167
b10010 o
b100001001100010001001010110001 m
b1010011 Q
1"
#168
0"
#169
b10011 o
b1010100 Q
1"
#170
0"
#171
b10100 o
b1010101 Q
1"
#172
0"
#173
b10101 Z
b100000 o
1b
b1010110 Q
b1 X
1"
#174
0"
#175
b10101 o
0b
b1010111 Q
b1110001 &
b1110001 ;
b1110001 }
1"
#176
0"
#177
b0 &
b0 ;
b0 }
b10110 o
b1110001 N
b1011000 Q
1"
#178
0"
#179
b10001 o
b1011001 Q
1"
#180
0"
#181
b10010 Z
b100001 o
b1 J
b1 ."
1j
b1 I
b1 ,"
1i
b1 H
b1 *"
1h
b1 G
b1 ("
1g
b1 F
b1 &"
1f
b1 E
b1 $"
1e
b1 D
b1 ""
1d
b1 C
b1 ~
1c
b100001001100010001001010110010 n
b1 Y
b1011010 Q
1"
#182
0"
#183
b100011 o
b100001001100010001001010110010 ?
b100001001100010001001010110010 >
0j
0f
0i
0e
0h
0d
0g
0c
b1011011 Q
b11111111111111111111111111111111 -
b11111111111111111111111111111111 4
b11111111111111111111111111111111 -"
b1 +
b1 6
b1 )"
b11111111111111111111111111111111 *
b11111111111111111111111111111111 7
b11111111111111111111111111111111 '"
b11111111111111111111111111111111 (
b11111111111111111111111111111111 9
b11111111111111111111111111111111 #"
1"
#184
0"
#185
b100100 o
b100001001100010001001010110011 ?
b11 >
b1011100 Q
1"
#186
0"
#187
b10010 o
b100001001100010001001010110000 m
b1011101 Q
1"
#188
0"
#189
b10011 o
b111 u
b1011110 Q
1"
#190
0"
#191
b10100 o
b1011111 M
b1011111 Q
1"
#192
0"
#193
b10101 Z
b100000 o
b1011111 B
b1011111 {
1b
b1100000 Q
b10 X
1"
#194
0"
#195
b10101 o
0b
b1100001 Q
b11111111111111111111111111111111 &
b11111111111111111111111111111111 ;
b11111111111111111111111111111111 }
1"
#196
0"
#197
b0 &
b0 ;
b0 }
b10110 o
b11111111111111111111111111111111 N
b1100010 Q
1"
#198
0"
#199
b100 o
b0 X
b1110100 L
b1110100 3"
1t
b111 U
b111 1"
b1110100 K
b1110100 0"
1s
b1011 _
b111 ^
b1110100 T
b1110100 |
1r
b1100011 Q
b10 W
1"
#200
0"
#201
b101 Z
b100000 o
b10 A
b10 y
1a
b10 @
b10 w
1`
0r
0t
0s
b1100100 Q
1"
#202
0"
#203
b101 o
0a
0`
b1100101 Q
b1110011 $
b1110011 =
b1110011 x
1"
#204
0"
#205
b110 Z
b100000 o
b1110011 L
b1110011 3"
1l
b1110011 K
b1110011 0"
1k
b1100110 Q
1"
#206
0"
#207
b110 o
0l
0k
b1100111 Q
b11111111111111111111111111111111 0
b11111111111111111111111111111111 1
b11111111111111111111111111111111 5"
b11111111111111111111111111111111 /
b11111111111111111111111111111111 2
b11111111111111111111111111111111 2"
1"
#208
0"
#209
b0 /
b0 2
b0 2"
b0 0
b0 1
b0 5"
b1000 Z
b111 o
b11111111111111111111111111111111 ]
b11111111111111111111111111111111 \
b1101000 Q
1"
#210
0"
#211
b100000 o
b1110100 L
b1110100 3"
1l
b1110100 K
b1110100 0"
1k
b1101001 Q
1"
#212
0"
#213
b111 /
b111 2
b111 2"
b1011 0
b1011 1
b1011 5"
b1000 o
0l
0k
b1101010 Q
1"
#214
0"
#215
b1001 o
b1101011 Q
b0 0
b0 1
b0 5"
b0 /
b0 2
b0 2"
1"
#216
0"
#217
b1010 Z
b100001 o
b0 J
b0 ."
1j
b0 I
b0 ,"
1i
b0 H
b0 *"
1h
b0 G
b0 ("
1g
b0 F
b0 &"
1f
b0 E
b0 $"
1e
b0 D
b0 ""
1d
b0 C
b0 ~
1c
b100001001100010001001010110011 n
b0 Y
b1101100 Q
1"
#218
0"
#219
b100011 o
b100001001100010001001010110011 >
0j
0f
0i
0e
0h
0d
0g
0c
b1101101 Q
b0 -
b0 4
b0 -"
b0 +
b0 6
b0 )"
b0 *
b0 7
b0 '"
b0 (
b0 9
b0 #"
1"
#220
0"
#221
b100100 o
b100001001100010001001010110010 ?
b1 >
b1101110 Q
1"
#222
0"
#223
b1010 o
b100001001100010001001010110011 m
b1101111 Q
1"
#224
0"
#225
b1101 o
b1110000 Q
1"
#226
0"
#227
b1110 o
b1110001 Q
b1 X
1"
#228
0"
#229
b1111 Z
b100000 o
1b
b1110010 Q
1"
#230
0"
#231
b1111 o
0b
b1110011 Q
b1110100 &
b1110100 ;
b1110100 }
1"
#232
0"
#233
b0 &
b0 ;
b0 }
b10000 o
b1110100 N
b1110100 Q
1"
#234
0"
#235
b1001 o
b1110101 Q
1"
#236
0"
#237
b1010 Z
b100001 o
b1 J
b1 ."
1j
b1 I
b1 ,"
1i
b1 H
b1 *"
1h
b1 G
b1 ("
1g
b1 F
b1 &"
1f
b1 E
b1 $"
1e
b1 D
b1 ""
1d
b1 C
b1 ~
1c
b100001001100010001001010110100 n
b11 Y
b1110110 Q
1"
#238
0"
#239
b100011 o
b100001001100010001001010110100 ?
b100001001100010001001010110100 >
0j
0f
0i
0e
0h
0d
0g
0c
b1110111 Q
b11111111111111111111111111111111 -
b11111111111111111111111111111111 4
b11111111111111111111111111111111 -"
b1 +
b1 6
b1 )"
b11111111111111111111111111111111 *
b11111111111111111111111111111111 7
b11111111111111111111111111111111 '"
b11111111111111111111111111111111 (
b11111111111111111111111111111111 9
b11111111111111111111111111111111 #"
1"
#240
0"
#241
b100100 o
b100001001100010001001010110101 ?
b111 >
b1111000 Q
1"
#242
0"
#243
b1010 o
b100001001100010001001010110010 m
b1111001 Q
1"
#244
0"
#245
b1101 o
b110 u
b1111010 Q
1"
#246
0"
#247
b1110 o
b1010011 M
b1111011 Q
b10 X
1"
#248
0"
#249
b1111 Z
b100000 o
b1010011 B
b1010011 {
1b
b1111100 Q
1"
#250
0"
#251
b1111 o
0b
b1111101 Q
b11111111111111111111111111111111 &
b11111111111111111111111111111111 ;
b11111111111111111111111111111111 }
1"
#252
0"
#253
b0 &
b0 ;
b0 }
b10000 o
b11111111111111111111111111111111 N
b1111110 Q
1"
#254
0"
#255
b0 X
b10001 o
b1110011 L
b1110011 3"
1t
b110 U
b110 1"
b1110011 K
b1110011 0"
1s
b1011 ]
b110 \
b1110011 T
b1110011 |
1r
b1111111 Q
1"
#256
0"
#257
b100 o
0r
0t
0s
b10000000 Q
b11 W
1"
#258
0"
#259
b101 Z
b100000 o
b11 A
b11 y
1a
b11 @
b11 w
1`
b10000001 Q
1"
#260
0"
#261
b1110000 $
b1110000 =
b1110000 x
b1110011 %
b1110011 <
b1110011 z
b101 o
0a
0`
b10000010 Q
1"
#262
0"
#263
b110 Z
b100000 o
b1110000 L
b1110000 3"
1l
b1110000 K
b1110000 0"
1k
b10000011 Q
1"
#264
0"
#265
b11111111111111111111111111111111 /
b11111111111111111111111111111111 2
b11111111111111111111111111111111 2"
b11111111111111111111111111111111 0
b11111111111111111111111111111111 1
b11111111111111111111111111111111 5"
b110 o
0l
0k
b10000100 Q
1"
#266
0"
#267
b1000 Z
b111 o
b11111111111111111111111111111111 ]
b11111111111111111111111111111111 \
b10000101 Q
b0 0
b0 1
b0 5"
b0 /
b0 2
b0 2"
1"
#268
0"
#269
b100000 o
b1110011 L
b1110011 3"
1l
b1110011 K
b1110011 0"
1k
b10000110 Q
1"
#270
0"
#271
b1000 o
0l
0k
b10000111 Q
b1011 0
b1011 1
b1011 5"
b110 /
b110 2
b110 2"
1"
#272
0"
#273
b0 /
b0 2
b0 2"
b0 0
b0 1
b0 5"
b1001 o
b110 ^
b10001000 Q
1"
#274
0"
#275
b1010 Z
b100001 o
b0 J
b0 ."
1j
b0 I
b0 ,"
1i
b0 H
b0 *"
1h
b0 G
b0 ("
1g
b0 F
b0 &"
1f
b0 E
b0 $"
1e
b0 D
b0 ""
1d
b0 C
b0 ~
1c
b100001001100010001001010110101 n
b10 Y
b10001001 Q
1"
#276
0"
#277
b0 (
b0 9
b0 #"
b0 *
b0 7
b0 '"
b0 +
b0 6
b0 )"
b0 -
b0 4
b0 -"
b100011 o
b100001001100010001001010110101 >
0j
0f
0i
0e
0h
0d
0g
0c
b10001010 Q
1"
#278
0"
#279
b100100 o
b100001001100010001001010110100 ?
b1 >
b10001011 Q
1"
#280
0"
#281
b1010 o
b100001001100010001001010110101 m
b10001100 Q
1"
#282
0"
#283
b1101 o
b10001101 Q
1"
#284
0"
#285
b1110 o
b10001110 Q
b1 X
1"
#286
0"
#287
b1111 Z
b100000 o
1b
b10001111 Q
1"
#288
0"
#289
b1110011 &
b1110011 ;
b1110011 }
b1111 o
0b
b10010000 Q
1"
#290
0"
#291
b10000 o
b1110011 N
b10010001 Q
b0 &
b0 ;
b0 }
1"
#292
0"
#293
b1001 o
b10010010 Q
1"
#294
0"
#295
b1010 Z
b100001 o
b1 J
b1 ."
1j
b1 I
b1 ,"
1i
b1 H
b1 *"
1h
b1 G
b1 ("
1g
b1 F
b1 &"
1f
b1 E
b1 $"
1e
b1 D
b1 ""
1d
b1 C
b1 ~
1c
b100001001100010001001010110110 n
b1 Y
b10010011 Q
1"
#296
0"
#297
b11111111111111111111111111111111 (
b11111111111111111111111111111111 9
b11111111111111111111111111111111 #"
b11111111111111111111111111111111 *
b11111111111111111111111111111111 7
b11111111111111111111111111111111 '"
b1 +
b1 6
b1 )"
b11111111111111111111111111111111 -
b11111111111111111111111111111111 4
b11111111111111111111111111111111 -"
b100011 o
b100001001100010001001010110110 ?
b100001001100010001001010110110 >
0j
0f
0i
0e
0h
0d
0g
0c
b10010100 Q
1"
#298
0"
#299
b100100 o
b100001001100010001001010110111 ?
b11 >
b10010101 Q
1"
#300
0"
#301
b1010 o
b100001001100010001001010110100 m
b10010110 Q
1"
#302
0"
#303
b1101 o
b101 u
b10010111 Q
1"
#304
0"
#305
b1110 o
b1000111 M
b10011000 Q
b10 X
1"
#306
0"
#307
b1111 Z
b100000 o
b1000111 B
b1000111 {
1b
b10011001 Q
1"
#308
0"
#309
b11111111111111111111111111111111 &
b11111111111111111111111111111111 ;
b11111111111111111111111111111111 }
b1111 o
0b
b10011010 Q
1"
#310
0"
#311
b10000 o
b11111111111111111111111111111111 N
b10011011 Q
b0 &
b0 ;
b0 }
1"
#312
0"
#313
b0 X
b10001 o
b1110000 L
b1110000 3"
1t
b101 U
b101 1"
b1110000 K
b1110000 0"
1s
b1011 ]
b101 \
b1110000 T
b1110000 |
1r
b10011100 Q
1"
#314
0"
#315
b100 o
0r
0t
0s
b10011101 Q
b100 W
1"
#316
0"
#317
b101 Z
b100000 o
b100 A
b100 y
1a
b100 @
b100 w
1`
b10011110 Q
1"
#318
0"
#319
b101 o
0a
0`
b10011111 Q
b1110000 %
b1110000 <
b1110000 z
b1101101 $
b1101101 =
b1101101 x
1"
#320
0"
#321
b110 Z
b100000 o
b1101101 L
b1101101 3"
1l
b1101101 K
b1101101 0"
1k
b10100000 Q
1"
#322
0"
#323
b110 o
0l
0k
b10100001 Q
b11111111111111111111111111111111 0
b11111111111111111111111111111111 1
b11111111111111111111111111111111 5"
b11111111111111111111111111111111 /
b11111111111111111111111111111111 2
b11111111111111111111111111111111 2"
1"
#324
0"
#325
b0 /
b0 2
b0 2"
b0 0
b0 1
b0 5"
b1000 Z
b111 o
b11111111111111111111111111111111 ]
b11111111111111111111111111111111 \
b10100010 Q
1"
#326
0"
#327
b100000 o
b1110000 L
b1110000 3"
1l
b1110000 K
b1110000 0"
1k
b10100011 Q
1"
#328
0"
#329
b101 /
b101 2
b101 2"
b1011 0
b1011 1
b1011 5"
b1000 o
0l
0k
b10100100 Q
1"
