placement/VerilogRandom/placement.vcd
$date
	Thu Apr 30 22:32:16 2020
$end
$version
	Icarus Verilog
$end
$timescale
	1ns
$end
$scope module test $end
$var wire 1 ! out $end
$var reg 1 " clk $end
$var reg 1 # loads $end
$var reg 1 $ reset $end
$var reg 1 % rst $end
$scope module p1 $end
$var wire 32 & a [31:0] $end
$var wire 32 ' b [31:0] $end
$var wire 1 " clk $end
$var wire 1 # loads $end
$var wire 32 ( outGrid [31:0] $end
$var wire 32 ) outOX [31:0] $end
$var wire 32 * outOY [31:0] $end
$var wire 32 + outPX [31:0] $end
$var wire 32 , outPY [31:0] $end
$var wire 1 $ reset $end
$var wire 1 % rst $end
$var wire 32 - randomNumber [31:0] $end
$var wire 32 . doutPY [31:0] $end
$var wire 32 / doutPX [31:0] $end
$var wire 32 0 doutOY [31:0] $end
$var wire 32 1 doutOX [31:0] $end
$var wire 32 2 doutGrid [31:0] $end
$var wire 32 3 doutEB [31:0] $end
$var wire 32 4 doutEA [31:0] $end
$var reg 32 5 addrEA [31:0] $end
$var reg 32 6 addrEB [31:0] $end
$var reg 32 7 addrGrid [31:0] $end
$var reg 32 8 addrOX [31:0] $end
$var reg 32 9 addrOY [31:0] $end
$var reg 32 : addrPX [31:0] $end
$var reg 32 ; addrPY [31:0] $end
$var reg 32 < aux1 [31:0] $end
$var reg 32 = aux2 [31:0] $end
$var reg 32 > aux3 [31:0] $end
$var reg 32 ? aux4 [31:0] $end
$var reg 32 @ ciclos [31:0] $end
$var reg 32 A diff_pos_x [31:0] $end
$var reg 32 B diff_pos_y [31:0] $end
$var reg 32 C dinGrid [31:0] $end
$var reg 32 D dinPX [31:0] $end
$var reg 32 E dinPY [31:0] $end
$var reg 32 F i [31:0] $end
$var reg 32 G j [31:0] $end
$var reg 32 H next_state [31:0] $end
$var reg 1 ! out $end
$var reg 32 I pos_a_X [31:0] $end
$var reg 32 J pos_a_Y [31:0] $end
$var reg 32 K pos_b_X [31:0] $end
$var reg 32 L pos_b_Y [31:0] $end
$var reg 1 M reEA $end
$var reg 1 N reEB $end
$var reg 1 O reGrid $end
$var reg 1 P reOX $end
$var reg 1 Q reOY $end
$var reg 1 R rePX $end
$var reg 1 S rePY $end
$var reg 32 T seed [31:0] $end
$var reg 32 U state [31:0] $end
$var reg 32 V sum [31:0] $end
$var reg 32 W sum_1hop [31:0] $end
$var reg 1 X weGrid $end
$var reg 1 Y wePX $end
$var reg 1 Z wePY $end
$var reg 32 [ xi [31:0] $end
$var reg 32 \ xj [31:0] $end
$scope module ea $end
$var wire 32 ] addr [31:0] $end
$var wire 1 " clk $end
$var wire 1 M read $end
$var wire 1 $ reset $end
$var reg 32 ^ data [31:0] $end
$upscope $end
$scope module eb $end
$var wire 32 _ addr [31:0] $end
$var wire 1 " clk $end
$var wire 1 N read $end
$var wire 1 $ reset $end
$var reg 32 ` data [31:0] $end
$upscope $end
$scope module grid $end
$var wire 32 a addr [31:0] $end
$var wire 1 " clk $end
$var wire 32 b dataWrite [31:0] $end
$var wire 1 O read $end
$var wire 1 $ reset $end
$var wire 1 X write $end
$var reg 32 c dataRead [31:0] $end
$upscope $end
$scope module offset_x $end
$var wire 32 d addr [31:0] $end
$var wire 1 " clk $end
$var wire 1 P read $end
$var wire 1 $ reset $end
$var reg 32 e data [31:0] $end
$upscope $end
$scope module offset_y $end
$var wire 32 f addr [31:0] $end
$var wire 1 " clk $end
$var wire 1 Q read $end
$var wire 1 $ reset $end
$var reg 32 g data [31:0] $end
$upscope $end
$scope module pos_X $end
$var wire 32 h addr [31:0] $end
$var wire 1 " clk $end
$var wire 32 i dataWrite [31:0] $end
$var wire 1 R read $end
$var wire 1 $ reset $end
$var wire 1 Y write $end
$var reg 32 j dataRead [31:0] $end
$upscope $end
$scope module pos_Y $end
$var wire 32 k addr [31:0] $end
$var wire 1 " clk $end
$var wire 32 l dataWrite [31:0] $end
$var wire 1 S read $end
$var wire 1 $ reset $end
$var wire 1 Z write $end
$var reg 32 m dataRead [31:0] $end
$upscope $end
$scope module random $end
$var wire 1 " clk $end
$var wire 1 # loadseed_i $end
$var wire 1 % reset $end
$var wire 32 n seed_i [31:0] $end
$var reg 37 o CASR_outCASR [36:0] $end
$var reg 37 p CASR_reg [36:0] $end
$var reg 37 q CASR_varCASR [36:0] $end
$var reg 43 r LFSR_reg [42:0] $end
$var reg 43 s LFSR_varLFSR [42:0] $end
$var reg 32 t number_o [31:0] $end
$var reg 1 u outbitLFSR $end
$upscope $end
$upscope $end
$upscope $end
$enddefinitions $end
#0
$dumpvars
xu
bx t
bx s
bx r
bx q
bx p
bx o
b101100000110101100111110011 n
bx m
bx l
bx k
bx j
bx i
bx h
bx g
bx f
bx e
bx d
bx c
bx b
bx a
bx `
bx _
bx ^
bx ]
bx \
bx [
xZ
xY
xX
bx W
bx V
bx U
b101100000110101100111110011 T
xS
xR
xQ
xP
xO
xN
xM
bx L
bx K
bx J
bx I
bx H
bx G
bx F
bx E
bx D
bx C
bx B
bx A
bx @
bx ?
bx >
bx =
bx <
bx ;
bx :
bx 9
bx 8
bx 7
bx 6
bx 5
bx 4
bx 3
bx 2
bx 1
bx 0
bx /
bx .
bx -
bx ,
bx +
bx *
bx )
bx (
bx '
bx &
x%
0$
0#
0"
x!
$end
#10
b0 V
b0 H
b0 U
b0 C
b0 b
b0 7
b0 a
0X
0O
b0 E
b0 l
b0 ;
b0 k
0Z
0S
b0 D
b0 i
b0 :
b0 h
0Y
0R
b0 9
b0 f
0Q
b0 8
b0 d
0P
b0 6
b0 _
0N
b0 5
b0 ]
0M
b0 @
b0 &
b0 4
b0 ^
b0 '
b0 3
b0 `
b0 )
b0 1
b0 e
b0 *
b0 0
b0 g
b0 +
b0 /
b0 j
b0 ,
b0 .
b0 m
b0 (
b0 2
b0 c
1"
1$
#20
0"
#30
b0 @
1"
#40
0"
#50
b0 @
1"
#60
0"
#70
b0 @
1"
#80
0"
#90
b0 @
1"
#100
0"
#110
b0 @
1"
#120
0"
#130
b0 @
1"
#140
0"
#150
b0 @
1"
#160
0"
#170
b0 @
1"
#180
0"
#190
b0 @
1"
#200
0"
#210
b0 @
1"
#220
0"
#230
b0 @
1"
#240
1#
1%
0"
0$
#250
b1 U
1M
b1 @
b101100000110101100111110011 p
b101100000110101100111110011 q
b101100000110101100111110011 r
b101100000110101100111110011 s
1"
#260
0"
0#
#270
b10 U
b1 E
b1 l
1Z
1Y
0M
b10 @
b10110000011010110011111001 -
b10110000011010110011111001 t
b1011000001101011001111100110 r
b1011000001101011001111100110 s
0u
b1000000001001110001110001111100011111 p
b1000000001001110001110001111100011111 o
1"
#280
0"
#290
b11 H
b100000 U
b0 G
b0 F
1S
1R
0Z
0Y
b11 @
b1100000011111011011011011000110110000 p
b1100000011111011011011011000110110000 o
b1000000001001110001110001111100011111 q
b10110000011010110011111001100 r
b10110000011010110011111001100 s
1"
#300
0"
#310
b11 U
0S
0R
b100 @
b1 ,
b1 .
b1 m
b10101011101110111010000100001 -
b10101011101110111010000100001 t
b101100000110101100111110011000 r
b101100000110101100111110011000 s
b1110000111001011011011011101110111001 p
b1110000111001011011011011101110111001 o
b1100000011111011011011011000110110000 q
1"
#320
0"
#330
b0 ,
b0 .
b0 m
b100 U
b1 7
b1 a
1X
b101 @
b11001100110011011011010101010101111 p
b11001100110011011011010101010101111 o
b1110000111001011011011011101110111001 q
b1011000001101011001111100110000 r
b1011000001101011001111100110000 s
1"
#340
0"
#350
b101 H
b100000 U
1N
1M
0X
b110 @
b1001111100001101011111001101001 -
b1001111100001101011111001101001 t
b10110000011010110011111001100000 r
b10110000011010110011111001100000 s
b1111111111111111011011000000000001001 p
b1111111111111111011011000000000001001 o
b11001100110011011011010101010101111 q
1"
#360
0"
#370
b1000 '
b1000 3
b1000 `
b101 U
0N
0M
b111 @
b1000001011011100000000010111 p
b1000001011011100000000010111 o
b1111111111111111011011000000000001001 q
b101100000110101100111110011000000 r
b101100000110101100111110011000000 s
1"
#380
0"
#390
b110 H
b100000 U
1S
1R
b1000 @
b11011101111000011001100110100101 -
b11011101111000011001100110100101 t
b1011000001101011001111100110000000 r
b1011000001101011001111100110000000 s
b1000000011100010011010110000000100101 p
b1000000011100010011010110000000100101 o
b1000001011011100000000010111 q
1"
#400
0"
#410
b1 ,
b1 .
b1 m
b110 U
0S
0R
b1001 @
b1100000111110101111000111000001011001 p
b1100000111110101111000111000001011001 o
b1000000011100010011010110000000100101 q
b10110000011010110011111001100000000 r
b10110000011010110011111001100000000 s
1"
#420
0"
#430
b1000 H
b111 U
b1 J
b0 I
b1010 @
b0 ,
b0 .
b0 m
b1101100100101010011111010011111 -
b1101100100101010011111010011111 t
b101100000110101100111110011000000000 r
b101100000110101100111110011000000000 s
b110001101010001001101101100010011111 p
b110001101010001001101101100010011111 o
b1100000111110101111000111000001011001 q
1"
#440
0"
#450
b100000 U
b1000 ;
b1000 k
1S
b1000 :
b1000 h
1R
b1011 @
b111011101001010111101101110101110001 p
b111011101001010111101101110101110001 o
b110001101010001001101101100010011111 q
b1011000001101011001111100110000000000 r
b1011000001101011001111100110000000000 s
1"
#460
0"
#470
b1000 U
0S
0R
b1100 @
b11111111111111111111111111111111 ,
b11111111111111111111111111111111 .
b11111111111111111111111111111111 m
b11111111111111111111111111111111 +
b11111111111111111111111111111111 /
b11111111111111111111111111111111 j
b10110100110111010100110001011010 -
b10110100110111010100110001011010 t
b10110000011010110011111001100000000000 r
b10110000011010110011111001100000000000 s
b101010101110000100101101010001011010 p
b101010101110000100101101010001011010 o
b111011101001010111101101110101110001 q
1"
#480
0"
#490
b0 +
b0 /
b0 j
b0 ,
b0 .
b0 m
b10001 U
b11111111111111111111111111111111 L
b11111111111111111111111111111111 K
b1101 @
b1000000000011001011001100001010011001 p
b1000000000011001011001100001010011001 o
b101010101110000100101101010001011010 q
b101100000110101100111110011000000000000 r
b101100000110101100111110011000000000000 s
1"
#500
0"
#510
b10010 H
b100000 U
1Q
1P
b1110 @
b1101100111100011000010001111111 -
b1101100111100011000010001111111 t
b1011000001101011001111100110000000000000 r
b1011000001101011001111100110000000000000 s
b1100000000111110011111110010001111111 p
b1100000000111110011111110010001111111 o
b1000000000011001011001100001010011001 q
1"
#520
0"
#530
b10010 U
0Q
0P
b1111 @
b110000001100011110000011101011000000 p
b110000001100011110000011101011000000 o
b1100000000111110011111110010001111111 q
b10110000011010110011111001100000000000000 r
b10110000011010110011111001100000000000000 s
1"
#540
0"
#550
b10011 U
b1 \
b0 [
b10000 @
b10111010001101011110100011100000 -
b10111010001101011110100011100000 t
b101100000110101100111110011000000000000000 r
b101100000110101100111110011000000000000000 s
b1111000010110110011000110100011100000 p
b1111000010110110011000110100011100000 o
b110000001100011110000011101011000000 q
1"
#560
0"
#570
b10100 U
b1 <
b10001 @
b1001100100110111111101110010110110001 p
b1001100100110111111101110010110110001 o
b1111000010110110011000110100011100000 q
b1011000001101011001111100110000000000000001 r
b1011000001101011001111100110000000000000001 s
1"
#580
0"
#590
b10101 H
b100000 U
1O
b10010 @
b1 G
b1101101011101001011100110111011 -
b1101101011101001011100110111011 t
b10000011010110011111101100000000000000000 r
b10000011010110011111101100000000000000000 s
1u
b1111111011110100000101011100110111011 p
b1111111011110100000101011100110111011 o
b1001100100110111111101110010110110001 q
1"
#600
0"
#610
b10101 U
0O
b10011 @
b1011010010001000010111110101010 p
b1011010010001000010111110101010 o
b1111111011110100000101011100110111011 q
b100000110101100111111011000000000000000000 r
b100000110101100111111011000000000000000000 s
0u
1"
#620
0"
#630
b10110 U
b0 =
b10100 @
b1011110011100100100100010000000 -
b1011110011100100100100010000000 t
b1000001101011001111110110000000000000000001 r
b1000001101011001111110110000000000000000001 s
b10010001101010100100100010000001 p
b10010001101010100100100010000001 o
b1011010010001000010111110101010 q
1"
#640
0"
#650
b10001 U
b10101 @
b1000101101011100000011011010101000010 p
b1000101101011100000011011010101000010 o
b10010001101010100100100010000001 q
b100011010110011111101000000000000000000000 r
b100011010110011111101000000000000000000000 s
1u
1"
#660
0"
#670
b10010 H
b100000 U
b1 9
b1 f
1Q
b1 8
b1 d
1P
b10110 @
b1010101100000111011000000100101 -
b1010101100000111011000000100101 t
b1000110101100111111010000000000000000000001 r
b1000110101100111111010000000000000000000001 s
0u
b101001101010110000111011000000100100 p
b101001101010110000111011000000100100 o
b1000101101011100000011011010101000010 q
1"
#680
0"
#690
b1 *
b1 0
b1 g
b10010 U
0Q
0P
b10111 @
b1000111101000111001101011100001011010 p
b1000111101000111001101011100001011010 o
b101001101010110000111011000000100100 q
b101101011001111110100100000000000000000000 r
b101101011001111110100100000000000000000000 s
1u
1"
#700
0"
#710
b10011 U
b10 \
b11000 @
b11010000100111100010110010011001 -
b11010000100111100010110010011001 t
b1011010110011111101001000000000000000000001 r
b1011010110011111101001000000000000000000001 s
0u
b101100101101101111100010110010011000 p
b101100101101101111100010110010011000 o
b1000111101000111001101011100001011010 q
1"
#720
0"
#730
b10100 U
b10 <
b11001 @
b1001111000101101000110100111101111100 p
b1001111000101101000110100111101111100 o
b101100101101101111100010110010011000 q
b10101100111111010010100000000000000000000 r
b10101100111111010010100000000000000000000 s
1u
1"
#740
0"
#750
b10101 H
b100000 U
b10 7
b10 a
1O
b11010 @
b10 G
b10011101001101110011100101000111 -
b10011101001101110011100101000111 t
b101011001111110100101000000000000000000000 r
b101011001111110100101000000000000000000000 s
0u
b111001101001100101110011100101000111 p
b111001101001100101110011100101000111 o
b1001111000101101000110100111101111100 q
1"
#760
0"
#770
b11111111111111111111111111111111 (
b11111111111111111111111111111111 2
b11111111111111111111111111111111 c
b10101 U
0O
b11011 @
b101111101111111001011110111000101101 p
b101111101111111001011110111000101101 o
b111001101001100101110011100101000111 q
b1010110011111101001010000000000000000000001 r
b1010110011111101001010000000000000000000001 s
1"
#780
0"
#790
b10110 U
b11111111111111111111111111111111 =
b11100 @
b0 (
b0 2
b0 c
b11110010101010010010101101001100 -
b11110010101010010010101101001100 t
b1100111111010010100100000000000000000000 r
b1100111111010010100100000000000000000000 s
1u
b1000100000001110010010101101001100 p
b1000100000001110010010101101001100 o
b101111101111111001011110111000101101 q
1"
#800
0"
#810
b100 U
b0 G
b10 E
b10 l
1Z
1Y
b10 L
b0 K
b1000 C
b1000 b
1X
b11101 @
b1 F
b10101010000011011101100001100111110 p
b10101010000011011101100001100111110 o
b1000100000001110010010101101001100 q
b11001111110100101001000000000000000000000 r
b11001111110100101001000000000000000000000 s
0u
1"
#820
0"
#830
b101 H
b100000 U
b1 6
b1 _
1N
b1 5
b1 ]
1M
0X
0Z
0Y
b11110 @
b1000010101010101110011111100011 -
b1000010101010101110011111100011 t
b110011111101001010010000000000000000000000 r
b110011111101001010010000000000000000000000 s
b100000001000111010101110011111100011 p
b100000001000111010101110011111100011 o
b10101010000011011101100001100111110 q
1"
#840
0"
#850
b1 &
b1 4
b1 ^
b101 U
0N
0M
b11111 @
b10000011101101000001011110000110111 p
b10000011101101000001011110000110111 o
b100000001000111010101110011111100011 q
b1100111111010010100100000000000000000000001 r
b1100111111010010100100000000000000000000001 s
1"
#860
0"
#870
b110 H
b100000 U
b1 ;
b1 k
1S
b1 :
b1 h
1R
b100000 @
b10100100000010010011001110100 -
b10100100000010010011001110100 t
b1101111110100101001000100000000000000000001 r
b1101111110100101001000100000000000000000001 s
1u
b1101000111101100100010010011001110101 p
b1101000111101100100010010011001110101 o
b10000011101101000001011110000110111 q
1"
#880
0"
#890
b11111111111111111111111111111111 +
b11111111111111111111111111111111 /
b11111111111111111111111111111111 j
b11111111111111111111111111111111 ,
b11111111111111111111111111111111 .
b11111111111111111111111111111111 m
b110 U
0S
0R
b100001 @
b100101101101111010101101111111010001 p
b100101101101111010101101111111010001 o
b1101000111101100100010010011001110101 q
b1111111101001010010001100000000000000000001 r
b1111111101001010010001100000000000000000001 s
1"
#900
0"
#910
b1000 H
b111 U
b11111111111111111111111111111111 J
b11111111111111111111111111111111 I
b100010 @
b0 ,
b0 .
b0 m
b0 +
b0 /
b0 j
b11000001010100001101000001001011 -
b11000001010100001101000001001011 t
b1011111010010100100011100000000000000000001 r
b1011111010010100100011100000000000000000001 s
b11001100101001000001101000001001010 p
b11001100101001000001101000001001010 o
b100101101101111010101101111111010001 q
1"
#920
0"
#930
b100000 U
b1000 ;
b1000 k
1S
b1000 :
b1000 h
1R
b100011 @
b111111111000110100011100100010110001 p
b111111111000110100011100100010110001 o
b11001100101001000001101000001001010 q
b11110100101001000111100000000000000000000 r
b11110100101001000111100000000000000000000 s
1"
#940
0"
#950
b1000 U
0S
0R
b100100 @
b10 ,
b10 .
b10 m
b10010100001010110111010100111010 -
b10010100001010110111010100111010 t
b111101001010010001111000000000000000000000 r
b111101001010010001111000000000000000000000 s
0u
b100000000101110010110111010100111010 p
b100000000101110010110111010100111010 o
b111111111000110100011100100010110001 q
1"
#960
0"
#970
b0 ,
b0 .
b0 m
b1001 U
b100101 @
b1010000001001011100110101000011101001 p
b1010000001001011100110101000011101001 o
b100000000101110010110111010100111010 q
b1111010010100100011110000000000000000000001 r
b1111010010100100011110000000000000000000001 s
1"
#980
0"
#990
b1010 H
b100000 U
b0 9
b0 f
1Q
b0 ;
b0 k
1S
b0 8
b0 d
1P
b0 :
b0 h
1R
b100110 @
b1011001110011110000100110100110 -
b1011001110011110000100110100110 t
b1010100101001000111100100000000000000000001 r
b1010100101001000111100100000000000000000001 s
1u
b1001000011110010111110000100110100111 p
b1001000011110010111110000100110100111 o
b1010000001001011100110101000011101001 q
1"
#1000
0"
#1010
b0 *
b0 0
b0 g
b1 ,
b1 .
b1 m
b1010 U
0S
0R
0Q
0P
b100111 @
b1110100111011100100011001011110011100 p
b1110100111011100100011001011110011100 o
b1001000011110010111110000100110100111 q
b1001010010001111001100000000000000000000 r
b1001010010001111001100000000000000000000 s
1"
#1020
0"
#1030
b1011 U
b1 >
b0 <
b101000 @
b0 ,
b0 .
b0 m
b11111100100010111110010011110111 -
b11111100100010111110010011110111 t
b10010100100011110011000000000000000000000 r
b10010100100011110011000000000000000000000 s
0u
b1010011100010111010111110010011110111 p
b1010011100010111010111110010011110111 o
b1110100111011100100011001011110011100 q
1"
#1040
0"
#1050
b1100 U
b1 E
b1 l
b1 ;
b1 k
1Z
b1 :
b1 h
1Y
b101001 @
b1001110110100101000100011101110010100 p
b1001110110100101000100011101110010100 o
b1010011100010111010111110010011110111 q
b100101001000111100110000000000000000000000 r
b100101001000111100110000000000000000000000 s
1"
#1060
0"
#1070
b1101 H
b100000 U
1S
1R
0Z
0Y
b101010 @
b1 G
b11001010100101010110101011100010 -
b11001010100101010110101011100010 t
b1001010010001111001100000000000000000000001 r
b1001010010001111001100000000000000000000001 s
b111010110011000101010110101011100011 p
b111010110011000101010110101011100011 o
b1001110110100101000100011101110010100 q
1"
#1080
0"
#1090
b1 ,
b1 .
b1 m
b1101 U
0S
0R
b101011 @
b101000111111101000000110000010110111 p
b101000111111101000000110000010110111 o
b111010110011000101010110101011100011 q
b110100100011110011000100000000000000000000 r
b110100100011110011000100000000000000000000 s
1u
1"
#1100
0"
#1110
b1110 U
b1 <
b1 \
b101100 @
b0 ,
b0 .
b0 m
b10001110101100001111000100110100 -
b10001110101100001111000100110100 t
b1101001000111100110001000000000000000000001 r
b1101001000111100110001000000000000000000001 s
0u
b101101000100100001111000100110101 p
b101101000100100001111000100110101 o
b101000111111101000000110000010110111 q
1"
#1120
0"
#1130
b1111 H
b100000 U
b1 7
b1 a
1O
b101101 @
b1001001101101011010011001101011110000 p
b1001001101101011010011001101011110000 o
b101101000100100001111000100110101 q
b1110010001111001100010100000000000000000001 r
b1110010001111001100010100000000000000000001 s
1u
1"
#1140
0"
#1150
b1111 U
0O
b101110 @
b1111100110101111111100010011000 -
b1111100110101111111100010011000 t
b1000100011110011000101100000000000000000001 r
b1000100011110011000101100000000000000000001 s
b110111100100011001111111100010011001 p
b110111100100011001111111100010011001 o
b1001001101101011010011001101011110000 q
1"
#1160
0"
#1170
b10000 U
b0 =
b101111 @
b110100111010111111000000110101111110 p
b110100111010111111000000110101111110 o
b110111100100011001111111100010011001 q
b101000111100110001011100000000000000000000 r
b101000111100110001011100000000000000000000 s
1"
#1180
0"
#1190
b10001 U
b110000 @
b10000010011001100001110001000010 -
b10000010011001100001110001000010 t
b1010001111001100010111000000000000000000001 r
b1010001111001100010111000000000000000000001 s
0u
b1110011100000100001100001110001000011 p
b1110011100000100001100001110001000011 o
b110100111010111111000000110101111110 q
1"
#1200
0"
#1210
b0 G
b100 U
b110001 @
b10 F
b11110110001010011110011011010100110 p
b11110110001010011110011011010100110 o
b1110011100000100001100001110001000011 q
b11110011000101110100000000000000000000 r
b11110011000101110100000000000000000000 s
1u
1"
#1220
0"
#1230
b101 H
b100000 U
b10 6
b10 _
1N
b10 5
b10 ]
1M
b110010 @
b110001100110011111011000011111 -
b110001100110011111011000011111 t
b111100110001011101000000000000000000000 r
b111100110001011101000000000000000000000 s
0u
b110010111010001110011111011000011111 p
b110010111010001110011111011000011111 o
b11110110001010011110011011010100110 q
1"
#1240
0"
#1250
b10 &
b10 4
b10 ^
b1001 '
b1001 3
b1001 `
b101 U
0N
0M
b110011 @
b111100100001011011110001011100110001 p
b111100100001011011110001011100110001 o
b110010111010001110011111011000011111 q
b1111001100010111010000000000000000000000 r
b1111001100010111010000000000000000000000 s
1"
#1260
0"
#1270
b110 H
b100000 U
b10 ;
b10 k
1S
b10 :
b10 h
1R
b110100 @
b11111100111010011010010111111010 -
b11111100111010011010010111111010 t
b11110011000101110100000000000000000000000 r
b11110011000101110100000000000000000000000 s
b100111010010011010011010010111111010 p
b100111010010011010011010010111111010 o
b111100100001011011110001011100110001 q
1"
#1280
0"
#1290
b11111111111111111111111111111111 +
b11111111111111111111111111111111 /
b11111111111111111111111111111111 j
b11111111111111111111111111111111 ,
b11111111111111111111111111111111 .
b11111111111111111111111111111111 m
b110 U
0S
0R
b110101 @
b1011101001101111001111001100100001001 p
b1011101001101111001111001100100001001 o
b100111010010011010011010010111111010 q
b111100110001011101000000000000000000000000 r
b111100110001011101000000000000000000000000 s
1"
#1300
0"
#1310
b1000 H
b111 U
b110110 @
b0 ,
b0 .
b0 m
b0 +
b0 /
b0 j
b10001111001111001111111010010110 -
b10001111001111001111111010010110 t
b1111001100010111010000000000000000000000001 r
b1111001100010111010000000000000000000000001 s
b1010100110101001111001111111010010111 p
b1010100110101001111001111111010010111 o
b1011101001101111001111001100100001001 q
1"
#1320
0"
#1330
b100000 U
b1001 ;
b1001 k
1S
b1001 :
b1001 h
1R
b110111 @
b1000011110000111001111000001001100100 p
b1000011110000111001111000001001100100 o
b1010100110101001111001111111010010111 q
b1010011000101110100000100000000000000000001 r
b1010011000101110100000100000000000000000001 s
1u
1"
#1340
0"
#1350
b1000 U
0S
0R
b111000 @
b11111111111111111111111111111111 ,
b11111111111111111111111111111111 .
b11111111111111111111111111111111 m
b11111111111111111111111111111111 +
b11111111111111111111111111111111 /
b11111111111111111111111111111111 j
b1110001100011001100010111111011 -
b1110001100011001100010111111011 t
b110001011101000001100000000000000000000 r
b110001011101000001100000000000000000000 s
b100110011001101111001100010111111011 p
b100110011001101111001100010111111011 o
b1000011110000111001111000001001100100 q
1"
#1360
0"
#1370
b0 +
b0 /
b0 j
b0 ,
b0 .
b0 m
b1001 U
b11111111111111111111111111111111 L
b11111111111111111111111111111111 K
b111001 @
b11111110111101001111110100100001011 p
b11111110111101001111110100100001011 o
b100110011001101111001100010111111011 q
b1100010111010000011000000000000000000000 r
b1100010111010000011000000000000000000000 s
0u
1"
#1380
0"
#1390
b1010 H
b100000 U
1Q
b1 ;
b1 k
1S
1P
b1 :
b1 h
1R
b111010 @
b10110100010111000010011010010011 -
b10110100010111000010011010010011 t
b11000101110100000110000000000000000000000 r
b11000101110100000110000000000000000000000 s
b1110000010100100111000010011010010011 p
b1110000010100100111000010011010010011 o
b11111110111101001111110100100001011 q
1"
#1400
0"
#1410
b1 ,
b1 .
b1 m
b1010 U
0S
0R
0Q
0P
b111011 @
b11000100011011101100101111001101110 p
b11000100011011101100101111001101110 o
b1110000010100100111000010011010010011 q
b110001011101000001100000000000000000000000 r
b110001011101000001100000000000000000000000 s
1"
#1420
0"
#1430
b1011 U
b0 <
b111100 @
b0 ,
b0 .
b0 m
b11010100010101111001001111101010 -
b11010100010101111001001111101010 t
b1100010111010000011000000000000000000000001 r
b1100010111010000011000000000000000000000001 s
b111101010111010101111001001111101011 p
b111101010111010101111001001111101011 o
b11000100011011101100101111001101110 q
1"
#1440
0"
#1450
b1100 U
b10 ;
b10 k
1Z
b10 :
b10 h
1Y
b111101 @
b100100000101000001001110111000100011 p
b100100000101000001001110111000100011 o
b111101010111010101111001001111101011 q
b1100101110100000110000100000000000000000001 r
b1100101110100000110000100000000000000000001 s
1u
1"
#1460
0"
#1470
b1101 H
b100000 U
1S
1R
0Z
0Y
b111110 @
b1 G
b10000100101110111010101101010110 -
b10000100101110111010101101010110 t
b1101011101000001100001100000000000000000001 r
b1101011101000001100001100000000000000000001 s
b11010001000100010111010101101010111 p
b11010001000100010111010101101010111 o
b100100000101000001001110111000100011 q
1"
#1480
0"
#1490
b1 ,
b1 .
b1 m
b1101 U
0S
0R
b111111 @
b1111001011101010100101000001100000101 p
b1111001011101010100101000001100000101 o
b11010001000100010111010101101010111 q
b1110111010000011000011100000000000000000001 r
b1110111010000011000011100000000000000000001 s
1"
#1500
0"
#1510
b1110 U
b1 <
b1000000 @
b0 ,
b0 .
b0 m
b10101100111111000100011110001000 -
b10101100111111000100011110001000 t
b1001110100000110000111100000000000000000001 r
b1001110100000110000111100000000000000000001 s
b1110011100000011000100011110001001 p
b1110011100000011000100011110001001 o
b1111001011101010100101000001100000101 q
1"
#1520
0"
#1530
b1111 H
b100000 U
1O
b1000001 @
b1011011111110000111101010110011010110 p
b1011011111110000111101010110011010110 o
b1110011100000011000100011110001001 q
b111101000001100001111100000000000000000000 r
b111101000001100001111100000000000000000000 s
1"
#1540
0"
#1550
b1111 U
0O
b1000010 @
b1001000110100100000111111000111 -
b1001000110100100000111111000111 t
b1111010000011000011111000000000000000000001 r
b1111010000011000011111000000000000000000001 s
0u
b11010001011001100100000111111000110 p
b11010001011001100100000111111000110 o
b1011011111110000111101010110011010110 q
1"
#1560
0"
#1570
b10000 U
b1000011 @
b111001011011111111010001100001101111 p
b111001011011111111010001100001101111 o
b11010001011001100100000111111000110 q
b1010100000110000111110100000000000000000001 r
b1010100000110000111110100000000000000000001 s
1u
1"
#1580
0"
#1590
b10001 U
b1000100 @
b10011101101101001011110011101001 -
b10011101101101001011110011101001 t
b1000001100001111101100000000000000000000 r
b1000001100001111101100000000000000000000 s
b101110010010000001001011110011101001 p
b101110010010000001001011110011101001 o
b111001011011111111010001100001101111 q
1"
#1600
0"
#1610
b10010 H
b100000 U
b1 9
b1 f
1Q
b1 8
b1 d
1P
b1000101 @
b1011101101000010110010011110100110 p
b1011101101000010110010011110100110 o
b101110010010000001001011110011101001 q
b10000011000011111011000000000000000000000 r
b10000011000011111011000000000000000000000 s
0u
1"
#1620
0"
#1630
b10010 U
0Q
0P
b1000110 @
b1 *
b1 0
b1 g
b10011010010100111101110010011111 -
b10011010010100111101110010011111 t
b100000110000111110110000000000000000000000 r
b100000110000111110110000000000000000000000 s
b10010100100100100111101110010011111 p
b10010100100100100111101110010011111 o
b1011101101000010110010011110100110 q
1"
#1640
0"
#1650
b10011 U
b0 \
b11111111111111111111111111111111 [
b1000111 @
b1101100011011011011100101011101110001 p
b1101100011011011011100101011101110001 o
b10010100100100100111101110010011111 q
b1000001100001111101100000000000000000000001 r
b1000001100001111101100000000000000000000001 s
1"
#1660
0"
#1670
b10100 U
b11111111111111111111111111111010 <
b1001000 @
b1001000011110111000010101011011 -
b1001000011110111000010101011011 t
b100011000011111011000100000000000000000000 r
b100011000011111011000100000000000000000000 s
1u
b101110110011011010111000010101011011 p
b101110110011011010111000010101011011 o
b1101100011011011011100101011101110001 q
1"
#1680
0"
#1690
b10101 H
b100000 U
b11111111111111111111111111111010 7
b11111111111111111111111111111010 a
1O
b1001001 @
b10 G
b1010111111011000101100100000011011 p
b1010111111011000101100100000011011 o
b101110110011011010111000010101011011 q
b1000110000111110110001000000000000000000001 r
b1000110000111110110001000000000000000000001 s
0u
1"
#1700
0"
#1710
b10101 U
0O
b1001010 @
bx (
bx 2
bx c
b11000101001001001111010000111011 -
b11000101001001001111010000111011 t
b101100001111101100010100000000000000000000 r
b101100001111101100010100000000000000000000 s
1u
b1010000101001011101001111010000111011 p
b1010000101001011101001111010000111011 o
b1010111111011000101100100000011011 q
1"
#1720
0"
#1730
b0 (
b0 2
b0 c
b10110 U
bx =
b1001011 @
b1001001001110010100111001001001101010 p
b1001001001110010100111001001001101010 o
b1010000101001011101001111010000111011 q
b1011000011111011000101000000000000000000001 r
b1011000011111011000101000000000000000000001 s
0u
1"
#1740
0"
#1750
b10001 U
b1001100 @
b10110111101110110111100000 -
b10110111101110110111100000 t
b10000111110110001010100000000000000000000 r
b10000111110110001010100000000000000000000 s
1u
b110110110011100011101110110111100000 p
b110110110011100011101110110111100000 o
b1001001001110010100111001001001101010 q
1"
#1760
0"
#1770
b10010 H
b100000 U
b10 9
b10 f
1Q
b10 8
b10 d
1P
b1001101 @
b1110110111110110110101010110100110000 p
b1110110111110110110101010110100110000 o
b110110110011100011101110110111100000 q
b100001111101100010101000000000000000000000 r
b100001111101100010101000000000000000000000 s
0u
1"
#1780
0"
