placement/INUTIL/VerilogRandom/placement.vcd
$date
	Fri May  1 00:53:16 2020
$end
$version
	Icarus Verilog
$end
$timescale
	1ns
$end
$scope module test $end
$var wire 1 ! out $end
$var reg 1 " clk $end
$var reg 1 # loads $end
$var reg 1 $ reset $end
$var reg 1 % rst $end
$var reg 32 & seed [31:0] $end
$scope module p1 $end
$var wire 32 ' a [31:0] $end
$var wire 32 ( b [31:0] $end
$var wire 1 " clk $end
$var wire 1 # loads $end
$var wire 32 ) outGrid [31:0] $end
$var wire 32 * outOX [31:0] $end
$var wire 32 + outOY [31:0] $end
$var wire 32 , outPX [31:0] $end
$var wire 32 - outPY [31:0] $end
$var wire 1 $ reset $end
$var wire 1 % rst $end
$var wire 32 . seed [31:0] $end
$var wire 32 / randomNumber [31:0] $end
$var wire 32 0 doutPY [31:0] $end
$var wire 32 1 doutPX [31:0] $end
$var wire 32 2 doutOY [31:0] $end
$var wire 32 3 doutOX [31:0] $end
$var wire 32 4 doutGrid [31:0] $end
$var wire 32 5 doutEB [31:0] $end
$var wire 32 6 doutEA [31:0] $end
$var reg 32 7 addrEA [31:0] $end
$var reg 32 8 addrEB [31:0] $end
$var reg 32 9 addrGrid [31:0] $end
$var reg 32 : addrOX [31:0] $end
$var reg 32 ; addrOY [31:0] $end
$var reg 32 < addrPX [31:0] $end
$var reg 32 = addrPY [31:0] $end
$var reg 32 > aux1 [31:0] $end
$var reg 32 ? aux2 [31:0] $end
$var reg 32 @ aux3 [31:0] $end
$var reg 32 A aux4 [31:0] $end
$var reg 32 B ciclos [31:0] $end
$var reg 32 C diff_pos_x [31:0] $end
$var reg 32 D diff_pos_y [31:0] $end
$var reg 32 E dinGrid [31:0] $end
$var reg 32 F dinPX [31:0] $end
$var reg 32 G dinPY [31:0] $end
$var reg 32 H i [31:0] $end
$var reg 32 I j [31:0] $end
$var reg 32 J next_state [31:0] $end
$var reg 1 ! out $end
$var reg 32 K pos_a_X [31:0] $end
$var reg 32 L pos_a_Y [31:0] $end
$var reg 32 M pos_b_X [31:0] $end
$var reg 32 N pos_b_Y [31:0] $end
$var reg 1 O reEA $end
$var reg 1 P reEB $end
$var reg 1 Q reGrid $end
$var reg 1 R reOX $end
$var reg 1 S reOY $end
$var reg 1 T rePX $end
$var reg 1 U rePY $end
$var reg 32 V state [31:0] $end
$var reg 32 W sum [31:0] $end
$var reg 32 X sum_1hop [31:0] $end
$var reg 1 Y weGrid $end
$var reg 1 Z wePX $end
$var reg 1 [ wePY $end
$var reg 32 \ xi [31:0] $end
$var reg 32 ] xj [31:0] $end
$scope module ea $end
$var wire 32 ^ addr [31:0] $end
$var wire 1 " clk $end
$var wire 1 O read $end
$var wire 1 $ reset $end
$var reg 32 _ data [31:0] $end
$upscope $end
$scope module eb $end
$var wire 32 ` addr [31:0] $end
$var wire 1 " clk $end
$var wire 1 P read $end
$var wire 1 $ reset $end
$var reg 32 a data [31:0] $end
$upscope $end
$scope module grid $end
$var wire 32 b addr [31:0] $end
$var wire 1 " clk $end
$var wire 32 c dataWrite [31:0] $end
$var wire 1 Q read $end
$var wire 1 $ reset $end
$var wire 1 Y write $end
$var reg 32 d dataRead [31:0] $end
$upscope $end
$scope module offset_x $end
$var wire 32 e addr [31:0] $end
$var wire 1 " clk $end
$var wire 1 R read $end
$var wire 1 $ reset $end
$var reg 32 f data [31:0] $end
$upscope $end
$scope module offset_y $end
$var wire 32 g addr [31:0] $end
$var wire 1 " clk $end
$var wire 1 S read $end
$var wire 1 $ reset $end
$var reg 32 h data [31:0] $end
$upscope $end
$scope module pos_X $end
$var wire 32 i addr [31:0] $end
$var wire 1 " clk $end
$var wire 32 j dataWrite [31:0] $end
$var wire 1 T read $end
$var wire 1 $ reset $end
$var wire 1 Z write $end
$var reg 32 k dataRead [31:0] $end
$upscope $end
$scope module pos_Y $end
$var wire 32 l addr [31:0] $end
$var wire 1 " clk $end
$var wire 32 m dataWrite [31:0] $end
$var wire 1 U read $end
$var wire 1 $ reset $end
$var wire 1 [ write $end
$var reg 32 n dataRead [31:0] $end
$upscope $end
$scope module random $end
$var wire 1 " clk $end
$var wire 1 # loadseed_i $end
$var wire 1 % reset $end
$var wire 32 o seed_i [31:0] $end
$var reg 37 p CASR_outCASR [36:0] $end
$var reg 37 q CASR_reg [36:0] $end
$var reg 37 r CASR_varCASR [36:0] $end
$var reg 43 s LFSR_reg [42:0] $end
$var reg 43 t LFSR_varLFSR [42:0] $end
$var reg 32 u number_o [31:0] $end
$var reg 1 v outbitLFSR $end
$upscope $end
$upscope $end
$upscope $end
$enddefinitions $end
#0
$dumpvars
xv
bx u
bx t
bx s
bx r
bx q
bx p
b101100000110101100111110011 o
bx n
bx m
bx l
bx k
bx j
bx i
bx h
bx g
bx f
bx e
bx d
bx c
bx b
bx a
bx `
bx _
bx ^
bx ]
bx \
x[
xZ
xY
bx X
bx W
bx V
xU
xT
xS
xR
xQ
xP
xO
bx N
bx M
bx L
bx K
bx J
bx I
bx H
bx G
bx F
bx E
bx D
bx C
bx B
bx A
bx @
bx ?
bx >
bx =
bx <
bx ;
bx :
bx 9
bx 8
bx 7
bx 6
bx 5
bx 4
bx 3
bx 2
bx 1
bx 0
bx /
b101100000110101100111110011 .
bx -
bx ,
bx +
bx *
bx )
bx (
bx '
b101100000110101100111110011 &
x%
0$
0#
0"
x!
$end
#10
b0 W
b0 J
b0 V
b0 E
b0 c
b0 9
b0 b
0Y
0Q
b0 G
b0 m
b0 =
b0 l
0[
0U
b0 F
b0 j
b0 <
b0 i
0Z
0T
b0 ;
b0 g
0S
b0 :
b0 e
0R
b0 8
b0 `
0P
b0 7
b0 ^
0O
b0 B
b0 '
b0 6
b0 _
b0 (
b0 5
b0 a
b0 *
b0 3
b0 f
b0 +
b0 2
b0 h
b0 ,
b0 1
b0 k
b0 -
b0 0
b0 n
b0 )
b0 4
b0 d
1"
1$
#20
0"
#30
b0 B
1"
#40
0"
#50
b0 B
1"
#60
0"
#70
b0 B
1"
#80
0"
#90
b0 B
1"
#100
0"
#110
b0 B
1"
#120
0"
#130
b0 B
1"
#140
0"
#150
b0 B
1"
#160
0"
#170
b0 B
1"
#180
0"
#190
b0 B
1"
#200
0"
#210
b0 B
1"
#220
0"
#230
b0 B
1"
#240
1#
1%
0"
0$
#250
b1 V
1O
b1 B
b101100000110101100111110011 q
b101100000110101100111110011 r
b101100000110101100111110011 s
b101100000110101100111110011 t
1"
#260
0"
0#
#270
b10 V
b110 G
b110 m
1[
b1 F
b1 j
1Z
0O
b10 B
b10110000011010110011111001 /
b10110000011010110011111001 u
b1011000001101011001111100110 s
b1011000001101011001111100110 t
0v
b1000000001001110001110001111100011111 q
b1000000001001110001110001111100011111 p
1"
#280
0"
#290
b11 J
b100000 V
b0 I
b0 H
1U
1T
0[
0Z
b11 B
b1100000011111011011011011000110110000 q
b1100000011111011011011011000110110000 p
b1000000001001110001110001111100011111 r
b10110000011010110011111001100 s
b10110000011010110011111001100 t
1"
#300
0"
#310
b11 V
0U
0T
b100 B
b110 -
b110 0
b110 n
b1 ,
b1 1
b1 k
b10101011101110111010000100001 /
b10101011101110111010000100001 u
b101100000110101100111110011000 s
b101100000110101100111110011000 t
b1110000111001011011011011101110111001 q
b1110000111001011011011011101110111001 p
b1100000011111011011011011000110110000 r
1"
#320
0"
#330
b0 ,
b0 1
b0 k
b0 -
b0 0
b0 n
b100 V
b1100 9
b1100 b
1Y
b101 B
b11001100110011011011010101010101111 q
b11001100110011011011010101010101111 p
b1110000111001011011011011101110111001 r
b1011000001101011001111100110000 s
b1011000001101011001111100110000 t
1"
#340
0"
#350
b101 J
b100000 V
1P
1O
0Y
b110 B
b1001111100001101011111001101001 /
b1001111100001101011111001101001 u
b10110000011010110011111001100000 s
b10110000011010110011111001100000 t
b1111111111111111011011000000000001001 q
b1111111111111111011011000000000001001 p
b11001100110011011011010101010101111 r
1"
#360
0"
#370
b1000 (
b1000 5
b1000 a
b101 V
0P
0O
b111 B
b1000001011011100000000010111 q
b1000001011011100000000010111 p
b1111111111111111011011000000000001001 r
b101100000110101100111110011000000 s
b101100000110101100111110011000000 t
1"
#380
0"
#390
b110 J
b100000 V
1U
1T
b1000 B
b11011101111000011001100110100101 /
b11011101111000011001100110100101 u
b1011000001101011001111100110000000 s
b1011000001101011001111100110000000 t
b1000000011100010011010110000000100101 q
b1000000011100010011010110000000100101 p
b1000001011011100000000010111 r
1"
#400
0"
#410
b1 ,
b1 1
b1 k
b110 -
b110 0
b110 n
b110 V
0U
0T
b1001 B
b1100000111110101111000111000001011001 q
b1100000111110101111000111000001011001 p
b1000000011100010011010110000000100101 r
b10110000011010110011111001100000000 s
b10110000011010110011111001100000000 t
1"
#420
0"
#430
b1000 J
b111 V
b110 L
b1 K
b1010 B
b0 -
b0 0
b0 n
b0 ,
b0 1
b0 k
b1101100100101010011111010011111 /
b1101100100101010011111010011111 u
b101100000110101100111110011000000000 s
b101100000110101100111110011000000000 t
b110001101010001001101101100010011111 q
b110001101010001001101101100010011111 p
b1100000111110101111000111000001011001 r
1"
#440
0"
#450
b100000 V
b1000 =
b1000 l
1U
b1000 <
b1000 i
1T
b1011 B
b111011101001010111101101110101110001 q
b111011101001010111101101110101110001 p
b110001101010001001101101100010011111 r
b1011000001101011001111100110000000000 s
b1011000001101011001111100110000000000 t
1"
#460
0"
#470
b1000 V
0U
0T
b1100 B
b11111111111111111111111111111111 -
b11111111111111111111111111111111 0
b11111111111111111111111111111111 n
b11111111111111111111111111111111 ,
b11111111111111111111111111111111 1
b11111111111111111111111111111111 k
b10110100110111010100110001011010 /
b10110100110111010100110001011010 u
b10110000011010110011111001100000000000 s
b10110000011010110011111001100000000000 t
b101010101110000100101101010001011010 q
b101010101110000100101101010001011010 p
b111011101001010111101101110101110001 r
1"
#480
0"
#490
b0 ,
b0 1
b0 k
b0 -
b0 0
b0 n
b10001 V
b11111111111111111111111111111111 N
b11111111111111111111111111111111 M
b1101 B
b1000000000011001011001100001010011001 q
b1000000000011001011001100001010011001 p
b101010101110000100101101010001011010 r
b101100000110101100111110011000000000000 s
b101100000110101100111110011000000000000 t
1"
#500
0"
#510
b10010 J
b100000 V
1S
b0 :
b0 e
1R
b1110 B
b1101100111100011000010001111111 /
b1101100111100011000010001111111 u
b1011000001101011001111100110000000000000 s
b1011000001101011001111100110000000000000 t
b1100000000111110011111110010001111111 q
b1100000000111110011111110010001111111 p
b1000000000011001011001100001010011001 r
1"
#520
0"
#530
b10010 V
0S
0R
b1111 B
b110000001100011110000011101011000000 q
b110000001100011110000011101011000000 p
b1100000000111110011111110010001111111 r
b10110000011010110011111001100000000000000 s
b10110000011010110011111001100000000000000 t
1"
#540
0"
#550
b10011 V
b110 ]
b1 \
b10000 B
b10111010001101011110100011100000 /
b10111010001101011110100011100000 u
b101100000110101100111110011000000000000000 s
b101100000110101100111110011000000000000000 t
b1111000010110110011000110100011100000 q
b1111000010110110011000110100011100000 p
b110000001100011110000011101011000000 r
1"
#560
0"
#570
b10100 V
b1100 >
b10001 B
b1001100100110111111101110010110110001 q
b1001100100110111111101110010110110001 p
b1111000010110110011000110100011100000 r
b1011000001101011001111100110000000000000001 s
b1011000001101011001111100110000000000000001 t
1"
#580
0"
#590
b10101 J
b100000 V
1Q
b10010 B
b1 I
b1101101011101001011100110111011 /
b1101101011101001011100110111011 u
b10000011010110011111101100000000000000000 s
b10000011010110011111101100000000000000000 t
1v
b1111111011110100000101011100110111011 q
b1111111011110100000101011100110111011 p
b1001100100110111111101110010110110001 r
1"
#600
0"
#610
b10101 V
0Q
b10011 B
b1011010010001000010111110101010 q
b1011010010001000010111110101010 p
b1111111011110100000101011100110111011 r
b100000110101100111111011000000000000000000 s
b100000110101100111111011000000000000000000 t
0v
1"
#620
0"
#630
b10110 V
b0 ?
b10100 B
b1011110011100100100100010000000 /
b1011110011100100100100010000000 u
b1000001101011001111110110000000000000000001 s
b1000001101011001111110110000000000000000001 t
b10010001101010100100100010000001 q
b10010001101010100100100010000001 p
b1011010010001000010111110101010 r
1"
#640
0"
#650
b10001 V
b10101 B
b1000101101011100000011011010101000010 q
b1000101101011100000011011010101000010 p
b10010001101010100100100010000001 r
b100011010110011111101000000000000000000000 s
b100011010110011111101000000000000000000000 t
1v
1"
#660
0"
#670
b10010 J
b100000 V
b1 ;
b1 g
1S
b1 :
b1 e
1R
b10110 B
b1010101100000111011000000100101 /
b1010101100000111011000000100101 u
b1000110101100111111010000000000000000000001 s
b1000110101100111111010000000000000000000001 t
0v
b101001101010110000111011000000100100 q
b101001101010110000111011000000100100 p
b1000101101011100000011011010101000010 r
1"
#680
0"
#690
b1 +
b1 2
b1 h
b10010 V
0S
0R
b10111 B
b1000111101000111001101011100001011010 q
b1000111101000111001101011100001011010 p
b101001101010110000111011000000100100 r
b101101011001111110100100000000000000000000 s
b101101011001111110100100000000000000000000 t
1v
1"
#700
0"
#710
b10011 V
b111 ]
b11000 B
b11010000100111100010110010011001 /
b11010000100111100010110010011001 u
b1011010110011111101001000000000000000000001 s
b1011010110011111101001000000000000000000001 t
0v
b101100101101101111100010110010011000 q
b101100101101101111100010110010011000 p
b1000111101000111001101011100001011010 r
1"
#720
0"
#730
b10100 V
b1101 >
b11001 B
b1001111000101101000110100111101111100 q
b1001111000101101000110100111101111100 p
b101100101101101111100010110010011000 r
b10101100111111010010100000000000000000000 s
b10101100111111010010100000000000000000000 t
1v
1"
#740
0"
#750
b10101 J
b100000 V
b1101 9
b1101 b
1Q
b11010 B
b10 I
b10011101001101110011100101000111 /
b10011101001101110011100101000111 u
b101011001111110100101000000000000000000000 s
b101011001111110100101000000000000000000000 t
0v
b111001101001100101110011100101000111 q
b111001101001100101110011100101000111 p
b1001111000101101000110100111101111100 r
1"
#760
0"
#770
b11111111111111111111111111111111 )
b11111111111111111111111111111111 4
b11111111111111111111111111111111 d
b10101 V
0Q
b11011 B
b101111101111111001011110111000101101 q
b101111101111111001011110111000101101 p
b111001101001100101110011100101000111 r
b1010110011111101001010000000000000000000001 s
b1010110011111101001010000000000000000000001 t
1"
#780
0"
#790
b10110 V
b11111111111111111111111111111111 ?
b11100 B
b0 )
b0 4
b0 d
b11110010101010010010101101001100 /
b11110010101010010010101101001100 u
b1100111111010010100100000000000000000000 s
b1100111111010010100100000000000000000000 t
1v
b1000100000001110010010101101001100 q
b1000100000001110010010101101001100 p
b101111101111111001011110111000101101 r
1"
#800
0"
#810
b10001 V
b11101 B
b10101010000011011101100001100111110 q
b10101010000011011101100001100111110 p
b1000100000001110010010101101001100 r
b11001111110100101001000000000000000000000 s
b11001111110100101001000000000000000000000 t
0v
1"
#820
0"
#830
b10010 J
b100000 V
b10 ;
b10 g
1S
b10 :
b10 e
1R
b11110 B
b1000010101010101110011111100011 /
b1000010101010101110011111100011 u
b110011111101001010010000000000000000000000 s
b110011111101001010010000000000000000000000 t
b100000001000111010101110011111100011 q
b100000001000111010101110011111100011 p
b10101010000011011101100001100111110 r
1"
#840
0"
#850
b1 *
b1 3
b1 f
b0 +
b0 2
b0 h
b10010 V
0S
0R
b11111 B
b10000011101101000001011110000110111 q
b10000011101101000001011110000110111 p
b100000001000111010101110011111100011 r
b1100111111010010100100000000000000000000001 s
b1100111111010010100100000000000000000000001 t
1"
#860
0"
#870
b10011 V
b110 ]
b10 \
b100000 B
b10100100000010010011001110100 /
b10100100000010010011001110100 u
b1101111110100101001000100000000000000000001 s
b1101111110100101001000100000000000000000001 t
1v
b1101000111101100100010010011001110101 q
b1101000111101100100010010011001110101 p
b10000011101101000001011110000110111 r
1"
#880
0"
#890
b10100 V
b10010 >
b100001 B
b100101101101111010101101111111010001 q
b100101101101111010101101111111010001 p
b1101000111101100100010010011001110101 r
b1111111101001010010001100000000000000000001 s
b1111111101001010010001100000000000000000001 t
1"
#900
0"
#910
b10101 J
b100000 V
b10010 9
b10010 b
1Q
b100010 B
b11 I
b11000001010100001101000001001011 /
b11000001010100001101000001001011 u
b1011111010010100100011100000000000000000001 s
b1011111010010100100011100000000000000000001 t
b11001100101001000001101000001001010 q
b11001100101001000001101000001001010 p
b100101101101111010101101111111010001 r
1"
#920
0"
#930
b11111111111111111111111111111111 )
b11111111111111111111111111111111 4
b11111111111111111111111111111111 d
b10101 V
0Q
b100011 B
b111111111000110100011100100010110001 q
b111111111000110100011100100010110001 p
b11001100101001000001101000001001010 r
b11110100101001000111100000000000000000000 s
b11110100101001000111100000000000000000000 t
1"
#940
0"
#950
b10110 V
b100100 B
b0 )
b0 4
b0 d
b10010100001010110111010100111010 /
b10010100001010110111010100111010 u
b111101001010010001111000000000000000000000 s
b111101001010010001111000000000000000000000 t
0v
b100000000101110010110111010100111010 q
b100000000101110010110111010100111010 p
b111111111000110100011100100010110001 r
1"
#960
0"
#970
b10001 V
b100101 B
b1010000001001011100110101000011101001 q
b1010000001001011100110101000011101001 p
b100000000101110010110111010100111010 r
b1111010010100100011110000000000000000000001 s
b1111010010100100011110000000000000000000001 t
1"
#980
0"
#990
b10010 J
b100000 V
b11 ;
b11 g
1S
b11 :
b11 e
1R
b100110 B
b1011001110011110000100110100110 /
b1011001110011110000100110100110 u
b1010100101001000111100100000000000000000001 s
b1010100101001000111100100000000000000000001 t
1v
b1001000011110010111110000100110100111 q
b1001000011110010111110000100110100111 p
b1010000001001011100110101000011101001 r
1"
#1000
0"
#1010
b0 *
b0 3
b0 f
b11111111111111111111111111111111 +
b11111111111111111111111111111111 2
b11111111111111111111111111111111 h
b10010 V
0S
0R
b100111 B
b1110100111011100100011001011110011100 q
b1110100111011100100011001011110011100 p
b1001000011110010111110000100110100111 r
b1001010010001111001100000000000000000000 s
b1001010010001111001100000000000000000000 t
1"
#1020
0"
#1030
b10011 V
b101 ]
b1 \
b101000 B
b11111100100010111110010011110111 /
b11111100100010111110010011110111 u
b10010100100011110011000000000000000000000 s
b10010100100011110011000000000000000000000 t
0v
b1010011100010111010111110010011110111 q
b1010011100010111010111110010011110111 p
b1110100111011100100011001011110011100 r
1"
#1040
0"
#1050
b10100 V
b1011 >
b101001 B
b1001110110100101000100011101110010100 q
b1001110110100101000100011101110010100 p
b1010011100010111010111110010011110111 r
b100101001000111100110000000000000000000000 s
b100101001000111100110000000000000000000000 t
1"
#1060
0"
#1070
b10101 J
b100000 V
b1011 9
b1011 b
1Q
b101010 B
b100 I
b11001010100101010110101011100010 /
b11001010100101010110101011100010 u
b1001010010001111001100000000000000000000001 s
b1001010010001111001100000000000000000000001 t
b111010110011000101010110101011100011 q
b111010110011000101010110101011100011 p
b1001110110100101000100011101110010100 r
1"
#1080
0"
#1090
b11111111111111111111111111111111 )
b11111111111111111111111111111111 4
b11111111111111111111111111111111 d
b10101 V
0Q
b101011 B
b101000111111101000000110000010110111 q
b101000111111101000000110000010110111 p
b111010110011000101010110101011100011 r
b110100100011110011000100000000000000000000 s
b110100100011110011000100000000000000000000 t
1v
1"
#1100
0"
#1110
b10110 V
b101100 B
b0 )
b0 4
b0 d
b10001110101100001111000100110100 /
b10001110101100001111000100110100 u
b1101001000111100110001000000000000000000001 s
b1101001000111100110001000000000000000000001 t
0v
b101101000100100001111000100110101 q
b101101000100100001111000100110101 p
b101000111111101000000110000010110111 r
1"
#1120
0"
#1130
b100 V
b0 I
b101 G
b101 m
1[
1Z
b101 N
b1 M
b1000 E
b1000 c
1Y
b101101 B
b1 H
b1001001101101011010011001101011110000 q
b1001001101101011010011001101011110000 p
b101101000100100001111000100110101 r
b1110010001111001100010100000000000000000001 s
b1110010001111001100010100000000000000000001 t
1v
1"
#1140
0"
#1150
b101 J
b100000 V
b1 8
b1 `
1P
b1 7
b1 ^
1O
0Y
0[
0Z
b101110 B
b1111100110101111111100010011000 /
b1111100110101111111100010011000 u
b1000100011110011000101100000000000000000001 s
b1000100011110011000101100000000000000000001 t
b110111100100011001111111100010011001 q
b110111100100011001111111100010011001 p
b1001001101101011010011001101011110000 r
1"
#1160
0"
#1170
b1 '
b1 6
b1 _
b101 V
0P
0O
b101111 B
b110100111010111111000000110101111110 q
b110100111010111111000000110101111110 p
b110111100100011001111111100010011001 r
b101000111100110001011100000000000000000000 s
b101000111100110001011100000000000000000000 t
1"
#1180
0"
#1190
b110 J
b100000 V
b1 =
b1 l
1U
b1 <
b1 i
1T
b110000 B
b10000010011001100001110001000010 /
b10000010011001100001110001000010 u
b1010001111001100010111000000000000000000001 s
b1010001111001100010111000000000000000000001 t
0v
b1110011100000100001100001110001000011 q
b1110011100000100001100001110001000011 p
b110100111010111111000000110101111110 r
1"
#1200
0"
#1210
b11111111111111111111111111111111 ,
b11111111111111111111111111111111 1
b11111111111111111111111111111111 k
b11111111111111111111111111111111 -
b11111111111111111111111111111111 0
b11111111111111111111111111111111 n
b110 V
0U
0T
b110001 B
b11110110001010011110011011010100110 q
b11110110001010011110011011010100110 p
b1110011100000100001100001110001000011 r
b11110011000101110100000000000000000000 s
b11110011000101110100000000000000000000 t
1v
1"
#1220
0"
#1230
b1000 J
b111 V
b11111111111111111111111111111111 L
b11111111111111111111111111111111 K
b110010 B
b0 -
b0 0
b0 n
b0 ,
b0 1
b0 k
b110001100110011111011000011111 /
b110001100110011111011000011111 u
b111100110001011101000000000000000000000 s
b111100110001011101000000000000000000000 t
0v
b110010111010001110011111011000011111 q
b110010111010001110011111011000011111 p
b11110110001010011110011011010100110 r
1"
#1240
0"
#1250
b100000 V
b1000 =
b1000 l
1U
b1000 <
b1000 i
1T
b110011 B
b111100100001011011110001011100110001 q
b111100100001011011110001011100110001 p
b110010111010001110011111011000011111 r
b1111001100010111010000000000000000000000 s
b1111001100010111010000000000000000000000 t
1"
#1260
0"
#1270
b1000 V
0U
0T
b110100 B
b101 -
b101 0
b101 n
b1 ,
b1 1
b1 k
b11111100111010011010010111111010 /
b11111100111010011010010111111010 u
b11110011000101110100000000000000000000000 s
b11110011000101110100000000000000000000000 t
b100111010010011010011010010111111010 q
b100111010010011010011010010111111010 p
b111100100001011011110001011100110001 r
1"
#1280
0"
#1290
b0 ,
b0 1
b0 k
b0 -
b0 0
b0 n
b1001 V
b110101 B
b1011101001101111001111001100100001001 q
b1011101001101111001111001100100001001 p
b100111010010011010011010010111111010 r
b111100110001011101000000000000000000000000 s
b111100110001011101000000000000000000000000 t
1"
#1300
0"
#1310
b1010 J
b100000 V
b0 =
b0 l
1U
b0 <
b0 i
1T
1S
b111110 :
b111110 e
1R
b110110 B
b10001111001111001111111010010110 /
b10001111001111001111111010010110 u
b1111001100010111010000000000000000000000001 s
b1111001100010111010000000000000000000000001 t
b1010100110101001111001111111010010111 q
b1010100110101001111001111111010010111 p
b1011101001101111001111001100100001001 r
1"
#1320
0"
#1330
b1 ,
b1 1
b1 k
b110 -
b110 0
b110 n
b1010 V
0U
0T
0S
0R
b110111 B
b1000011110000111001111000001001100100 q
b1000011110000111001111000001001100100 p
b1010100110101001111001111111010010111 r
b1010011000101110100000100000000000000000001 s
b1010011000101110100000100000000000000000001 t
1v
1"
#1340
0"
#1350
b1011 V
b101 @
b1 >
b111000 B
b0 -
b0 0
b0 n
b0 ,
b0 1
b0 k
b1110001100011001100010111111011 /
b1110001100011001100010111111011 u
b110001011101000001100000000000000000000 s
b110001011101000001100000000000000000000 t
b100110011001101111001100010111111011 q
b100110011001101111001100010111111011 p
b1000011110000111001111000001001100100 r
1"
#1360
0"
#1370
b1100 V
b1 =
b1 l
1[
b1 <
b1 i
1Z
b111001 B
b11111110111101001111110100100001011 q
b11111110111101001111110100100001011 p
b100110011001101111001100010111111011 r
b1100010111010000011000000000000000000000 s
b1100010111010000011000000000000000000000 t
0v
1"
#1380
0"
#1390
b1101 J
b100000 V
1U
1T
0[
0Z
b111010 B
b1 I
b10110100010111000010011010010011 /
b10110100010111000010011010010011 u
b11000101110100000110000000000000000000000 s
b11000101110100000110000000000000000000000 t
b1110000010100100111000010011010010011 q
b1110000010100100111000010011010010011 p
b11111110111101001111110100100001011 r
1"
#1400
0"
#1410
b1 ,
b1 1
b1 k
b101 -
b101 0
b101 n
b1101 V
0U
0T
b111011 B
b11000100011011101100101111001101110 q
b11000100011011101100101111001101110 p
b1110000010100100111000010011010010011 r
b110001011101000001100000000000000000000000 s
b110001011101000001100000000000000000000000 t
1"
#1420
0"
#1430
b1110 V
b1011 >
b111100 B
b0 -
b0 0
b0 n
b0 ,
b0 1
b0 k
b11010100010101111001001111101010 /
b11010100010101111001001111101010 u
b1100010111010000011000000000000000000000001 s
b1100010111010000011000000000000000000000001 t
b111101010111010101111001001111101011 q
b111101010111010101111001001111101011 p
b11000100011011101100101111001101110 r
1"
#1440
0"
#1450
b1111 J
b100000 V
1Q
b111101 B
b100100000101000001001110111000100011 q
b100100000101000001001110111000100011 p
b111101010111010101111001001111101011 r
b1100101110100000110000100000000000000000001 s
b1100101110100000110000100000000000000000001 t
1v
1"
#1460
0"
#1470
b1111 V
0Q
b111110 B
b1000 )
b1000 4
b1000 d
b10000100101110111010101101010110 /
b10000100101110111010101101010110 u
b1101011101000001100001100000000000000000001 s
b1101011101000001100001100000000000000000001 t
b11010001000100010111010101101010111 q
b11010001000100010111010101101010111 p
b100100000101000001001110111000100011 r
1"
#1480
0"
#1490
b0 )
b0 4
b0 d
b10000 V
b1000 ?
b111111 B
b1111001011101010100101000001100000101 q
b1111001011101010100101000001100000101 p
b11010001000100010111010101101010111 r
b1110111010000011000011100000000000000000001 s
b1110111010000011000011100000000000000000001 t
1"
#1500
0"
#1510
b10001 V
b1000000 B
b10101100111111000100011110001000 /
b10101100111111000100011110001000 u
b1001110100000110000111100000000000000000001 s
b1001110100000110000111100000000000000000001 t
b1110011100000011000100011110001001 q
b1110011100000011000100011110001001 p
b1111001011101010100101000001100000101 r
1"
#1520
0"
#1530
b0 I
b100 V
b1000001 B
b10 H
b1011011111110000111101010110011010110 q
b1011011111110000111101010110011010110 p
b1110011100000011000100011110001001 r
b111101000001100001111100000000000000000000 s
b111101000001100001111100000000000000000000 t
1"
#1540
0"
#1550
b101 J
b100000 V
b10 8
b10 `
1P
b10 7
b10 ^
1O
b1000010 B
b1001000110100100000111111000111 /
b1001000110100100000111111000111 u
b1111010000011000011111000000000000000000001 s
b1111010000011000011111000000000000000000001 t
0v
b11010001011001100100000111111000110 q
b11010001011001100100000111111000110 p
b1011011111110000111101010110011010110 r
1"
#1560
0"
#1570
b10 '
b10 6
b10 _
b1001 (
b1001 5
b1001 a
b101 V
0P
0O
b1000011 B
b111001011011111111010001100001101111 q
b111001011011111111010001100001101111 p
b11010001011001100100000111111000110 r
b1010100000110000111110100000000000000000001 s
b1010100000110000111110100000000000000000001 t
1v
1"
#1580
0"
#1590
b110 J
b100000 V
b10 =
b10 l
1U
b10 <
b10 i
1T
b1000100 B
b10011101101101001011110011101001 /
b10011101101101001011110011101001 u
b1000001100001111101100000000000000000000 s
b1000001100001111101100000000000000000000 t
b101110010010000001001011110011101001 q
b101110010010000001001011110011101001 p
b111001011011111111010001100001101111 r
1"
#1600
0"
#1610
b11111111111111111111111111111111 ,
b11111111111111111111111111111111 1
b11111111111111111111111111111111 k
b11111111111111111111111111111111 -
b11111111111111111111111111111111 0
b11111111111111111111111111111111 n
b110 V
0U
0T
b1000101 B
b1011101101000010110010011110100110 q
b1011101101000010110010011110100110 p
b101110010010000001001011110011101001 r
b10000011000011111011000000000000000000000 s
b10000011000011111011000000000000000000000 t
0v
1"
#1620
0"
#1630
b1000 J
b111 V
b1000110 B
b0 -
b0 0
b0 n
b0 ,
b0 1
b0 k
b10011010010100111101110010011111 /
b10011010010100111101110010011111 u
b100000110000111110110000000000000000000000 s
b100000110000111110110000000000000000000000 t
b10010100100100100111101110010011111 q
b10010100100100100111101110010011111 p
b1011101101000010110010011110100110 r
1"
#1640
0"
#1650
b100000 V
b1001 =
b1001 l
1U
b1001 <
b1001 i
1T
b1000111 B
b1101100011011011011100101011101110001 q
b1101100011011011011100101011101110001 p
b10010100100100100111101110010011111 r
b1000001100001111101100000000000000000000001 s
b1000001100001111101100000000000000000000001 t
1"
#1660
0"
#1670
b1000 V
0U
0T
b1001000 B
b11111111111111111111111111111111 -
b11111111111111111111111111111111 0
b11111111111111111111111111111111 n
b11111111111111111111111111111111 ,
b11111111111111111111111111111111 1
b11111111111111111111111111111111 k
b1001000011110111000010101011011 /
b1001000011110111000010101011011 u
b100011000011111011000100000000000000000000 s
b100011000011111011000100000000000000000000 t
1v
b101110110011011010111000010101011011 q
b101110110011011010111000010101011011 p
b1101100011011011011100101011101110001 r
1"
#1680
0"
#1690
b0 ,
b0 1
b0 k
b0 -
b0 0
b0 n
b1001 V
b11111111111111111111111111111111 N
b11111111111111111111111111111111 M
b1001001 B
b1010111111011000101100100000011011 q
b1010111111011000101100100000011011 p
b101110110011011010111000010101011011 r
b1000110000111110110001000000000000000000001 s
b1000110000111110110001000000000000000000001 t
0v
1"
#1700
0"
#1710
b1010 J
b100000 V
b1 =
b1 l
1U
b1 <
b1 i
1T
1S
b1111100 :
b1111100 e
1R
b1001010 B
b11000101001001001111010000111011 /
b11000101001001001111010000111011 u
b101100001111101100010100000000000000000000 s
b101100001111101100010100000000000000000000 t
1v
b1010000101001011101001111010000111011 q
b1010000101001011101001111010000111011 p
b1010111111011000101100100000011011 r
1"
#1720
0"
#1730
b1 ,
b1 1
b1 k
b101 -
b101 0
b101 n
b1010 V
0U
0T
0S
0R
b1001011 B
b1001001001110010100111001001001101010 q
b1001001001110010100111001001001101010 p
b1010000101001011101001111010000111011 r
b1011000011111011000101000000000000000000001 s
b1011000011111011000101000000000000000000001 t
0v
1"
#1740
0"
