placement/resultados/placement.vcd
$date
	Fri Mar 20 19:27:28 2020
$end
$version
	Icarus Verilog
$end
$timescale
	1s
$end
$scope module test $end
$var wire 1 ! out $end
$var reg 1 " clk $end
$var reg 1 # reset $end
$scope module p1 $end
$var wire 32 $ a [31:0] $end
$var wire 32 % b [31:0] $end
$var wire 1 " clk $end
$var wire 32 & outGrid [31:0] $end
$var wire 32 ' outOX [31:0] $end
$var wire 32 ( outOY [31:0] $end
$var wire 32 ) outPX [31:0] $end
$var wire 32 * outPY [31:0] $end
$var wire 1 # reset $end
$var wire 32 + doutPY [31:0] $end
$var wire 32 , doutPX [31:0] $end
$var wire 32 - doutOY [31:0] $end
$var wire 32 . doutOX [31:0] $end
$var wire 32 / doutGrid [31:0] $end
$var wire 32 0 doutEB [31:0] $end
$var wire 32 1 doutEA [31:0] $end
$var reg 32 2 addrEA [31:0] $end
$var reg 32 3 addrEB [31:0] $end
$var reg 32 4 addrGrid [31:0] $end
$var reg 32 5 addrOX [31:0] $end
$var reg 32 6 addrOY [31:0] $end
$var reg 32 7 addrPX [31:0] $end
$var reg 32 8 addrPY [31:0] $end
$var reg 32 9 aux1 [31:0] $end
$var reg 32 : aux2 [31:0] $end
$var reg 32 ; aux3 [31:0] $end
$var reg 32 < aux4 [31:0] $end
$var reg 32 = ciclos [31:0] $end
$var reg 32 > diff_pos_x [31:0] $end
$var reg 32 ? diff_pos_y [31:0] $end
$var reg 32 @ dinGrid [31:0] $end
$var reg 32 A dinPX [31:0] $end
$var reg 32 B dinPY [31:0] $end
$var reg 32 C i [31:0] $end
$var reg 32 D j [31:0] $end
$var reg 32 E next_state [31:0] $end
$var reg 1 ! out $end
$var reg 32 F pos_a_X [31:0] $end
$var reg 32 G pos_a_Y [31:0] $end
$var reg 32 H pos_b_X [31:0] $end
$var reg 32 I pos_b_Y [31:0] $end
$var reg 1 J reEA $end
$var reg 1 K reEB $end
$var reg 1 L reGrid $end
$var reg 1 M reOX $end
$var reg 1 N reOY $end
$var reg 1 O rePX $end
$var reg 1 P rePY $end
$var reg 32 Q state [31:0] $end
$var reg 32 R sum [31:0] $end
$var reg 1 S weGrid $end
$var reg 1 T wePX $end
$var reg 1 U wePY $end
$var reg 32 V xi [31:0] $end
$var reg 32 W xj [31:0] $end
$scope module ea $end
$var wire 32 X addr [31:0] $end
$var wire 1 " clk $end
$var wire 1 J read $end
$var wire 1 # reset $end
$var reg 32 Y data [31:0] $end
$upscope $end
$scope module eb $end
$var wire 32 Z addr [31:0] $end
$var wire 1 " clk $end
$var wire 1 K read $end
$var wire 1 # reset $end
$var reg 32 [ data [31:0] $end
$upscope $end
$scope module grid $end
$var wire 32 \ addr [31:0] $end
$var wire 1 " clk $end
$var wire 32 ] dataWrite [31:0] $end
$var wire 1 L read $end
$var wire 1 # reset $end
$var wire 1 S write $end
$var reg 32 ^ dataRead [31:0] $end
$var reg 32 _ i [31:0] $end
$var reg 32 ` j [31:0] $end
$upscope $end
$scope module offset_x $end
$var wire 32 a addr [31:0] $end
$var wire 1 " clk $end
$var wire 1 M read $end
$var wire 1 # reset $end
$var reg 32 b data [31:0] $end
$upscope $end
$scope module offset_y $end
$var wire 32 c addr [31:0] $end
$var wire 1 " clk $end
$var wire 1 N read $end
$var wire 1 # reset $end
$var reg 32 d data [31:0] $end
$upscope $end
$scope module pos_X $end
$var wire 32 e addr [31:0] $end
$var wire 1 " clk $end
$var wire 32 f dataWrite [31:0] $end
$var wire 1 O read $end
$var wire 1 # reset $end
$var wire 1 T write $end
$var reg 32 g dataRead [31:0] $end
$var reg 32 h i [31:0] $end
$var reg 32 i j [31:0] $end
$upscope $end
$scope module pos_Y $end
$var wire 32 j addr [31:0] $end
$var wire 1 " clk $end
$var wire 32 k dataWrite [31:0] $end
$var wire 1 P read $end
$var wire 1 # reset $end
$var wire 1 U write $end
$var reg 32 l dataRead [31:0] $end
$var reg 32 m i [31:0] $end
$var reg 32 n j [31:0] $end
$upscope $end
$upscope $end
$upscope $end
$enddefinitions $end
#0
$dumpvars
bx n
bx m
bx l
bx k
bx j
bx i
bx h
bx g
bx f
bx e
bx d
bx c
bx b
bx a
bx `
bx _
bx ^
bx ]
bx \
bx [
bx Z
bx Y
bx X
bx W
bx V
xU
xT
xS
bx R
bx Q
xP
xO
xN
xM
xL
xK
xJ
bx I
bx H
bx G
bx F
bx E
bx D
bx C
bx B
bx A
bx @
bx ?
bx >
bx =
bx <
bx ;
bx :
bx 9
bx 8
bx 7
bx 6
bx 5
bx 4
bx 3
bx 2
bx 1
bx 0
bx /
bx .
bx -
bx ,
bx +
bx *
bx )
bx (
bx '
bx &
bx %
bx $
0#
0"
x!
$end
#1
b0 R
b0 E
b0 Q
b0 @
b0 ]
b0 4
b0 \
0S
0L
b0 B
b0 k
b0 8
b0 j
0U
0P
b0 A
b0 f
b0 7
b0 e
0T
0O
b0 6
b0 c
0N
b0 5
b0 a
0M
b0 3
b0 Z
0K
b0 2
b0 X
0J
b0 $
b0 1
b0 Y
b0 %
b0 0
b0 [
b0 '
b0 .
b0 b
b0 (
b0 -
b0 d
b0 )
b0 ,
b0 g
b0 *
b0 +
b0 l
b0 &
b0 /
b0 ^
b0 =
1"
1#
#2
0"
#3
b1 E
b100000 Q
1N
1M
1J
b1 =
b110 `
b110 _
b1011 n
b1011 m
b1011 i
b1011 h
1"
0#
#4
0"
#5
b1 Q
0N
0M
0J
b1011 i
b1011 h
b1011 n
b1011 m
b110 `
b110 _
b10 =
1"
#6
0"
#7
b10 Q
1T
1U
b11 =
b110 `
b110 _
b1011 n
b1011 m
b1011 i
b1011 h
1"
#8
0"
#9
b11 E
b100000 Q
b0 D
b0 C
1P
1O
0U
0T
b1011 i
b1011 h
b1011 n
b1011 m
b110 `
b110 _
b100 =
1"
#10
0"
#11
b11 Q
0P
0O
b101 =
b110 `
b110 _
b1011 n
b1011 m
b1011 i
b1011 h
1"
#12
0"
#13
b100 Q
1S
b1011 i
b1011 h
b1011 n
b1011 m
b110 `
b110 _
b110 =
1"
#14
0"
#15
b101 E
b100000 Q
1K
1J
0S
b111 =
b110 `
b110 _
b1011 n
b1011 m
b1011 i
b1011 h
1"
#16
0"
#17
b1011 %
b1011 0
b1011 [
b101 Q
0K
0J
b1011 i
b1011 h
b1011 n
b1011 m
b110 `
b110 _
b1000 =
1"
#18
0"
#19
b110 E
b100000 Q
1P
1O
b1001 =
b110 `
b110 _
b1011 n
b1011 m
b1011 i
b1011 h
1"
#20
0"
#21
b110 Q
0P
0O
b1011 i
b1011 h
b1011 n
b1011 m
b110 `
b110 _
b1010 =
1"
#22
0"
#23
b1000 E
b111 Q
b0 G
b0 F
b1011 =
b110 `
b110 _
b1011 n
b1011 m
b1011 i
b1011 h
1"
#24
0"
#25
b100000 Q
b1011 8
b1011 j
1P
b1011 7
b1011 e
1O
b1011 i
b1011 h
b1011 n
b1011 m
b110 `
b110 _
b1100 =
1"
#26
0"
#27
b1000 Q
0P
0O
b11111111111111111111111111111111 *
b11111111111111111111111111111111 +
b11111111111111111111111111111111 l
b11111111111111111111111111111111 )
b11111111111111111111111111111111 ,
b11111111111111111111111111111111 g
b1101 =
b110 `
b110 _
b1011 n
b1011 m
b1011 i
b1011 h
1"
#28
0"
#29
b0 )
b0 ,
b0 g
b0 *
b0 +
b0 l
b10001 Q
b11111111111111111111111111111111 I
b11111111111111111111111111111111 H
b1011 i
b1011 h
b1011 n
b1011 m
b110 `
b110 _
b1110 =
1"
#30
0"
#31
b10010 E
b100000 Q
1N
1M
b1111 =
b110 `
b110 _
b1011 n
b1011 m
b1011 i
b1011 h
1"
#32
0"
#33
b10010 Q
0N
0M
b1011 i
b1011 h
b1011 n
b1011 m
b110 `
b110 _
b10000 =
1"
#34
0"
#35
b10011 Q
b0 W
b0 V
b10001 =
b110 `
b110 _
b1011 n
b1011 m
b1011 i
b1011 h
1"
#36
0"
#37
b10100 Q
b0 9
b1011 i
b1011 h
b1011 n
b1011 m
b110 `
b110 _
b10010 =
1"
#38
0"
#39
b10101 E
b100000 Q
1L
b1 D
b10011 =
b110 `
b110 _
b1011 n
b1011 m
b1011 i
b1011 h
1"
#40
0"
#41
b10101 Q
0L
b1011 i
b1011 h
b1011 n
b1011 m
b110 `
b110 _
b10100 =
1"
#42
0"
#43
b10110 Q
b0 :
b10101 =
b110 `
b110 _
b1011 n
b1011 m
b1011 i
b1011 h
1"
#44
0"
#45
b10001 Q
b1011 i
b1011 h
b1011 n
b1011 m
b110 `
b110 _
b10110 =
1"
#46
0"
#47
b10010 E
b100000 Q
b1 6
b1 c
1N
b1 5
b1 a
1M
b10111 =
b110 `
b110 _
b1011 n
b1011 m
b1011 i
b1011 h
1"
#48
0"
#49
b1 (
b1 -
b1 d
b10010 Q
0N
0M
b1011 i
b1011 h
b1011 n
b1011 m
b110 `
b110 _
b11000 =
1"
#50
0"
#51
b10011 Q
b1 W
b11001 =
b110 `
b110 _
b1011 n
b1011 m
b1011 i
b1011 h
1"
#52
0"
#53
b10100 Q
b1 9
b1011 i
b1011 h
b1011 n
b1011 m
b110 `
b110 _
b11010 =
1"
#54
0"
#55
b10101 E
b100000 Q
b1 4
b1 \
1L
b10 D
b11011 =
b110 `
b110 _
b1011 n
b1011 m
b1011 i
b1011 h
1"
#56
0"
#57
b11111111111111111111111111111111 &
b11111111111111111111111111111111 /
b11111111111111111111111111111111 ^
b10101 Q
0L
b1011 i
b1011 h
b1011 n
b1011 m
b110 `
b110 _
b11100 =
1"
#58
0"
#59
b10110 Q
b11111111111111111111111111111111 :
b0 &
b0 /
b0 ^
b11101 =
b110 `
b110 _
b1011 n
b1011 m
b1011 i
b1011 h
1"
#60
0"
#61
b100 Q
b0 D
b1 B
b1 k
1U
1T
b1 I
b0 H
b1011 @
b1011 ]
1S
b1011 i
b1011 h
b1011 n
b1011 m
b110 `
b110 _
b1 C
b11110 =
1"
#62
0"
#63
b101 E
b100000 Q
b1 3
b1 Z
1K
b1 2
b1 X
1J
0S
0U
0T
b11111 =
b110 `
b110 _
b1011 n
b1011 m
b1011 i
b1011 h
1"
#64
0"
#65
b1 $
b1 1
b1 Y
b1100 %
b1100 0
b1100 [
b101 Q
0K
0J
b1011 i
b1011 h
b1011 n
b1011 m
b110 `
b110 _
b100000 =
1"
#66
0"
#67
b110 E
b100000 Q
b1 8
b1 j
1P
b1 7
b1 e
1O
b100001 =
b110 `
b110 _
b1011 n
b1011 m
b1011 i
b1011 h
1"
#68
0"
#69
b11111111111111111111111111111111 )
b11111111111111111111111111111111 ,
b11111111111111111111111111111111 g
b11111111111111111111111111111111 *
b11111111111111111111111111111111 +
b11111111111111111111111111111111 l
b110 Q
0P
0O
b1011 i
b1011 h
b1011 n
b1011 m
b110 `
b110 _
b100010 =
1"
#70
0"
#71
b1000 E
b111 Q
b11111111111111111111111111111111 G
b11111111111111111111111111111111 F
b0 *
b0 +
b0 l
b0 )
b0 ,
b0 g
b100011 =
b110 `
b110 _
b1011 n
b1011 m
b1011 i
b1011 h
1"
#72
0"
#73
b100000 Q
b1100 8
b1100 j
1P
b1100 7
b1100 e
1O
b1011 i
b1011 h
b1011 n
b1011 m
b110 `
b110 _
b100100 =
1"
#74
0"
#75
b1000 Q
0P
0O
b11111111111111111111111111111111 *
b11111111111111111111111111111111 +
b11111111111111111111111111111111 l
b11111111111111111111111111111111 )
b11111111111111111111111111111111 ,
b11111111111111111111111111111111 g
b100101 =
b110 `
b110 _
b1011 n
b1011 m
b1011 i
b1011 h
1"
#76
0"
#77
b0 )
b0 ,
b0 g
b0 *
b0 +
b0 l
b1001 Q
b11111111111111111111111111111111 I
b11111111111111111111111111111111 H
b1011 i
b1011 h
b1011 n
b1011 m
b110 `
b110 _
b100110 =
1"
#78
0"
#79
b1010 E
b100000 Q
b0 6
b0 c
1N
b0 8
b0 j
1P
b0 5
b0 a
1M
b0 7
b0 e
1O
b100111 =
b110 `
b110 _
b1011 n
b1011 m
b1011 i
b1011 h
1"
#80
0"
#81
b0 (
b0 -
b0 d
b1010 Q
0P
0O
0N
0M
b1011 i
b1011 h
b1011 n
b1011 m
b110 `
b110 _
b101000 =
1"
#82
0"
#83
b1011 Q
b0 ;
b0 9
b101001 =
b110 `
b110 _
b1011 n
b1011 m
b1011 i
b1011 h
1"
#84
0"
#85
b1100 Q
b0 B
b0 k
b1 8
b1 j
1U
b1 7
b1 e
1T
b1011 i
b1011 h
b1011 n
b1011 m
b110 `
b110 _
b101010 =
1"
#86
0"
#87
b1101 E
b100000 Q
1P
1O
0U
0T
b1 D
b101011 =
b110 `
b110 _
b1011 n
b1011 m
b1011 i
b1011 h
1"
#88
0"
#89
b1101 Q
0P
0O
b1011 i
b1011 h
b1011 n
b1011 m
b110 `
b110 _
b101100 =
1"
#90
0"
#91
b1110 Q
b0 W
b101101 =
b110 `
b110 _
b1011 n
b1011 m
b1011 i
b1011 h
1"
#92
0"
#93
b1111 E
b100000 Q
b0 4
b0 \
1L
b1011 i
b1011 h
b1011 n
b1011 m
b110 `
b110 _
b101110 =
1"
#94
0"
#95
b1111 Q
0L
b101111 =
b110 `
b110 _
b1011 n
b1011 m
b1011 i
b1011 h
1"
#96
0"
#97
b10000 Q
b0 :
b1011 i
b1011 h
b1011 n
b1011 m
b110 `
b110 _
b110000 =
1"
#98
0"
#99
b1001 Q
b110001 =
b110 `
b110 _
b1011 n
b1011 m
b1011 i
b1011 h
1"
#100
0"
#101
b1010 E
b100000 Q
b1 6
b1 c
1N
b0 8
b0 j
1P
b1 5
b1 a
1M
b0 7
b0 e
1O
b1011 i
b1011 h
b1011 n
b1011 m
b110 `
b110 _
b110010 =
1"
#102
0"
#103
b1010 Q
0P
0O
0N
0M
b1 (
b1 -
b1 d
b110011 =
b110 `
b110 _
b1011 n
b1011 m
b1011 i
b1011 h
1"
#104
0"
#105
b1011 Q
b1 ;
b1011 i
b1011 h
b1011 n
b1011 m
b110 `
b110 _
b110100 =
1"
#106
0"
#107
b1100 Q
b1 B
b1 k
b1 8
b1 j
1U
b1 7
b1 e
1T
b110101 =
b110 `
b110 _
b1011 n
b1011 m
b1011 i
b1011 h
1"
#108
0"
#109
b1101 E
b100000 Q
1P
1O
0U
0T
b1011 i
b1011 h
b1011 n
b1011 m
b110 `
b110 _
b10 D
b110110 =
1"
#110
0"
#111
b1101 Q
0P
0O
b1 *
b1 +
b1 l
b110111 =
b110 `
b110 _
b1011 n
b1011 m
b1011 i
b1011 h
1"
#112
0"
#113
b0 *
b0 +
b0 l
b1110 Q
b1 9
b1 W
b1011 i
b1011 h
b1011 n
b1011 m
b110 `
b110 _
b111000 =
1"
#114
0"
#115
b1111 E
b100000 Q
b1 4
b1 \
1L
b111001 =
b110 `
b110 _
b1011 n
b1011 m
b1011 i
b1011 h
1"
#116
0"
#117
b1011 &
b1011 /
b1011 ^
b1111 Q
0L
b1011 i
b1011 h
b1011 n
b1011 m
b110 `
b110 _
b111010 =
1"
#118
0"
#119
b10000 Q
b1011 :
b0 &
b0 /
b0 ^
b111011 =
b110 `
b110 _
b1011 n
b1011 m
b1011 i
b1011 h
1"
#120
0"
#121
b1001 Q
b1011 i
b1011 h
b1011 n
b1011 m
b110 `
b110 _
b111100 =
1"
#122
0"
#123
b1010 E
b100000 Q
b10 6
b10 c
1N
b0 8
b0 j
1P
b10 5
b10 a
1M
b0 7
b0 e
1O
b111101 =
b110 `
b110 _
b1011 n
b1011 m
b1011 i
b1011 h
1"
#124
0"
#125
b1 '
b1 .
b1 b
b0 (
b0 -
b0 d
b1010 Q
0P
0O
0N
0M
b1011 i
b1011 h
b1011 n
b1011 m
b110 `
b110 _
b111110 =
1"
#126
0"
#127
b1011 Q
b0 ;
b111111 =
b110 `
b110 _
b1011 n
b1011 m
b1011 i
b1011 h
1"
#128
0"
#129
b1100 Q
b0 B
b0 k
b1 8
b1 j
1U
b1 A
b1 f
b1 7
b1 e
1T
b1011 i
b1011 h
b1011 n
b1011 m
b110 `
b110 _
b1000000 =
1"
#130
0"
#131
b1101 E
b100000 Q
1P
1O
0U
0T
b11 D
b1000001 =
b110 `
b110 _
b1011 n
b1011 m
b1011 i
b1011 h
1"
#132
0"
#133
b1 )
b1 ,
b1 g
b1101 Q
0P
0O
b1011 i
b1011 h
b1011 n
b1011 m
b110 `
b110 _
b1000010 =
1"
#134
0"
#135
b1110 Q
b110 9
b0 W
b1 V
b0 )
b0 ,
b0 g
b1000011 =
b110 `
b110 _
b1011 n
b1011 m
b1011 i
b1011 h
1"
#136
0"
#137
b1111 E
b100000 Q
b110 4
b110 \
1L
b1011 i
b1011 h
b1011 n
b1011 m
b110 `
b110 _
b1000100 =
1"
#138
0"
#139
b1111 Q
0L
b11111111111111111111111111111111 &
b11111111111111111111111111111111 /
b11111111111111111111111111111111 ^
b1000101 =
b110 `
b110 _
b1011 n
b1011 m
b1011 i
b1011 h
1"
#140
0"
#141
b0 &
b0 /
b0 ^
b10000 Q
b11111111111111111111111111111111 :
b1011 i
b1011 h
b1011 n
b1011 m
b110 `
b110 _
b1000110 =
1"
#142
0"
#143
b0 D
b10001 Q
b0 G
b1 F
b1 @
b1 ]
1S
b1000111 =
b110 `
b110 _
b1011 n
b1011 m
b1011 i
b1011 h
1"
#144
0"
#145
b10010 E
b100000 Q
b0 6
b0 c
1N
b0 5
b0 a
1M
0S
b1011 i
b1011 h
b1011 n
b1011 m
b110 `
b110 _
b1001000 =
1"
#146
0"
#147
b10010 Q
0N
0M
b0 '
b0 .
b0 b
b1001001 =
b110 `
b110 _
b1011 n
b1011 m
b1011 i
b1011 h
1"
#148
0"
#149
b10011 Q
b1011 i
b1011 h
b1011 n
b1011 m
b110 `
b110 _
b1001010 =
1"
#150
0"
#151
b10100 Q
b1001011 =
b110 `
b110 _
b1011 n
b1011 m
b1011 i
b1011 h
1"
#152
0"
#153
b10101 E
b100000 Q
1L
b1011 i
b1011 h
b1011 n
b1011 m
b110 `
b110 _
b1 D
b1001100 =
1"
#154
0"
#155
b10101 Q
0L
b1 &
b1 /
b1 ^
b1001101 =
b110 `
b110 _
b1011 n
b1011 m
b1011 i
b1011 h
1"
#156
0"
#157
b0 &
b0 /
b0 ^
b10110 Q
b1 :
b1011 i
b1011 h
b1011 n
b1011 m
b110 `
b110 _
b1001110 =
1"
#158
0"
#159
b10001 Q
b1001111 =
b110 `
b110 _
b1011 n
b1011 m
b1011 i
b1011 h
1"
#160
0"
#161
b10010 E
b100000 Q
b1 6
b1 c
1N
b1 5
b1 a
1M
b1011 i
b1011 h
b1011 n
b1011 m
b110 `
b110 _
b1010000 =
1"
#162
0"
#163
b10010 Q
0N
0M
b1 (
b1 -
b1 d
b1010001 =
b110 `
b110 _
b1011 n
b1011 m
b1011 i
b1011 h
1"
#164
0"
#165
b10011 Q
b1 W
b1011 i
b1011 h
b1011 n
b1011 m
b110 `
b110 _
b1010010 =
1"
#166
0"
#167
b10100 Q
b111 9
b1010011 =
b110 `
b110 _
b1011 n
b1011 m
b1011 i
b1011 h
1"
#168
0"
#169
b10101 E
b100000 Q
b111 4
b111 \
1L
b1011 i
b1011 h
b1011 n
b1011 m
b110 `
b110 _
b10 D
b1010100 =
1"
#170
0"
#171
b10101 Q
0L
b11111111111111111111111111111111 &
b11111111111111111111111111111111 /
b11111111111111111111111111111111 ^
b1010101 =
b110 `
b110 _
b1011 n
b1011 m
b1011 i
b1011 h
1"
#172
0"
#173
b0 &
b0 /
b0 ^
b10110 Q
b11111111111111111111111111111111 :
b1011 i
b1011 h
b1011 n
b1011 m
b110 `
b110 _
b1010110 =
1"
#174
0"
#175
b100 Q
b0 D
b1 B
b1 k
b1100 8
b1100 j
1U
b1100 7
b1100 e
1T
b1 I
b1 H
b1100 @
b1100 ]
1S
b10 C
b1010111 =
b110 `
b110 _
b1011 n
b1011 m
b1011 i
b1011 h
1"
#176
0"
#177
b101 E
b100000 Q
b10 3
b10 Z
1K
b10 2
b10 X
1J
0S
0U
0T
b1011 i
b1011 h
b1011 n
b1011 m
b110 `
b110 _
b1011000 =
1"
#178
0"
#179
b101 Q
0K
0J
b1101 %
b1101 0
b1101 [
b10 $
b10 1
b10 Y
b1011001 =
b110 `
b110 _
b1011 n
b1011 m
b1011 i
b1011 h
1"
#180
0"
#181
b110 E
b100000 Q
b10 8
b10 j
1P
b10 7
b10 e
1O
b1011 i
b1011 h
b1011 n
b1011 m
b110 `
b110 _
b1011010 =
1"
#182
0"
#183
b110 Q
0P
0O
b11111111111111111111111111111111 *
b11111111111111111111111111111111 +
b11111111111111111111111111111111 l
b11111111111111111111111111111111 )
b11111111111111111111111111111111 ,
b11111111111111111111111111111111 g
b1011011 =
b110 `
b110 _
b1011 n
b1011 m
b1011 i
b1011 h
1"
#184
0"
#185
b0 )
b0 ,
b0 g
b0 *
b0 +
b0 l
b1000 E
b111 Q
b11111111111111111111111111111111 G
b11111111111111111111111111111111 F
b1011 i
b1011 h
b1011 n
b1011 m
b110 `
b110 _
b1011100 =
1"
#186
0"
#187
b100000 Q
b1101 8
b1101 j
1P
b1101 7
b1101 e
1O
b1011101 =
b110 `
b110 _
b1011 n
b1011 m
b1011 i
b1011 h
1"
#188
0"
#189
b11111111111111111111111111111111 )
b11111111111111111111111111111111 ,
b11111111111111111111111111111111 g
b11111111111111111111111111111111 *
b11111111111111111111111111111111 +
b11111111111111111111111111111111 l
b1000 Q
0P
0O
b1011 i
b1011 h
b1011 n
b1011 m
b110 `
b110 _
b1011110 =
1"
#190
0"
#191
b1001 Q
b11111111111111111111111111111111 I
b11111111111111111111111111111111 H
b0 *
b0 +
b0 l
b0 )
b0 ,
b0 g
b1011111 =
b110 `
b110 _
b1011 n
b1011 m
b1011 i
b1011 h
1"
#192
0"
#193
b1010 E
b100000 Q
b0 6
b0 c
1N
b1 8
b1 j
1P
b0 5
b0 a
1M
b1 7
b1 e
1O
b1011 i
b1011 h
b1011 n
b1011 m
b110 `
b110 _
b1100000 =
1"
#194
0"
#195
b1010 Q
0P
0O
0N
0M
b1 )
b1 ,
b1 g
b0 (
b0 -
b0 d
b1100001 =
b110 `
b110 _
b1011 n
b1011 m
b1011 i
b1011 h
1"
#196
0"
#197
b0 )
b0 ,
b0 g
b1011 Q
b1 9
b1011 i
b1011 h
b1011 n
b1011 m
b110 `
b110 _
b1100010 =
1"
#198
0"
#199
b1100 Q
b0 B
b0 k
b10 8
b10 j
1U
b10 7
b10 e
1T
b1100011 =
b110 `
b110 _
b1011 n
b1011 m
b1011 i
b1011 h
1"
#200
0"
#201
b1101 E
b100000 Q
1P
1O
0U
0T
b1011 i
b1011 h
b1011 n
b1011 m
b110 `
b110 _
b1 D
b1100100 =
1"
#202
0"
#203
b1101 Q
0P
0O
b1 )
b1 ,
b1 g
b1100101 =
b110 `
b110 _
b1011 n
b1011 m
b1011 i
b1011 h
1"
#204
0"
#205
b0 )
b0 ,
b0 g
b1110 Q
b110 9
b0 W
b1011 i
b1011 h
b1011 n
b1011 m
b110 `
b110 _
b1100110 =
1"
#206
0"
#207
b1111 E
b100000 Q
b110 4
b110 \
1L
b1100111 =
b110 `
b110 _
b1011 n
b1011 m
b1011 i
b1011 h
1"
#208
0"
#209
b1 &
b1 /
b1 ^
b1111 Q
0L
b1011 i
b1011 h
b1011 n
b1011 m
b110 `
b110 _
b1101000 =
1"
#210
0"
#211
b10000 Q
b1 :
b0 &
b0 /
b0 ^
b1101001 =
b110 `
b110 _
b1011 n
b1011 m
b1011 i
b1011 h
1"
#212
0"
#213
b1001 Q
b1011 i
b1011 h
b1011 n
b1011 m
b110 `
b110 _
b1101010 =
1"
#214
0"
#215
b1010 E
b100000 Q
b1 6
b1 c
1N
b1 8
b1 j
1P
b1 5
b1 a
1M
b1 7
b1 e
1O
b1101011 =
b110 `
b110 _
b1011 n
b1011 m
b1011 i
b1011 h
1"
#216
0"
#217
b1 (
b1 -
b1 d
b1 )
b1 ,
b1 g
b1010 Q
0P
0O
0N
0M
b1011 i
b1011 h
b1011 n
b1011 m
b110 `
b110 _
b1101100 =
1"
#218
0"
#219
b1011 Q
b1 ;
b1 9
b0 )
b0 ,
b0 g
b1101101 =
b110 `
b110 _
b1011 n
b1011 m
b1011 i
b1011 h
1"
#220
0"
#221
b1100 Q
b1 B
b1 k
b10 8
b10 j
1U
b10 7
b10 e
1T
b1011 i
b1011 h
b1011 n
b1011 m
b110 `
b110 _
b1101110 =
1"
#222
0"
#223
b1101 E
b100000 Q
1P
1O
0U
0T
b10 D
b1101111 =
b110 `
b110 _
b1011 n
b1011 m
b1011 i
b1011 h
1"
#224
0"
#225
b1 )
b1 ,
b1 g
b1 *
b1 +
b1 l
b1101 Q
0P
0O
b1011 i
b1011 h
b1011 n
b1011 m
b110 `
b110 _
b1110000 =
1"
#226
0"
#227
b1110 Q
b111 9
b1 W
b0 *
b0 +
b0 l
b0 )
b0 ,
b0 g
b1110001 =
b110 `
b110 _
b1011 n
b1011 m
b1011 i
b1011 h
1"
#228
0"
#229
b1111 E
b100000 Q
b111 4
b111 \
1L
b1011 i
b1011 h
b1011 n
b1011 m
b110 `
b110 _
b1110010 =
1"
#230
0"
#231
b1111 Q
0L
b1100 &
b1100 /
b1100 ^
b1110011 =
b110 `
b110 _
b1011 n
b1011 m
b1011 i
b1011 h
1"
#232
0"
#233
b0 &
b0 /
b0 ^
b10000 Q
b1100 :
b1011 i
b1011 h
b1011 n
b1011 m
b110 `
b110 _
b1110100 =
1"
#234
0"
#235
b1001 Q
b1110101 =
b110 `
b110 _
b1011 n
b1011 m
b1011 i
b1011 h
1"
#236
0"
#237
b1010 E
b100000 Q
b10 6
b10 c
1N
b1 8
b1 j
1P
b10 5
b10 a
1M
b1 7
b1 e
1O
b1011 i
b1011 h
b1011 n
b1011 m
b110 `
b110 _
b1110110 =
1"
#238
0"
#239
b1010 Q
0P
0O
0N
0M
b1 )
b1 ,
b1 g
b0 (
b0 -
b0 d
b1 '
b1 .
b1 b
b1110111 =
b110 `
b110 _
b1011 n
b1011 m
b1011 i
b1011 h
1"
#240
0"
#241
b0 )
b0 ,
b0 g
b1011 Q
b0 ;
b10 9
b1011 i
b1011 h
b1011 n
b1011 m
b110 `
b110 _
b1111000 =
1"
#242
0"
#243
b1100 Q
b0 B
b0 k
b10 8
b10 j
1U
b10 A
b10 f
b10 7
b10 e
1T
b1111001 =
b110 `
b110 _
b1011 n
b1011 m
b1011 i
b1011 h
1"
#244
0"
#245
b1101 E
b100000 Q
1P
1O
0U
0T
b1011 i
b1011 h
b1011 n
b1011 m
b110 `
b110 _
b11 D
b1111010 =
1"
#246
0"
#247
b1101 Q
0P
0O
b10 )
b10 ,
b10 g
b1111011 =
b110 `
b110 _
b1011 n
b1011 m
b1011 i
b1011 h
1"
#248
0"
#249
b0 )
b0 ,
b0 g
b1110 Q
b1100 9
b0 W
b10 V
b1011 i
b1011 h
b1011 n
b1011 m
b110 `
b110 _
b1111100 =
1"
#250
0"
#251
b1111 E
b100000 Q
b1100 4
b1100 \
1L
b1111101 =
b110 `
b110 _
b1011 n
b1011 m
b1011 i
b1011 h
1"
#252
0"
#253
b11111111111111111111111111111111 &
b11111111111111111111111111111111 /
b11111111111111111111111111111111 ^
b1111 Q
0L
b1011 i
b1011 h
b1011 n
b1011 m
b110 `
b110 _
b1111110 =
1"
#254
0"
#255
b10000 Q
b11111111111111111111111111111111 :
b0 &
b0 /
b0 ^
b1111111 =
b110 `
b110 _
b1011 n
b1011 m
b1011 i
b1011 h
1"
#256
0"
#257
b0 D
b10001 Q
b0 G
b10 F
b10 @
b10 ]
1S
b1011 i
b1011 h
b1011 n
b1011 m
b110 `
b110 _
b10000000 =
1"
#258
0"
#259
b10010 E
b100000 Q
b0 6
b0 c
1N
b0 5
b0 a
1M
0S
b10000001 =
b110 `
b110 _
b1011 n
b1011 m
b1011 i
b1011 h
1"
#260
0"
#261
b0 '
b0 .
b0 b
b10010 Q
0N
0M
b1011 i
b1011 h
b1011 n
b1011 m
b110 `
b110 _
b10000010 =
1"
#262
0"
#263
b10011 Q
b10000011 =
b110 `
b110 _
b1011 n
b1011 m
b1011 i
b1011 h
1"
#264
0"
#265
b10100 Q
b1011 i
b1011 h
b1011 n
b1011 m
b110 `
b110 _
b10000100 =
1"
#266
0"
#267
b10101 E
b100000 Q
1L
b1 D
b10000101 =
b110 `
b110 _
b1011 n
b1011 m
b1011 i
b1011 h
1"
#268
0"
#269
b10 &
b10 /
b10 ^
b10101 Q
0L
b1011 i
b1011 h
b1011 n
b1011 m
b110 `
b110 _
b10000110 =
1"
#270
0"
#271
b10110 Q
b10 :
b0 &
b0 /
b0 ^
b10000111 =
b110 `
b110 _
b1011 n
b1011 m
b1011 i
b1011 h
1"
#272
0"
#273
b10001 Q
b1011 i
b1011 h
b1011 n
b1011 m
b110 `
b110 _
b10001000 =
1"
#274
0"
#275
b10010 E
b100000 Q
b1 6
b1 c
1N
b1 5
b1 a
1M
b10001001 =
b110 `
b110 _
b1011 n
b1011 m
b1011 i
b1011 h
1"
#276
0"
#277
b1 (
b1 -
b1 d
b10010 Q
0N
0M
b1011 i
b1011 h
b1011 n
b1011 m
b110 `
b110 _
b10001010 =
1"
#278
0"
#279
b10011 Q
b1 W
b10001011 =
b110 `
b110 _
b1011 n
b1011 m
b1011 i
b1011 h
1"
#280
0"
#281
b10100 Q
b1101 9
b1011 i
b1011 h
b1011 n
b1011 m
b110 `
b110 _
b10001100 =
1"
#282
0"
#283
b10101 E
b100000 Q
b1101 4
b1101 \
1L
b10 D
b10001101 =
b110 `
b110 _
b1011 n
b1011 m
b1011 i
b1011 h
1"
#284
0"
