placement/VerilogSim_resultados/CHEB/random_placement_chebyshev.vcd
$date
	Fri May  8 22:24:58 2020
$end
$version
	Icarus Verilog
$end
$timescale
	1s
$end
$scope module test $end
$var wire 1 ! out $end
$var reg 1 " clk $end
$var reg 1 # reset $end
$scope module p1 $end
$var wire 32 $ a [31:0] $end
$var wire 32 % b [31:0] $end
$var wire 1 " clk $end
$var wire 32 & outGrid [31:0] $end
$var wire 32 ' outOX1 [31:0] $end
$var wire 32 ( outOX2 [31:0] $end
$var wire 32 ) outOX3 [31:0] $end
$var wire 32 * outOX4 [31:0] $end
$var wire 32 + outOY1 [31:0] $end
$var wire 32 , outOY2 [31:0] $end
$var wire 32 - outOY3 [31:0] $end
$var wire 32 . outOY4 [31:0] $end
$var wire 32 / outPX [31:0] $end
$var wire 32 0 outPY [31:0] $end
$var wire 1 # reset $end
$var wire 32 1 doutPY [31:0] $end
$var wire 32 2 doutPX [31:0] $end
$var wire 32 3 doutOY4 [31:0] $end
$var wire 32 4 doutOY3 [31:0] $end
$var wire 32 5 doutOY2 [31:0] $end
$var wire 32 6 doutOY1 [31:0] $end
$var wire 32 7 doutOX4 [31:0] $end
$var wire 32 8 doutOX3 [31:0] $end
$var wire 32 9 doutOX2 [31:0] $end
$var wire 32 : doutOX1 [31:0] $end
$var wire 32 ; doutGrid [31:0] $end
$var wire 32 < doutEB [31:0] $end
$var wire 32 = doutEA [31:0] $end
$var reg 32 > CASR_reg [31:0] $end
$var reg 32 ? LFSR_reg [31:0] $end
$var reg 32 @ addrEA [31:0] $end
$var reg 32 A addrEB [31:0] $end
$var reg 32 B addrGrid [31:0] $end
$var reg 32 C addrOX1 [31:0] $end
$var reg 32 D addrOX2 [31:0] $end
$var reg 32 E addrOX3 [31:0] $end
$var reg 32 F addrOX4 [31:0] $end
$var reg 32 G addrOY1 [31:0] $end
$var reg 32 H addrOY2 [31:0] $end
$var reg 32 I addrOY3 [31:0] $end
$var reg 32 J addrOY4 [31:0] $end
$var reg 32 K addrPX [31:0] $end
$var reg 32 L addrPY [31:0] $end
$var reg 32 M aux1 [31:0] $end
$var reg 32 N aux2 [31:0] $end
$var reg 32 O aux3 [31:0] $end
$var reg 32 P aux4 [31:0] $end
$var reg 32 Q cont [31:0] $end
$var reg 32 R diff_pos_x [31:0] $end
$var reg 32 S diff_pos_y [31:0] $end
$var reg 32 T dinGrid [31:0] $end
$var reg 32 U dinPX [31:0] $end
$var reg 32 V dinPY [31:0] $end
$var reg 32 W i [31:0] $end
$var reg 1 X imp $end
$var reg 1 Y imprime $end
$var reg 32 Z j [31:0] $end
$var reg 32 [ k [31:0] $end
$var reg 32 \ next_state [31:0] $end
$var reg 1 ! out $end
$var reg 1 ] outbitLFSR $end
$var reg 32 ^ pos_a_X [31:0] $end
$var reg 32 _ pos_a_Y [31:0] $end
$var reg 32 ` pos_b_X [31:0] $end
$var reg 32 a pos_b_Y [31:0] $end
$var reg 1 b reEA $end
$var reg 1 c reEB $end
$var reg 1 d reGrid $end
$var reg 1 e reOX1 $end
$var reg 1 f reOX2 $end
$var reg 1 g reOX3 $end
$var reg 1 h reOX4 $end
$var reg 1 i reOY1 $end
$var reg 1 j reOY2 $end
$var reg 1 k reOY3 $end
$var reg 1 l reOY4 $end
$var reg 1 m rePX $end
$var reg 1 n rePY $end
$var reg 32 o rnd_number [31:0] $end
$var reg 32 p seed [31:0] $end
$var reg 32 q state [31:0] $end
$var reg 32 r sum [31:0] $end
$var reg 32 s sum_1hop [31:0] $end
$var reg 1 t weGrid $end
$var reg 1 u wePX $end
$var reg 1 v wePY $end
$var reg 32 w xi [31:0] $end
$var reg 32 x xj [31:0] $end
$scope module ea $end
$var wire 32 y addr [31:0] $end
$var wire 1 " clk $end
$var wire 1 b read $end
$var reg 32 z data [31:0] $end
$upscope $end
$scope module eb $end
$var wire 32 { addr [31:0] $end
$var wire 1 " clk $end
$var wire 1 c read $end
$var reg 32 | data [31:0] $end
$upscope $end
$scope module grid $end
$var wire 32 } addr [31:0] $end
$var wire 1 " clk $end
$var wire 32 ~ dataWrite [31:0] $end
$var wire 1 Y imp $end
$var wire 1 d read $end
$var wire 1 # reset $end
$var wire 1 t write $end
$var reg 32 !" dataRead [31:0] $end
$var reg 32 "" i [31:0] $end
$var reg 32 #" j [31:0] $end
$upscope $end
$scope module offset_x1 $end
$var wire 32 $" addr [31:0] $end
$var wire 1 " clk $end
$var wire 1 e read $end
$var reg 32 %" data [31:0] $end
$upscope $end
$scope module offset_x2 $end
$var wire 32 &" addr [31:0] $end
$var wire 1 " clk $end
$var wire 1 f read $end
$var reg 32 '" data [31:0] $end
$upscope $end
$scope module offset_x3 $end
$var wire 32 (" addr [31:0] $end
$var wire 1 " clk $end
$var wire 1 g read $end
$var reg 32 )" data [31:0] $end
$upscope $end
$scope module offset_x4 $end
$var wire 32 *" addr [31:0] $end
$var wire 1 " clk $end
$var wire 1 h read $end
$var reg 32 +" data [31:0] $end
$upscope $end
$scope module offset_y1 $end
$var wire 32 ," addr [31:0] $end
$var wire 1 " clk $end
$var wire 1 i read $end
$var reg 32 -" data [31:0] $end
$upscope $end
$scope module offset_y2 $end
$var wire 32 ." addr [31:0] $end
$var wire 1 " clk $end
$var wire 1 j read $end
$var reg 32 /" data [31:0] $end
$upscope $end
$scope module offset_y3 $end
$var wire 32 0" addr [31:0] $end
$var wire 1 " clk $end
$var wire 1 k read $end
$var reg 32 1" data [31:0] $end
$upscope $end
$scope module offset_y4 $end
$var wire 32 2" addr [31:0] $end
$var wire 1 " clk $end
$var wire 1 l read $end
$var reg 32 3" data [31:0] $end
$upscope $end
$scope module pos_X $end
$var wire 32 4" addr [31:0] $end
$var wire 1 " clk $end
$var wire 32 5" dataWrite [31:0] $end
$var wire 1 X imp $end
$var wire 1 m read $end
$var wire 1 # reset $end
$var wire 1 u write $end
$var reg 32 6" dataRead [31:0] $end
$var reg 32 7" i [31:0] $end
$var reg 32 8" j [31:0] $end
$upscope $end
$scope module pos_Y $end
$var wire 32 9" addr [31:0] $end
$var wire 1 " clk $end
$var wire 32 :" dataWrite [31:0] $end
$var wire 1 X imp $end
$var wire 1 n read $end
$var wire 1 # reset $end
$var wire 1 v write $end
$var reg 32 ;" dataRead [31:0] $end
$var reg 32 <" i [31:0] $end
$var reg 32 =" j [31:0] $end
$upscope $end
$upscope $end
$upscope $end
$enddefinitions $end
#0
$dumpvars
bx ="
bx <"
bx ;"
bx :"
bx 9"
bx 8"
bx 7"
bx 6"
bx 5"
bx 4"
b0 3"
bx 2"
b0 1"
bx 0"
b0 /"
bx ."
b0 -"
bx ,"
b0 +"
bx *"
b0 )"
bx ("
b0 '"
bx &"
b0 %"
bx $"
bx #"
bx ""
bx !"
bx ~
bx }
b0 |
bx {
b0 z
bx y
bx x
bx w
xv
xu
xt
bx s
bx r
bx q
bx p
bx o
xn
xm
xl
xk
xj
xi
xh
xg
xf
xe
xd
xc
xb
bx a
bx `
bx _
bx ^
x]
bx \
bx [
bx Z
xY
xX
bx W
bx V
bx U
bx T
bx S
bx R
bx Q
bx P
bx O
bx N
bx M
bx L
bx K
bx J
bx I
bx H
bx G
bx F
bx E
bx D
bx C
bx B
bx A
bx @
bx ?
bx >
b0 =
b0 <
bx ;
b0 :
b0 9
b0 8
b0 7
b0 6
b0 5
b0 4
b0 3
bx 2
bx 1
bx 0
bx /
b0 .
b0 -
b0 ,
b0 +
b0 *
b0 )
b0 (
b0 '
bx &
b0 %
b0 $
0#
0"
x!
$end
#1
0Y
0X
b1001111100001100100010100000100 p
b0 s
b0 Q
b0 r
b0 \
b100001 q
b0 T
b0 ~
b0 B
b0 }
0t
0d
b0 V
b0 :"
b0 L
b0 9"
0v
0n
b0 U
b0 5"
b0 K
b0 4"
0u
0m
b0 J
b0 2"
0l
b0 F
b0 *"
0h
b0 I
b0 0"
0k
b0 E
b0 ("
0g
b0 H
b0 ."
0j
b0 D
b0 &"
0f
b0 G
b0 ,"
0i
b0 C
b0 $"
0e
b0 A
b0 {
0c
b0 @
b0 y
0b
b0 /
b0 2
b0 6"
b0 0
b0 1
b0 ;"
b0 &
b0 ;
b0 !"
1"
1#
#2
0"
#3
b100011 q
1]
b1001111100001100100010100000100 ?
b1001111100001100100010100000100 >
b1 Q
1"
0#
#4
0"
#5
b100100 q
b1001111100001100100010100000101 ?
b111 >
b10 Q
1"
#6
0"
#7
b0 q
b1001111100001100100010100000010 o
b11 Q
1"
#8
0"
#9
b1 \
b100000 q
1b
b100 Q
1"
#10
0"
#11
b1 q
0b
b101 Q
b1111 $
b1111 =
b1111 z
1"
#12
0"
#13
b100010 \
b100001 q
b1001111100001100100010100000101 p
b10 U
b10 5"
b1111 K
b1111 4"
1u
b110 Q
1"
#14
0"
#15
b100011 q
b1001111100001100100010100000101 >
0u
b111 Q
1"
#16
0"
#17
b100100 q
b1001111100001100100010100000100 ?
b1 >
b1000 Q
1"
#18
0"
#19
b100010 q
b1001111100001100100010100000101 o
b1001 Q
1"
#20
0"
#21
b10 \
b100001 q
b1001111100001100100010100000110 p
b1 V
b1 :"
b1111 L
b1111 9"
1v
b1010 Q
1"
#22
0"
#23
b100011 q
b1001111100001100100010100000110 ?
b1001111100001100100010100000110 >
0v
b1011 Q
1"
#24
0"
#25
b100100 q
b1001111100001100100010100000111 ?
b11 >
b1100 Q
1"
#26
0"
#27
b10 q
b1001111100001100100010100000100 o
b1101 Q
1"
#28
0"
#29
b11 \
b100000 q
b0 Z
b0 W
1n
1m
b1110 Q
1"
#30
0"
#31
b11 q
0n
0m
b1111 Q
b1 0
b1 1
b1 ;"
b10 /
b10 2
b10 6"
1"
#32
0"
#33
b0 /
b0 2
b0 6"
b0 0
b0 1
b0 ;"
b100 q
b1111 T
b1111 ~
b1001 B
b1001 }
1t
b10000 Q
1"
#34
0"
#35
b101 \
b100000 q
1c
1b
0t
b10001 Q
1"
#36
0"
#37
b1110 %
b1110 <
b1110 |
b101 q
0c
0b
b10010 Q
1"
#38
0"
#39
b110 \
b100000 q
1n
1m
b10011 Q
1"
#40
0"
#41
b10 /
b10 2
b10 6"
b1 0
b1 1
b1 ;"
b110 q
0n
0m
b10100 Q
1"
#42
0"
#43
b1000 \
b111 q
b1 _
b10 ^
b10101 Q
b0 0
b0 1
b0 ;"
b0 /
b0 2
b0 6"
1"
#44
0"
#45
b100000 q
b1110 L
b1110 9"
1n
b1110 K
b1110 4"
1m
b10110 Q
1"
#46
0"
#47
b1000 q
0n
0m
b10111 Q
b11111111111111111111111111111111 0
b11111111111111111111111111111111 1
b11111111111111111111111111111111 ;"
b11111111111111111111111111111111 /
b11111111111111111111111111111111 2
b11111111111111111111111111111111 6"
1"
#48
0"
#49
b0 /
b0 2
b0 6"
b0 0
b0 1
b0 ;"
b10001 q
b11111111111111111111111111111111 a
b11111111111111111111111111111111 `
b11000 Q
1"
#50
0"
#51
b10010 \
b100001 q
1l
1k
1j
1i
1h
1g
1f
1e
b1001111100001100100010100000111 p
b0 [
b11001 Q
1"
#52
0"
#53
b100011 q
b1001111100001100100010100000111 >
0l
0h
0k
0g
0j
0f
0i
0e
b11010 Q
1"
#54
0"
#55
b100100 q
b1001111100001100100010100000110 ?
b1 >
b11011 Q
1"
#56
0"
#57
b10010 q
b1001111100001100100010100000111 o
b11100 Q
1"
#58
0"
#59
b10011 q
b1 x
b10 w
b11101 Q
1"
#60
0"
#61
b10100 q
b1001 M
b11110 Q
1"
#62
0"
#63
b10101 \
b100000 q
1d
b11111 Q
b1 Z
1"
#64
0"
#65
b1111 &
b1111 ;
b1111 !"
b10101 q
0d
b100000 Q
1"
#66
0"
#67
b10110 q
b1111 N
b100001 Q
b0 &
b0 ;
b0 !"
1"
#68
0"
#69
b10001 q
b100010 Q
1"
#70
0"
#71
b10010 \
b100001 q
b1 J
b1 2"
1l
b1 I
b1 0"
1k
b1 H
b1 ."
1j
b1 G
b1 ,"
1i
b1 F
b1 *"
1h
b1 E
b1 ("
1g
b1 D
b1 &"
1f
b1 C
b1 $"
1e
b1001111100001100100010100001000 p
b11 [
b100011 Q
1"
#72
0"
#73
b11111111111111111111111111111111 (
b11111111111111111111111111111111 9
b11111111111111111111111111111111 '"
b11111111111111111111111111111111 *
b11111111111111111111111111111111 7
b11111111111111111111111111111111 +"
b1 +
b1 6
b1 -"
b11111111111111111111111111111111 -
b11111111111111111111111111111111 4
b11111111111111111111111111111111 1"
b100011 q
b1001111100001100100010100001000 ?
b1001111100001100100010100001000 >
0l
0h
0k
0g
0j
0f
0i
0e
b100100 Q
1"
#74
0"
#75
b100100 q
b1001111100001100100010100001001 ?
b1111 >
b100101 Q
1"
#76
0"
#77
b10010 q
b1001111100001100100010100000110 o
b100110 Q
1"
#78
0"
#79
b10011 q
b1 w
b100111 Q
1"
#80
0"
#81
b10100 q
b101 M
b101000 Q
1"
#82
0"
#83
b10101 \
b100000 q
b101 B
b101 }
1d
b101001 Q
b10 Z
1"
#84
0"
#85
b11111111111111111111111111111111 &
b11111111111111111111111111111111 ;
b11111111111111111111111111111111 !"
b10101 q
0d
b101010 Q
1"
#86
0"
#87
b10110 q
b11111111111111111111111111111111 N
b101011 Q
b0 &
b0 ;
b0 !"
1"
#88
0"
#89
b100 q
b0 Z
1v
b1 U
b1 5"
1u
b1 a
b1 `
b1110 T
b1110 ~
1t
b101100 Q
b1 W
1"
#90
0"
#91
b101 \
b100000 q
b1 A
b1 {
1c
b1 @
b1 y
1b
0t
0v
0u
b101101 Q
1"
#92
0"
#93
b1110 $
b1110 =
b1110 z
b1100 %
b1100 <
b1100 |
b101 q
0c
0b
b101110 Q
1"
#94
0"
#95
b110 \
b100000 q
1n
1m
b101111 Q
1"
#96
0"
#97
b1 /
b1 2
b1 6"
b1 0
b1 1
b1 ;"
b110 q
0n
0m
b110000 Q
1"
#98
0"
#99
b1000 \
b111 q
b1 ^
b110001 Q
b0 0
b0 1
b0 ;"
b0 /
b0 2
b0 6"
1"
#100
0"
#101
b100000 q
b1100 L
b1100 9"
1n
b1100 K
b1100 4"
1m
b110010 Q
1"
#102
0"
#103
b1000 q
0n
0m
b110011 Q
b11111111111111111111111111111111 0
b11111111111111111111111111111111 1
b11111111111111111111111111111111 ;"
b11111111111111111111111111111111 /
b11111111111111111111111111111111 2
b11111111111111111111111111111111 6"
1"
#104
0"
#105
b0 /
b0 2
b0 6"
b0 0
b0 1
b0 ;"
b1001 q
b11111111111111111111111111111111 a
b11111111111111111111111111111111 `
b110100 Q
1"
#106
0"
#107
b10001 q
b110101 Q
1"
#108
0"
#109
b10010 \
b100001 q
b0 J
b0 2"
1l
b0 I
b0 0"
1k
b0 H
b0 ."
1j
b0 G
b0 ,"
1i
b0 F
b0 *"
1h
b0 E
b0 ("
1g
b0 D
b0 &"
1f
b0 C
b0 $"
1e
b1001111100001100100010100001001 p
b10 [
b110110 Q
1"
#110
0"
#111
b100011 q
b1001111100001100100010100001001 >
0l
0h
0k
0g
0j
0f
0i
0e
b110111 Q
b0 -
b0 4
b0 1"
b0 +
b0 6
b0 -"
b0 *
b0 7
b0 +"
b0 (
b0 9
b0 '"
1"
#112
0"
#113
b100100 q
b1001111100001100100010100001000 ?
b1 >
b111000 Q
1"
#114
0"
#115
b10010 q
b1001111100001100100010100001001 o
b111001 Q
1"
#116
0"
#117
b10011 q
b111010 Q
1"
#118
0"
#119
b10100 q
b111011 Q
1"
#120
0"
#121
b10101 \
b100000 q
1d
b111100 Q
b1 Z
1"
#122
0"
#123
b10101 q
0d
b111101 Q
b1110 &
b1110 ;
b1110 !"
1"
#124
0"
#125
b0 &
b0 ;
b0 !"
b10110 q
b1110 N
b111110 Q
1"
#126
0"
#127
b10001 q
b111111 Q
1"
#128
0"
#129
b10010 \
b100001 q
b1 J
b1 2"
1l
b1 I
b1 0"
1k
b1 H
b1 ."
1j
b1 G
b1 ,"
1i
b1 F
b1 *"
1h
b1 E
b1 ("
1g
b1 D
b1 &"
1f
b1 C
b1 $"
1e
b1001111100001100100010100001010 p
b1 [
b1000000 Q
1"
#130
0"
#131
b100011 q
b1001111100001100100010100001010 ?
b1001111100001100100010100001010 >
0l
0h
0k
0g
0j
0f
0i
0e
b1000001 Q
b11111111111111111111111111111111 -
b11111111111111111111111111111111 4
b11111111111111111111111111111111 1"
b1 +
b1 6
b1 -"
b11111111111111111111111111111111 *
b11111111111111111111111111111111 7
b11111111111111111111111111111111 +"
b11111111111111111111111111111111 (
b11111111111111111111111111111111 9
b11111111111111111111111111111111 '"
1"
#132
0"
#133
b100100 q
b1001111100001100100010100001011 ?
b11 >
b1000010 Q
1"
#134
0"
#135
b10010 q
b1001111100001100100010100001000 o
b1000011 Q
1"
#136
0"
#137
b10011 q
b0 w
b1000100 Q
1"
#138
0"
#139
b10100 q
b1 M
b1000101 Q
1"
#140
0"
#141
b10101 \
b100000 q
b1 B
b1 }
1d
b1000110 Q
b10 Z
1"
#142
0"
#143
b10101 q
0d
b1000111 Q
b11111111111111111111111111111111 &
b11111111111111111111111111111111 ;
b11111111111111111111111111111111 !"
1"
#144
0"
#145
b0 &
b0 ;
b0 !"
b10110 q
b11111111111111111111111111111111 N
b1001000 Q
1"
#146
0"
#147
b100 q
b0 Z
1v
b0 U
b0 5"
1u
b1 a
b0 `
b1100 T
b1100 ~
1t
b1001001 Q
b10 W
1"
#148
0"
#149
b101 \
b100000 q
b10 A
b10 {
1c
b10 @
b10 y
1b
0t
0v
0u
b1001010 Q
1"
#150
0"
#151
b101 q
0c
0b
b1001011 Q
b1101 %
b1101 <
b1101 |
1"
#152
0"
#153
b110 \
b100000 q
b1110 L
b1110 9"
1n
b1110 K
b1110 4"
1m
b1001100 Q
1"
#154
0"
#155
b110 q
0n
0m
b1001101 Q
b1 0
b1 1
b1 ;"
b1 /
b1 2
b1 6"
1"
#156
0"
#157
b0 /
b0 2
b0 6"
b0 0
b0 1
b0 ;"
b1000 \
b111 q
b1001110 Q
1"
#158
0"
#159
b100000 q
b1101 L
b1101 9"
1n
b1101 K
b1101 4"
1m
b1001111 Q
1"
#160
0"
#161
b11111111111111111111111111111111 /
b11111111111111111111111111111111 2
b11111111111111111111111111111111 6"
b11111111111111111111111111111111 0
b11111111111111111111111111111111 1
b11111111111111111111111111111111 ;"
b1000 q
0n
0m
b1010000 Q
1"
#162
0"
#163
b1001 q
b11111111111111111111111111111111 a
b11111111111111111111111111111111 `
b1010001 Q
b0 0
b0 1
b0 ;"
b0 /
b0 2
b0 6"
1"
#164
0"
#165
b10001 q
b1010010 Q
1"
#166
0"
#167
b10010 \
b100001 q
b0 J
b0 2"
1l
b0 I
b0 0"
1k
b0 H
b0 ."
1j
b0 G
b0 ,"
1i
b0 F
b0 *"
1h
b0 E
b0 ("
1g
b0 D
b0 &"
1f
b0 C
b0 $"
1e
b1001111100001100100010100001011 p
b0 [
b1010011 Q
1"
#168
0"
#169
b0 (
b0 9
b0 '"
b0 *
b0 7
b0 +"
b0 +
b0 6
b0 -"
b0 -
b0 4
b0 1"
b100011 q
b1001111100001100100010100001011 >
0l
0h
0k
0g
0j
0f
0i
0e
b1010100 Q
1"
#170
0"
#171
b100100 q
b1001111100001100100010100001010 ?
b1 >
b1010101 Q
1"
#172
0"
#173
b10010 q
b1001111100001100100010100001011 o
b1010110 Q
1"
#174
0"
#175
b10011 q
b1 w
b1010111 Q
1"
#176
0"
#177
b10100 q
b101 M
b1011000 Q
1"
#178
0"
#179
b10101 \
b100000 q
b101 B
b101 }
1d
b1011001 Q
b1 Z
1"
#180
0"
#181
b1110 &
b1110 ;
b1110 !"
b10101 q
0d
b1011010 Q
1"
#182
0"
#183
b10110 q
b1110 N
b1011011 Q
b0 &
b0 ;
b0 !"
1"
#184
0"
#185
b10001 q
b1011100 Q
1"
#186
0"
#187
b10010 \
b100001 q
b1 J
b1 2"
1l
b1 I
b1 0"
1k
b1 H
b1 ."
1j
b1 G
b1 ,"
1i
b1 F
b1 *"
1h
b1 E
b1 ("
1g
b1 D
b1 &"
1f
b1 C
b1 $"
1e
b1001111100001100100010100001100 p
b11 [
b1011101 Q
1"
#188
0"
#189
b11111111111111111111111111111111 (
b11111111111111111111111111111111 9
b11111111111111111111111111111111 '"
b11111111111111111111111111111111 *
b11111111111111111111111111111111 7
b11111111111111111111111111111111 +"
b1 +
b1 6
b1 -"
b11111111111111111111111111111111 -
b11111111111111111111111111111111 4
b11111111111111111111111111111111 1"
b100011 q
b1001111100001100100010100001100 ?
b1001111100001100100010100001100 >
0l
0h
0k
0g
0j
0f
0i
0e
b1011110 Q
1"
#190
0"
#191
b100100 q
b1001111100001100100010100001101 ?
b111 >
b1011111 Q
1"
#192
0"
#193
b10010 q
b1001111100001100100010100001010 o
b1100000 Q
1"
#194
0"
#195
b10011 q
b0 w
b1100001 Q
1"
#196
0"
#197
b10100 q
b1 M
b1100010 Q
1"
#198
0"
#199
b10101 \
b100000 q
b1 B
b1 }
1d
b1100011 Q
b10 Z
1"
#200
0"
#201
b1100 &
b1100 ;
b1100 !"
b10101 q
0d
b1100100 Q
1"
#202
0"
#203
b10110 q
b1100 N
b1100101 Q
b0 &
b0 ;
b0 !"
1"
#204
0"
#205
b10001 q
b1100110 Q
1"
#206
0"
#207
b10010 \
b100001 q
b10 J
b10 2"
1l
b10 I
b10 0"
1k
b10 H
b10 ."
1j
b10 G
b10 ,"
1i
b10 F
b10 *"
1h
b10 E
b10 ("
1g
b10 D
b10 &"
1f
b10 C
b10 $"
1e
b1001111100001100100010100001101 p
b10 [
b1100111 Q
1"
#208
0"
#209
b1 '
b1 :
b1 %"
b0 (
b0 9
b0 '"
b1 )
b1 8
b1 )"
b1 *
b1 7
b1 +"
b0 +
b0 6
b0 -"
b1 ,
b1 5
b1 /"
b0 -
b0 4
b0 1"
b100011 q
b1001111100001100100010100001101 >
0l
0h
0k
0g
0j
0f
0i
0e
b1101000 Q
1"
#210
0"
#211
b100100 q
b1001111100001100100010100001100 ?
b1 >
b1101001 Q
1"
#212
0"
#213
b10010 q
b1001111100001100100010100001101 o
b1101010 Q
1"
#214
0"
#215
b10011 q
b10 w
b1101011 Q
1"
#216
0"
#217
b10100 q
b1001 M
b1101100 Q
1"
#218
0"
#219
b10101 \
b100000 q
b1001 B
b1001 }
1d
b1101101 Q
b11 Z
1"
#220
0"
#221
b1111 &
b1111 ;
b1111 !"
b10101 q
0d
b1101110 Q
1"
#222
0"
#223
b10110 q
b1111 N
b1101111 Q
b0 &
b0 ;
b0 !"
1"
#224
0"
#225
b10001 q
b1110000 Q
1"
#226
0"
#227
b10010 \
b100001 q
b11 J
b11 2"
1l
b11 I
b11 0"
1k
b11 H
b11 ."
1j
b11 G
b11 ,"
1i
b11 F
b11 *"
1h
b11 E
b11 ("
1g
b11 D
b11 &"
1f
b11 C
b11 $"
1e
b1001111100001100100010100001110 p
b1 [
b1110001 Q
1"
#228
0"
#229
b0 '
b0 :
b0 %"
b1 (
b1 9
b1 '"
b0 )
b0 8
b0 )"
b0 *
b0 7
b0 +"
b11111111111111111111111111111111 +
b11111111111111111111111111111111 6
b11111111111111111111111111111111 -"
b0 ,
b0 5
b0 /"
b1 -
b1 4
b1 1"
b11111111111111111111111111111111 .
b11111111111111111111111111111111 3
b11111111111111111111111111111111 3"
b100011 q
b1001111100001100100010100001110 ?
b1001111100001100100010100001110 >
0l
0h
0k
0g
0j
0f
0i
0e
b1110010 Q
1"
#230
0"
#231
b100100 q
b1001111100001100100010100001111 ?
b11 >
b1110011 Q
1"
#232
0"
#233
b10010 q
b1001111100001100100010100001100 o
b1110100 Q
1"
#234
0"
#235
b10011 q
b1110101 Q
1"
#236
0"
#237
b10100 q
b1110110 Q
1"
#238
0"
#239
b10101 \
b100000 q
1d
b1110111 Q
b100 Z
1"
#240
0"
#241
b1111 &
b1111 ;
b1111 !"
b10101 q
0d
b1111000 Q
1"
#242
0"
#243
b10110 q
b1111001 Q
b0 &
b0 ;
b0 !"
1"
#244
0"
#245
b10001 q
b1111010 Q
1"
#246
0"
#247
b10010 \
b100001 q
b100 J
b100 2"
1l
b100 I
b100 0"
1k
b100 H
b100 ."
1j
b100 G
b100 ,"
1i
b100 F
b100 *"
1h
b100 E
b100 ("
1g
b100 D
b100 &"
1f
b100 C
b100 $"
1e
b1001111100001100100010100001111 p
b0 [
b1111011 Q
1"
#248
0"
#249
b11111111111111111111111111111111 '
b11111111111111111111111111111111 :
b11111111111111111111111111111111 %"
b0 (
b0 9
b0 '"
b11111111111111111111111111111111 )
b11111111111111111111111111111111 8
b11111111111111111111111111111111 )"
b11111111111111111111111111111111 *
b11111111111111111111111111111111 7
b11111111111111111111111111111111 +"
b0 +
b0 6
b0 -"
b11111111111111111111111111111111 ,
b11111111111111111111111111111111 5
b11111111111111111111111111111111 /"
b0 -
b0 4
b0 1"
b1 .
b1 3
b1 3"
b100011 q
b1001111100001100100010100001111 >
0l
0h
0k
0g
0j
0f
0i
0e
b1111100 Q
1"
#250
0"
#251
b100100 q
b1001111100001100100010100001110 ?
b1 >
b1111101 Q
1"
#252
0"
#253
b10010 q
b1001111100001100100010100001111 o
b1111110 Q
1"
#254
0"
#255
b10011 q
b0 w
b1111111 Q
1"
#256
0"
#257
b10100 q
b1 M
b10000000 Q
1"
#258
0"
#259
b10101 \
b100000 q
b1 B
b1 }
1d
b10000001 Q
b101 Z
1"
#260
0"
#261
b1100 &
b1100 ;
b1100 !"
b10101 q
0d
b10000010 Q
1"
#262
0"
#263
b10110 q
b1100 N
b10000011 Q
b0 &
b0 ;
b0 !"
1"
#264
0"
#265
b10001 q
b10000100 Q
1"
#266
0"
#267
b10010 \
b100001 q
b101 J
b101 2"
1l
b101 I
b101 0"
1k
b101 H
b101 ."
1j
b101 G
b101 ,"
1i
b101 F
b101 *"
1h
b101 E
b101 ("
1g
b101 D
b101 &"
1f
b101 C
b101 $"
1e
b1001111100001100100010100010000 p
b11 [
b10000101 Q
1"
#268
0"
#269
b11111111111111111111111111111111 (
b11111111111111111111111111111111 9
b11111111111111111111111111111111 '"
b1 +
b1 6
b1 -"
b1 ,
b1 5
b1 /"
b1 -
b1 4
b1 1"
b100011 q
b1001111100001100100010100010000 ?
b1001111100001100100010100010000 >
0l
0h
0k
0g
0j
0f
0i
0e
b10000110 Q
1"
#270
0"
#271
b100100 q
b1001111100001100100010100010001 ?
b11111 >
b10000111 Q
1"
#272
0"
#273
b10010 q
b1001111100001100100010100001110 o
b10001000 Q
1"
#274
0"
#275
b10011 q
b10 x
b10001001 Q
1"
#276
0"
#277
b10100 q
b10 M
b10001010 Q
1"
#278
0"
#279
b10101 \
b100000 q
b10 B
b10 }
1d
b10001011 Q
b110 Z
1"
#280
0"
#281
b11111111111111111111111111111111 &
b11111111111111111111111111111111 ;
b11111111111111111111111111111111 !"
b10101 q
0d
b10001100 Q
1"
#282
0"
#283
b10110 q
b11111111111111111111111111111111 N
b10001101 Q
b0 &
b0 ;
b0 !"
1"
#284
0"
#285
b100 q
b0 Z
b10 V
b10 :"
1v
1u
b10 a
b0 `
b1101 T
b1101 ~
1t
b10001110 Q
b11 W
1"
#286
0"
#287
b101 \
b100000 q
b11 A
b11 {
1c
b11 @
b11 y
1b
0t
0v
0u
b10001111 Q
1"
#288
0"
#289
b1100 $
b1100 =
b1100 z
b1010 %
b1010 <
b1010 |
b101 q
0c
0b
b10010000 Q
1"
#290
0"
#291
b110 \
b100000 q
b1100 L
b1100 9"
1n
b1100 K
b1100 4"
1m
b10010001 Q
1"
#292
0"
#293
b1 0
b1 1
b1 ;"
b110 q
0n
0m
b10010010 Q
1"
#294
0"
#295
b1000 \
b111 q
b0 ^
b10010011 Q
b0 0
b0 1
b0 ;"
1"
#296
0"
#297
b100000 q
b1010 L
b1010 9"
1n
b1010 K
b1010 4"
1m
b10010100 Q
1"
#298
0"
#299
b1000 q
0n
0m
b10010101 Q
b11111111111111111111111111111111 0
b11111111111111111111111111111111 1
b11111111111111111111111111111111 ;"
b11111111111111111111111111111111 /
b11111111111111111111111111111111 2
b11111111111111111111111111111111 6"
1"
#300
0"
#301
b0 /
b0 2
b0 6"
b0 0
b0 1
b0 ;"
b1001 q
b11111111111111111111111111111111 a
b11111111111111111111111111111111 `
b10010110 Q
1"
#302
0"
#303
b10001 q
b10010111 Q
1"
#304
0"
#305
b10010 \
b100001 q
b0 J
b0 2"
1l
b0 I
b0 0"
1k
b0 H
b0 ."
1j
b0 G
b0 ,"
1i
b0 F
b0 *"
1h
b0 E
b0 ("
1g
b0 D
b0 &"
1f
b0 C
b0 $"
1e
b1001111100001100100010100010001 p
b10 [
b10011000 Q
1"
#306
0"
#307
b100011 q
b1001111100001100100010100010001 >
0l
0h
0k
0g
0j
0f
0i
0e
b10011001 Q
b0 .
b0 3
b0 3"
b0 -
b0 4
b0 1"
b0 ,
b0 5
b0 /"
b0 +
b0 6
b0 -"
b0 *
b0 7
b0 +"
b0 )
b0 8
b0 )"
b0 (
b0 9
b0 '"
b0 '
b0 :
b0 %"
1"
#308
0"
#309
b100100 q
b1001111100001100100010100010000 ?
b1 >
b10011010 Q
1"
#310
0"
#311
b10010 q
b1001111100001100100010100010001 o
b10011011 Q
1"
#312
0"
#313
b10011 q
b1 x
b10011100 Q
1"
#314
0"
#315
b10100 q
b1 M
b10011101 Q
1"
#316
0"
#317
b10101 \
b100000 q
b1 B
b1 }
1d
b10011110 Q
b1 Z
1"
#318
0"
#319
b10101 q
0d
b10011111 Q
b1100 &
b1100 ;
b1100 !"
1"
#320
0"
#321
b0 &
b0 ;
b0 !"
b10110 q
b1100 N
b10100000 Q
1"
#322
0"
#323
b10001 q
b10100001 Q
1"
#324
0"
